<?xml version="1.0" encoding="utf-8"?>
<!-- Generator: Adobe Illustrator 21.0.2, SVG Export Plug-In . SVG Version: 6.00 Build 0)  -->
<svg version="1.1" id="bowling" xmlns="http://www.w3.org/2000/svg" xmlns:xlink="http://www.w3.org/1999/xlink" x="0px" y="0px"
	 viewBox="0 0 128 128" style="enable-background:new 0 0 128 128;" xml:space="preserve">
<style type="text/css">
	.st0{fill:#FBD000;}
	.st1{fill-rule:evenodd;clip-rule:evenodd;fill:#EAEAEA;}
	.st2{fill-rule:evenodd;clip-rule:evenodd;fill:#D4D6D6;}
	.st3{fill-rule:evenodd;clip-rule:evenodd;fill:#75B600;}
	.st4{fill:#663210;}
	.st5{fill-rule:evenodd;clip-rule:evenodd;fill:#FF4848;}
	.st6{fill-rule:evenodd;clip-rule:evenodd;fill:#AA1815;}
	.st7{fill-rule:evenodd;clip-rule:evenodd;fill:#EA291C;}
	.st8{opacity:0.5;}
	.st9{fill:#FFFFFF;}
</style>
<g>
	<g>
		<circle class="st0" cx="64" cy="64" r="64"/>
	</g>
	<g>
		<path class="st1" d="M100.6,68.7c5.1-7.6,7.2-14.1,8.1-23.2c0.6-6.6,3.4-12.6,7.9-17.2l7.7-7.8c1.1-1.1,0.1,0.1,0.9-1.2
			c2.4-3.5,1.5-8.3-2-10.7c-3.4-2.3-8.2-1.4-10.6,2.2c-0.8,1.2-0.1-0.2-0.7,1.3l-4.2,10C105,28,100.6,33,94.7,35.9
			c-7.4,3.8-13.8,9.4-18.5,16.4c-4.7,6.9-7.5,15-8.2,23.3l0,0c0.1,1.3,2.5,3.8,6,6.1c3.7,2.5,7.3,3.8,8.2,3.1
			C90.3,80.6,95.5,76.2,100.6,68.7z"/>
	</g>
	<g>
		<path class="st2" d="M123.7,9.1c1.3,2.5,1.2,5.7-0.6,8.2c-0.9,1.2,0.2,0-1,1.1l-8.1,7.4c-4.8,4.4-7.8,10.2-8.7,16.8
			c-1.3,9-3.7,15.5-9.2,22.8c-5.4,7.3-10.9,11.4-19.1,15.2c-0.9,0.7-4.4-0.8-8-3.5c-0.1-0.1-0.2-0.2-0.3-0.3
			c0.9,1.3,2.9,3.1,5.4,4.8c3.7,2.5,7.3,3.8,8.2,3.1c8-4.2,13.2-8.6,18.3-16.1c5.1-7.6,7.2-14.1,8.1-23.2c0.6-6.6,3.4-12.6,7.9-17.2
			l7.7-7.8c1.1-1.1,0.1,0.1,0.9-1.2C127.5,16,126.8,11.6,123.7,9.1z"/>
	</g>
	<g>
		<path class="st3" d="M106.7,33.8c1.4,1,2.9,1.9,4.3,2.7c1-2.1,2.2-4.1,3.7-6c-1.3-0.7-2.6-1.5-4-2.5c-1.6-1.1-3-2.2-4.3-3.3
			c-1.2,2.1-2.5,4-4.2,5.7C103.6,31.5,105.1,32.7,106.7,33.8z"/>
	</g>
	<g>
		<path class="st1" d="M49.8,62.8c-4.7-7.9-9.8-12.5-17.6-17.2c-5.8-3.4-10-8.4-12.2-14.5l-3.8-10.3c-0.5-1.5,0.1-0.1-0.7-1.3
			c-2.2-3.7-6.9-4.9-10.5-2.7C1.5,19,0.4,23.7,2.6,27.4c0.8,1.3-0.2,0,0.8,1.2l7.2,8.1c4.3,4.9,6.8,11,7,17.5
			c0.3,8.3,2.7,16.5,7,23.7C29,85,35.1,91,42.3,95.2l0,0c1.2,0.4,4.5-0.7,8.1-2.8c3.9-2.3,6.6-5,6.3-6.1
			C56.3,77.2,54.5,70.6,49.8,62.8z"/>
	</g>
	<g>
		<path class="st2" d="M56.7,86.2c-0.4-9-2.2-15.6-6.8-23.4c-4.3-7.2-8.9-11.7-15.8-16c-6.5,6-10.6,14.5-10.6,24.1
			c0,2,0.2,4,0.5,5.9c0.2,0.4,0.4,0.8,0.6,1.1C29,85,35.1,91,42.3,95.2l0,0c1.2,0.4,4.5-0.7,8.1-2.8C54.3,90,57,87.4,56.7,86.2z"/>
	</g>
	<g>
		<path class="st2" d="M99.6,70.2c-0.8-11.2-6.4-21-14.8-27.5c-3.2,2.8-6.1,6-8.5,9.6c-4.7,6.9-7.5,15-8.2,23.3l0,0
			c0.1,1.3,2.5,3.8,6,6.1c3.7,2.5,7.3,3.8,8.2,3.1C89.7,80.9,94.8,76.8,99.6,70.2z"/>
	</g>
	<g>
		<path class="st4" d="M81.6,86L81.6,86c-1.8,0-4.8-1.3-8-3.5c-2.8-1.8-6-4.6-6.4-6.6c-0.1-0.2-0.1-0.3-0.1-0.5
			c0.7-8.6,3.7-16.8,8.4-23.9c4.8-7.1,11.3-12.9,19-16.8c5.6-2.8,9.9-7.5,12.5-13.4l4.2-10c0.2-0.5,0.2-0.6,0.2-0.6
			c0.1-0.2,0.2-0.4,0.4-0.5c0-0.1,0.1-0.2,0.2-0.3c1.6-2.4,4.4-3.9,7.3-3.9c1.7,0,3.3,0.5,4.7,1.4c1.9,1.3,3.2,3.3,3.7,5.6
			c0.4,2.3,0,4.6-1.4,6.6c-0.1,0.1-0.1,0.2-0.2,0.3c-0.1,0.2-0.2,0.4-0.3,0.5c0,0-0.1,0.1-0.5,0.5l-7.8,7.8
			c-4.5,4.4-7.1,10.2-7.7,16.6c-0.9,9.7-3.3,16.4-8.3,23.8c-5,7.4-10.3,12-18.8,16.5C82.6,85.9,82.1,86,81.6,86z M69.1,75.3
			c0,0,0,0.1,0,0.1c0,0.6,1.8,2.9,5.6,5.4c3.2,2.2,5.8,3.1,6.9,3.1l0,0c0.1,0,0.2,0,0.2,0c0.1,0,0,0,0.1-0.1
			c8.2-4.3,13.3-8.8,18.1-15.9c4.9-7.3,7.1-13.5,8-22.9c0.6-6.9,3.5-13.1,8.3-17.9l7.8-7.8c0.2-0.2,0.3-0.3,0.4-0.4
			c0.1-0.2,0.2-0.4,0.4-0.6c1-1.5,1.4-3.3,1-5.1c-0.3-1.8-1.3-3.3-2.8-4.3C122,8.4,120.7,8,119.4,8c-2.3,0-4.4,1.1-5.6,3
			c-0.1,0.2-0.3,0.4-0.4,0.6c0,0.1-0.1,0.3-0.2,0.5l-4.3,10c-2.8,6.3-7.6,11.4-13.5,14.4c-7.4,3.8-13.7,9.3-18.2,16.1
			C72.6,59.4,69.8,67.2,69.1,75.3z"/>
	</g>
	<g>
		<path class="st2" d="M54.4,88c-3.5,2.1-6.9,3.3-8.1,2.8l0,0C39.1,86.7,33,80.7,28.7,73.6c-4.3-7.2-6.7-15.3-7-23.7
			c-0.2-6.6-2.8-12.7-7-17.5l-7.2-8.1c-1.1-1.2-0.1,0.1-0.8-1.2c-1.3-2.1-1.4-4.5-0.7-6.6c-0.3,0.1-0.6,0.3-0.8,0.4
			C1.5,19,0.4,23.7,2.6,27.4c0.8,1.3-0.2,0,0.8,1.2l7.2,8.1c4.3,4.9,6.8,11,7,17.5c0.3,8.3,2.7,16.5,7,23.7C29,85,35.1,91,42.3,95.2
			l0,0c1.2,0.4,4.5-0.7,8.1-2.8c3.6-2.1,6.2-4.6,6.3-5.8C56,87,55.2,87.5,54.4,88z"/>
	</g>
	<g>
		<path class="st3" d="M20.8,42.4c1.5-0.9,2.9-1.8,4.2-2.7c-1.5-1.8-2.8-3.7-3.9-5.9c-1.2,0.9-2.5,1.7-3.9,2.6
			c-1.7,1-3.3,1.8-4.9,2.5c1.4,1.9,2.5,4,3.4,6.2C17.5,44.3,19.1,43.4,20.8,42.4z"/>
	</g>
	<g>
		<path class="st4" d="M42.9,96.2L42.9,96.2c-0.3,0-0.5,0-0.7-0.1c-0.2,0-0.3,0-0.5-0.1C34.2,91.8,28,85.7,23.6,78.4
			c-4.4-7.2-6.9-15.6-7.2-24.1c-0.2-6.2-2.6-12-6.8-16.9l-7.3-8c-0.3-0.4-0.4-0.5-0.5-0.5c-0.2-0.1-0.3-0.3-0.3-0.6
			c0-0.1-0.1-0.2-0.2-0.3c-1.2-2-1.6-4.3-1-6.6c0.5-2.2,1.9-4.1,3.9-5.3C5.5,15.4,7,15,8.6,15c3.1,0,5.9,1.6,7.5,4.2
			c0.1,0.1,0.1,0.2,0.2,0.3c0.2,0.1,0.3,0.3,0.3,0.5c0,0,0,0.2,0.2,0.7L20.7,31c2.1,5.9,6.2,10.7,11.8,13.9
			c8.4,4.9,13.5,9.8,18.1,17.5c4.6,7.6,6.6,14.3,7,23.8c0.5,2.6-5.6,6.3-6.8,7.1C47.7,95.1,44.6,96.2,42.9,96.2z M42.4,94.2
			c0,0,0.1,0,0.1,0c0,0,0.1,0,0.3,0c1.1,0,3.8-0.9,7-2.8c4-2.4,5.8-4.5,5.8-5.1c0-0.1,0-0.1,0-0.1c-0.4-9.2-2.3-15.6-6.8-22.9
			c-4.5-7.4-9.2-12-17.4-16.8c-6-3.5-10.4-8.6-12.7-14.9L15,21.4c-0.1-0.2-0.1-0.4-0.2-0.5c-0.1-0.2-0.3-0.4-0.4-0.6
			c-1.2-2-3.4-3.3-5.8-3.3c-1.2,0-2.4,0.3-3.4,0.9c-1.5,0.9-2.6,2.3-3,4c-0.4,1.7-0.1,3.5,0.8,5.1c0.1,0.2,0.3,0.4,0.3,0.6
			c0.1,0.1,0.2,0.2,0.4,0.4l7.3,8c4.5,5.1,7.1,11.6,7.4,18.1c0.3,8.2,2.7,16.2,6.9,23.1C29.5,84.3,35.4,90.1,42.4,94.2z"/>
	</g>
	<g>
		<circle class="st5" cx="61.7" cy="72.8" r="32.7"/>
	</g>
	<g>
		<circle class="st6" cx="45.2" cy="63" r="3.5"/>
	</g>
	<g>
		<path class="st7" d="M61.7,94.8c-16.2,0-29.7-11.8-32.2-27.3C29.2,69.2,29,71,29,72.8c0,18,14.6,32.7,32.7,32.7
			c18,0,32.7-14.6,32.7-32.7c0-1.8-0.2-3.6-0.4-5.4C91.3,82.9,77.9,94.8,61.7,94.8z"/>
	</g>
	<g>
		<circle class="st6" cx="61.5" cy="64.7" r="3.5"/>
	</g>
	<g>
		<circle class="st6" cx="51.8" cy="74" r="3.5"/>
	</g>
	<g>
		<path class="st4" d="M45.5,67C43,67,41,65,41,62.5c0-2.5,2-4.5,4.5-4.5c2.5,0,4.5,2,4.5,4.5C50,65,48,67,45.5,67z M45.5,60
			c-1.4,0-2.5,1.1-2.5,2.5s1.1,2.5,2.5,2.5c1.4,0,2.5-1.1,2.5-2.5S46.9,60,45.5,60z"/>
	</g>
	<g>
		<path class="st4" d="M61.5,69C59,69,57,67,57,64.5c0-2.5,2-4.5,4.5-4.5c2.5,0,4.5,2,4.5,4.5C66,67,64,69,61.5,69z M61.5,62
			c-1.4,0-2.5,1.1-2.5,2.5c0,1.4,1.1,2.5,2.5,2.5s2.5-1.1,2.5-2.5C64,63.1,62.9,62,61.5,62z"/>
	</g>
	<g>
		<path class="st4" d="M51.5,79C49,79,47,77,47,74.5c0-2.5,2-4.5,4.5-4.5c2.5,0,4.5,2,4.5,4.5C56,77,54,79,51.5,79z M51.5,71.8
			c-1.5,0-2.7,1.2-2.7,2.7c0,1.5,1.2,2.7,2.7,2.7c1.5,0,2.7-1.2,2.7-2.7C54.2,73,53,71.8,51.5,71.8z"/>
	</g>
	<g>
		<path class="st4" d="M61.5,107C43,107,28,91.7,28,73c0-18.7,15-34,33.5-34C80,39,95,54.3,95,73C95,91.7,80,107,61.5,107z M61.5,41
			C44.1,41,30,55.4,30,73s14.1,32,31.5,32S93,90.6,93,73S78.9,41,61.5,41z"/>
	</g>
	<g class="st8">
		<path class="st9" d="M37,60.2c-0.2,0-0.3,0-0.5-0.1c-0.5-0.3-0.7-0.9-0.4-1.4c2.5-4.3,6-7.9,10.3-10.5c0.5-0.3,1.1-0.2,1.4,0.3
			c0.3,0.5,0.2,1.1-0.3,1.4c-4,2.4-7.3,5.8-9.6,9.8C37.8,60,37.4,60.2,37,60.2z"/>
	</g>
	<g class="st8">
		<path class="st9" d="M89.7,74c-0.6,0-1-0.4-1-1c0-14.9-12.1-27-27-27c-2.6,0-5.2,0.4-7.7,1.1c-0.5,0.2-1.1-0.1-1.2-0.7
			c-0.2-0.5,0.1-1.1,0.7-1.2c2.7-0.8,5.4-1.2,8.2-1.2c16,0,29,13,29,29C90.7,73.6,90.2,74,89.7,74z"/>
	</g>
	<g>
		<path class="st9" d="M121,12.9c-0.2,0-0.4-0.1-0.6-0.2c-2-1.5-3.8-0.2-4,0c-0.4,0.3-1.1,0.3-1.4-0.2c-0.3-0.4-0.3-1.1,0.2-1.4
			c1.1-0.9,3.8-2,6.5,0c0.4,0.3,0.5,1,0.2,1.4C121.6,12.8,121.3,12.9,121,12.9z"/>
	</g>
	<g>
		<path class="st9" d="M13.8,24.4c-0.4,0-0.8-0.3-0.9-0.7c-1.2-3.6-2.9-3.6-3-3.6c-0.5,0-1-0.4-1-0.9c0-0.5,0.3-1,0.9-1.1
			c0.1,0,3.3-0.3,5,4.9c0.2,0.5-0.1,1.1-0.6,1.3C14,24.3,13.9,24.4,13.8,24.4z"/>
	</g>
	<g>
		<path class="st4" d="M85,107H25c-0.6,0-1-0.4-1-1s0.5-1,1-1h60c0.6,0,1,0.4,1,1S85.5,107,85,107z"/>
	</g>
	<g>
		<path class="st4" d="M100,107H93c-0.5,0-1-0.4-1-1s0.4-1,1-1h7.1c0.5,0,1,0.4,1,1S100.6,107,100,107z"/>
	</g>
	<g>
		<path class="st9" d="M36,31c-2.2,0-4-1.8-4-4c0-2.2,1.8-4,4-4c2.2,0,4,1.8,4,4C40,29.2,38.2,31,36,31z M36,24.9
			c-1.2,0-2.1,1-2.1,2.1c0,1.2,1,2.1,2.1,2.1c1.2,0,2.1-1,2.1-2.1C38.1,25.8,37.2,24.9,36,24.9z"/>
	</g>
	<g>
		<path class="st9" d="M87,28c-2.2,0-4-1.8-4-4c0-2.2,1.8-4,4-4c2.2,0,4,1.8,4,4C91,26.2,89.2,28,87,28z M87,21.9
			c-1.2,0-2.1,1-2.1,2.1c0,1.2,1,2.1,2.1,2.1c1.2,0,2.1-1,2.1-2.1C89.1,22.8,88.2,21.9,87,21.9z"/>
	</g>
	<g>
		<path class="st9" d="M114.4,82.3c0-0.4-0.4-0.8-1-0.9l-1.9-0.3c-0.5-0.1-1.1-0.6-1.1-1.1l-0.3-1.9c-0.1-0.5-0.5-1-0.9-1
			c-0.4,0-0.8,0.4-0.9,1l-0.3,1.9c-0.1,0.5-0.6,1.1-1.1,1.1l-1.9,0.3c-0.5,0.1-1,0.5-1,0.9s0.4,0.8,1,0.9l1.9,0.3
			c0.5,0.1,1.1,0.6,1.1,1.1l0.3,1.9c0.1,0.5,0.5,1,0.9,1c0.4,0,0.8-0.4,0.8-1l0.3-2.1c0.1-0.5,0.6-1,1.1-1.1l1.8-0.1
			C114,83.1,114.4,82.7,114.4,82.3z"/>
	</g>
	<g>
		<path class="st9" d="M63.2,17.8c0-0.4-0.4-0.8-1-0.9l-1.9-0.3c-0.5-0.1-1.1-0.6-1.1-1.1l-0.3-1.9c-0.1-0.5-0.5-1-0.9-1
			c-0.4,0-0.8,0.4-0.9,1l-0.3,1.9c-0.1,0.5-0.6,1.1-1.1,1.1L53.9,17c-0.5,0.1-1,0.5-1,0.9s0.4,0.8,1,0.9l1.9,0.3
			c0.5,0.1,1.1,0.6,1.1,1.1l0.3,1.9c0.1,0.5,0.5,1,0.9,1c0.4,0,0.8-0.4,0.8-1l0.3-2.1c0.1-0.5,0.6-1,1.1-1.1l1.8-0.1
			C62.7,18.6,63.2,18.2,63.2,17.8z"/>
	</g>
	<g>
		<path class="st9" d="M77.7,45.9c0-0.4-0.4-0.8-1-0.9L72,44.1c-0.5-0.1-1.1-0.6-1.2-1.2L70,38.2c-0.1-0.5-0.5-1-0.9-1
			c-0.4,0-0.8,0.4-0.9,1l-0.8,4.8c-0.1,0.5-0.6,1.1-1.2,1.2l-4.8,0.8c-0.5,0.1-1,0.5-1,0.9c0,0.4,0.4,0.8,1,0.9l4.7,0.6
			c0.5,0.1,1.1,0.6,1.2,1.1l0.9,5c0.1,0.5,0.5,1,0.9,1c0.4,0,0.8-0.4,0.9-1l0.9-5.1c0.1-0.5,0.6-1,1.2-1.1l4.7-0.6
			C77.3,46.7,77.7,46.3,77.7,45.9z"/>
	</g>
</g>
</svg>
