<?xml version="1.0" encoding="utf-8"?>
<!-- Generator: Adobe Illustrator 21.0.2, SVG Export Plug-In . SVG Version: 6.00 Build 0)  -->
<svg version="1.1" id="clipboard" xmlns="http://www.w3.org/2000/svg" xmlns:xlink="http://www.w3.org/1999/xlink" x="0px" y="0px"
	 viewBox="0 0 128 128" style="enable-background:new 0 0 128 128;" xml:space="preserve">
<style type="text/css">
	.st0{fill:#FC8BA4;}
	.st1{opacity:0.5;fill:#FFFFFF;}
	.st2{fill:#D4D6D6;}
	.st3{fill:#415E6D;}
	.st4{fill:#FFFFFF;}
	.st5{fill:#EAEAEA;}
	.st6{fill:#233E49;}
	.st7{fill:#ADADAD;}
</style>
<g>
	<circle class="st0" cx="64" cy="64" r="64"/>
	<path class="st1" d="M112,81c-2.2,0-4-1.8-4-4c0-2.2,1.8-4,4-4c2.2,0,4,1.8,4,4C116,79.2,114.2,81,112,81z M112,74.9
		c-1.2,0-2.1,1-2.1,2.1c0,1.2,1,2.1,2.1,2.1s2.1-1,2.1-2.1C114.1,75.8,113.2,74.9,112,74.9z"/>
	<path class="st1" d="M19,54c-2.2,0-4-1.8-4-4c0-2.2,1.8-4,4-4c2.2,0,4,1.8,4,4C23,52.2,21.2,54,19,54z M19,47.9
		c-1.2,0-2.1,1-2.1,2.1c0,1.2,1,2.1,2.1,2.1c1.2,0,2.1-1,2.1-2.1C21.1,48.8,20.2,47.9,19,47.9z"/>
	<path class="st1" d="M20.3,79.1c0-0.4-0.4-0.8-1-0.9L17.5,78c-0.5-0.1-1.1-0.6-1.1-1.1L16.1,75c-0.1-0.5-0.5-1-0.9-1
		c-0.4,0-0.8,0.4-0.9,1l-0.3,1.9c-0.1,0.5-0.6,1.1-1.1,1.1l-1.9,0.3c-0.5,0.1-1,0.5-1,0.9c0,0.4,0.4,0.8,1,0.9l1.9,0.3
		c0.5,0.1,1.1,0.6,1.1,1.1l0.3,1.9c0.1,0.5,0.5,1,0.9,1c0.4,0,0.8-0.4,0.9-1l0.3-2.1c0.1-0.5,0.6-1,1.1-1.1l1.8-0.1
		C19.9,79.9,20.3,79.5,20.3,79.1z"/>
	<path class="st1" d="M117.3,49.3c0-0.4-0.4-0.8-1-0.9l-1.9-0.3c-0.5-0.1-1.1-0.6-1.1-1.1l-0.3-1.9c-0.1-0.5-0.5-1-0.9-1
		c-0.4,0-0.8,0.4-0.9,1L111,47c-0.1,0.5-0.6,1.1-1.1,1.1l-1.9,0.3c-0.5,0.1-1,0.5-1,0.9c0,0.4,0.4,0.8,1,0.9l1.9,0.3
		c0.5,0.1,1.1,0.6,1.1,1.1l0.3,1.9c0.1,0.5,0.5,1,0.9,1c0.4,0,0.8-0.4,0.9-1l0.3-2.1c0.1-0.5,0.6-1,1.1-1.1l1.8-0.1
		C116.8,50,117.3,49.7,117.3,49.3z"/>
	<path class="st2" d="M45.1,26.4h37.4c0.5,0,1,0.4,1,1v6.7c0,1.6-1.3,2.9-2.9,2.9H47c-1.6,0-2.9-1.3-2.9-2.9v-6.7
		C44.2,26.8,44.6,26.4,45.1,26.4z"/>
	<path class="st3" d="M97.1,102.1c0,2.2-1.8,4-4,4H34c-2.2,0-4-1.8-4-4l0.1-72.3c0-2.2,1.8-4,4-4h59.1c2.2,0,4,1.8,4,4V102.1z"/>
	<path class="st4" d="M90.5,97.7c0,1.1-0.9,2-2,2H38.7c-1.1,0-2-0.9-2-2V34.5c0-1.1,0.9-2,2-2h49.9c1.1,0,2,0.9,2,2V97.7z"/>
	<rect x="37.5" y="81.5" class="st5" width="53" height="9.5"/>
	<path class="st4" d="M90.2,80.2L90.2,80.2V35H36.6v45.4l0,0c0.1,3.4,2.7,6.1,6.1,6.4v0c0,0,54.1,0,54.2,0c3.7,0,6.6-3,6.6-6.6H90.2
		z"/>
	<path class="st5" d="M43,32.5c0,1.4,0,2.3,0,2.3c0,1.7,1.3,3.1,3,3.1h35c1.7,0,3-1.4,3-3.1c0,0,0-0.7,0-2.3H43z"/>
	<path class="st6" d="M88,101H39c-1.7,0-3-1.3-3-3V35c0-1.7,1.3-3,3-3h49c1.7,0,3,1.3,3,3v63C91,99.7,89.7,101,88,101z M39,34
		c-0.6,0-1,0.4-1,1v63c0,0.6,0.4,1,1,1h49c0.6,0,1-0.4,1-1V35c0-0.6-0.4-1-1-1H39z"/>
	<path class="st6" d="M93,107H34c-2.8,0-5-2.2-5-5V30c0-2.8,2.2-5,5-5h59c2.8,0,5,2.2,5,5v72C98,104.8,95.8,107,93,107z M34,27
		c-1.7,0-3,1.3-3,3v72c0,1.7,1.3,3,3,3h59c1.7,0,3-1.3,3-3V30c0-1.7-1.3-3-3-3H34z"/>
	<path class="st5" d="M67.2,17.2c-2,0-5.2,0-6.7,0s-3,0.3-4.6,1.4c-1.6,1.1-7.2,5.1-9.2,6.5c-2,1.4-2.5,2.8-2.5,4.1s0,2.1,0,2.1
		c0,1.6,1.3,2.9,2.9,2.9h33.5c1.6,0,2.9-1.3,2.9-2.9c0,0,0-0.6,0-2.1s-1.2-3.2-2.4-4s-7.5-5.5-9-6.5C70.7,17.8,69.2,17.2,67.2,17.2z
		"/>
	<path class="st4" d="M77.9,30.1h-4.8c-0.6,0-1.1-0.4-1.1-1c0-0.6,0.5-1,1.1-1h4.8c0.6,0,1.1,0.4,1.1,1C79,29.6,78.5,30.1,77.9,30.1
		z"/>
	<path class="st4" d="M70,30H50c-0.6,0-1-0.4-1-1s0.5-1,1-1H70c0.6,0,1,0.4,1,1S70.5,30,70,30z"/>
	<ellipse class="st0" cx="63.5" cy="23.5" rx="2.5" ry="2.5"/>
	<path class="st2" d="M81,31H47c-1.5,0-2.6-0.6-2.8-2c0,0.2,0,0.3,0,0.5c0,1.2,0,2,0,2c0,1.5,1.3,2.7,2.9,2.7h33.5
		c1.6,0,2.9-1.2,2.9-2.7c0,0,0-0.6,0-2c0-0.1,0-0.3,0-0.4C83.2,30.4,82.4,31,81,31z"/>
	<path class="st6" d="M80.2,35H46.8c-2.2,0-3.8-1.6-3.8-3.6v-2.1c0-1.9,1-3.5,2.9-4.9c1.9-1.3,7-4.9,8.9-6.3l0.3-0.2
		c1.7-1.2,3.4-1.8,5.1-1.8h6.7c2.3,0,3.9,0.9,5.4,1.9c1.1,0.7,5,3.6,7.3,5.3c0.8,0.6,1.3,1,1.6,1.2c1.3,1,2.8,2.9,2.8,4.8v2.1
		C84,33.4,82.3,35,80.2,35z M60.2,18c-1.3,0-2.6,0.5-4,1.4L56,19.7c-1.9,1.4-7,5-8.9,6.3c-1.9,1.3-2.1,2.5-2.1,3.2v2.1
		c0,1.1,1,1.6,1.9,1.6h33.3c0.9,0,1.9-0.5,1.9-1.6v-2.1c0-1.1-1-2.5-2-3.2c-0.3-0.2-0.9-0.7-1.6-1.2c-2.3-1.7-6.1-4.5-7.2-5.2
		c-1.3-0.9-2.5-1.6-4.3-1.6H60.2z"/>
	<path class="st6" d="M63.5,27c-1.9,0-3.5-1.6-3.5-3.5s1.6-3.5,3.5-3.5c1.9,0,3.5,1.6,3.5,3.5S65.4,27,63.5,27z M63.5,22
		c-0.8,0-1.5,0.7-1.5,1.5s0.7,1.5,1.5,1.5s1.5-0.7,1.5-1.5S64.3,22,63.5,22z"/>
	<path class="st5" d="M50.3,80.5c0,0-1.2,3.2-2.3,4.1s-3.6,2.3-3.6,2.3l52.2,0.2c0,0,3.9-0.5,5.3-3.1c1.4-2.6,1.6-3.8,1.6-3.8
		L50.3,80.5z"/>
	<path class="st6" d="M43.2,88c-4,0-7.2-3.4-7.2-7.8c0-0.6,0.4-1,1-1s1,0.4,1,1c0,3.3,2.3,5.8,5.2,5.8c3,0,5.6-2.8,5.6-6
		c0-0.6,0.4-1,1-1h40.4c0.6,0,1,0.4,1,1s-0.4,1-1,1H50.8C50.3,84.9,47,88,43.2,88z"/>
	<path class="st6" d="M96.4,88H42.6c-0.3,0-0.5-0.1-0.7-0.3c-3.4-0.6-5.7-3.5-5.9-7.3L36,35c0-0.6,0.4-1,1-1c0.5,0,1,0.4,1,1v45.4
		c0.1,2.9,2,5.2,4.7,5.4c0.2,0,0.4,0.1,0.6,0.2h53.2c2.7,0,5-2.2,5.5-5H90c-0.5,0-1-0.4-1-1V41c0-0.6,0.5-1,1-1s1,0.4,1,1v38h12
		c0.5,0,1,0.4,1,1C104,84.3,100.5,88,96.4,88z"/>
	<path class="st4" d="M98.2,84H53.1c-0.6,0-1-0.4-1-1s0.4-1,1-1h45.1c0.6,0,1,0.4,1,1S98.8,84,98.2,84z"/>
	<path class="st7" d="M71,60H45c-0.6,0-1-0.4-1-1s0.5-1,1-1h26c0.6,0,1,0.4,1,1S71.5,60,71,60z"/>
	<path class="st7" d="M58,67H45c-0.6,0-1-0.4-1-1s0.5-1,1-1H58c0.6,0,1,0.4,1,1S58.5,67,58,67z"/>
	<path class="st7" d="M58,45H45c-0.6,0-1-0.4-1-1s0.5-1,1-1H58c0.6,0,1,0.4,1,1S58.5,45,58,45z"/>
	<path class="st7" d="M69,74H45c-0.6,0-1-0.4-1-1s0.5-1,1-1H69c0.6,0,1,0.4,1,1S69.5,74,69,74z"/>
	<path class="st7" d="M76,67H64c-0.5,0-1-0.4-1-1s0.4-1,1-1H76c0.5,0,1,0.4,1,1S76.6,67,76,67z"/>
	<path class="st1" d="M94,77c-0.6,0-1-0.4-1-1V68c0-0.5,0.4-1,1-1s1,0.4,1,1V76C95,76.6,94.6,77,94,77z"/>
	<path class="st1" d="M94,62c-0.6,0-1-0.5-1-1V33.4c0-1-0.3-1.8-0.8-2.4c-1-1-2.9-1-3.9-1l-0.2,0c-0.6,0-1-0.5-1-1c0-0.6,0.4-1,1-1
		l0.2,0c1.2,0,3.7,0,5.3,1.6c0.9,0.9,1.4,2.2,1.4,3.8V61C95,61.5,94.6,62,94,62z"/>
	<path class="st1" d="M61,104H39.1c-7.1,0-7.1-5-7.1-8V75c0-0.6,0.4-1,1-1s1,0.4,1,1v21c0,3.6,0.4,6,5.1,6H61c0.6,0,1,0.4,1,1
		C62,103.6,61.6,104,61,104z"/>
</g>
</svg>
