<?xml version="1.0" encoding="utf-8"?>
<!-- Generator: Adobe Illustrator 21.0.2, SVG Export Plug-In . SVG Version: 6.00 Build 0)  -->
<svg version="1.1" id="closet" xmlns="http://www.w3.org/2000/svg" xmlns:xlink="http://www.w3.org/1999/xlink" x="0px" y="0px"
	 viewBox="0 0 128 128" style="enable-background:new 0 0 128 128;" xml:space="preserve">
<style type="text/css">
	.st0{fill:#28A5C6;}
	.st1{fill:#663210;}
	.st2{fill:#FBD000;}
	.st3{fill:none;stroke:#000000;stroke-width:2;stroke-miterlimit:10;}
	.st4{fill:#AD5114;}
	.st5{opacity:0.5;fill:#FFFFFF;}
	.st6{fill:#F4B10B;}
	.st7{fill:#FFFFFF;}
</style>
<g>
	<circle class="st0" cx="64" cy="64" r="64"/>
	<path class="st1" d="M63.8,39c-0.6,0-1-0.5-1-1v-5c0-0.5-0.8-1.1-1.6-1.7c-1.4-1.1-3.2-2.5-3.2-5c0-3.7,2.5-6.2,6.3-6.2
		c0.6,0,1,0.5,1,1s-0.4,1-1,1c-2.1,0-4.3,1.1-4.3,4.1c0,1.4,1.2,2.3,2.4,3.3c1.2,0.9,2.4,1.9,2.4,3.4v5C64.8,38.5,64.4,39,63.8,39z"
		/>
	<path class="st1" d="M85,39c-1,0-1-0.4-1-1v-5c0-0.4-1.4-1.5-2.1-2.1c-1.4-1.1-3.2-2.5-3.2-4.9c0-3.6,2.5-6.1,6.3-6.1
		c0.6,0,1,0.5,1,1c0,0.6-0.4,1-1,1c-2.1,0-4.3,1.1-4.3,4c0,1.4,1.2,2.3,2.4,3.2c1.2,0.9,2.9,2.2,2.9,3.7v5C86,38.6,86,39,85,39z"/>
	<path class="st2" d="M14.6,23.3c-0.8,1-1.6,2-2.3,3h103.5c-0.7-1-1.5-2-2.3-3H14.6z"/>
	<path class="st1" d="M14.1,24h99.9c-0.5-0.7-1.1-1.3-1.7-2H15.7C15.2,22.7,14.6,23.3,14.1,24z"/>
	<path class="st1" d="M11.1,28h105.8c-0.5-0.7-0.9-1.3-1.4-2h-103C12,26.7,11.5,27.3,11.1,28z"/>
	<path class="st3" d="M77.3,43.8"/>
	<path class="st3" d="M95.6,43.8"/>
	<path class="st1" d="M69.6,29c-0.6,0-1-0.5-1-1.1c0-0.1-0.1-5.7-4.2-5.7c-0.6,0-1-0.5-1-1.1c0-0.6,0.4-1.1,1-1.1
		c4.6,0,6.2,4.7,6.2,7.9C70.6,28.5,70.1,29,69.6,29z"/>
	<path class="st1" d="M90.9,29c-0.6,0-1.1-0.5-1.1-1.1c0-0.1-0.1-5.7-4.5-5.7c-0.6,0-1.1-0.5-1.1-1.1c0-0.6,0.5-1.1,1.1-1.1
		c4.9,0,6.6,4.7,6.6,7.9C92,28.5,91.5,29,90.9,29z"/>
	<rect x="27.3" y="56.9" class="st4" width="73.9" height="2"/>
	<path class="st1" d="M101.2,60.8H27.3c-0.6,0-1-0.4-1-1v-3.3c0-0.6,0.4-1,1-1h73.9c0.6,0,1,0.4,1,1v3.3
		C102.2,60.3,101.7,60.8,101.2,60.8z M28.3,58.8h71.9v-1.3H28.3V58.8z"/>
	<path class="st4" d="M102.1,56.1c-2.3-1.8-3.3-0.5-7.2-1.8c-3.9-1.3-20.4-9.8-23.6-12.6c-3.2-2.8-3.9-5.8-7.2-5.8
		c-3.3,0-4.1,3-7.2,5.8c-3.2,2.8-19.7,11.3-23.6,12.6c-3.9,1.3-5,0-7.2,1.8c-1.3,1.1-1.4,2.6-1.2,3.7c0.1,0.8,0.9,1,1.7,0.6
		c6.4-3,32.6-15.2,34.4-16c2.1-0.9,4.4-0.9,6.3,0c1.7,0.8,28.4,13.2,34.6,16.1c0.8,0.4,1.5,0.1,1.6-0.6
		C103.5,58.8,103.4,57.2,102.1,56.1z"/>
	<path class="st5" d="M68.4,42.9c-0.2,0-0.5-0.1-0.6-0.2c-0.9-0.8-1.7-1.5-2.3-2.2c-0.9-1-2-1.3-2-1.3c-0.5-0.1-0.9-0.7-0.7-1.2
		c0.1-0.5,0.7-0.9,1.2-0.7c0.1,0,1.7,0.4,3,1.9c0.5,0.5,1.2,1.2,2,1.9c0.4,0.4,0.5,1,0.1,1.4C69,42.8,68.7,42.9,68.4,42.9z"/>
	<path class="st1" d="M102,61.6C102,61.6,102,61.6,102,61.6c-0.4,0-0.7-0.1-1.1-0.3c-6.2-2.9-32.5-15.2-34.2-16
		c-1.7-0.8-3.7-0.8-5.4,0c-1.8,0.8-27.7,12.9-34,15.9c-1.5,0.7-2.9,0-3.1-1.4c-0.3-1.9,0.3-3.5,1.6-4.6c1.5-1.2,2.7-1.3,3.9-1.4
		c0.9-0.1,2-0.1,3.6-0.6c3.7-1.3,20-9.7,23.1-12.4c1-0.9,1.8-1.8,2.5-2.7c1.4-1.7,2.7-3.3,5.3-3.3c2.6,0,3.9,1.6,5.3,3.3
		c0.7,0.8,1.4,1.8,2.5,2.7c3,2.7,19.3,11.1,23.1,12.4c1.6,0.5,2.7,0.6,3.6,0.6c1.2,0.1,2.4,0.1,3.9,1.4c1.3,1.1,1.9,2.7,1.6,4.7
		C103.8,61,103,61.6,102,61.6z M64,37c-1.6,0-2.4,0.8-3.8,2.6c-0.7,0.9-1.6,1.9-2.7,2.9c-3.2,2.8-19.8,11.4-23.7,12.7
		c-1.8,0.6-3.1,0.7-4.1,0.7c-1.1,0.1-1.7,0.1-2.7,0.9c-0.8,0.6-1.1,1.6-0.9,2.8c0,0,0.2,0,0.3-0.1c6.3-3,32.3-15.1,34.1-15.9
		c2.3-1,4.9-1,7.1,0c1.7,0.8,28.1,13.1,34.2,16c0.1,0,0.2,0.1,0.2,0.1c0.2-1.2-0.1-2.1-0.9-2.8c-1-0.8-1.6-0.8-2.7-0.9
		c-1-0.1-2.3-0.1-4.1-0.7c-3.9-1.3-20.5-9.9-23.7-12.7c-1.1-1-2-2-2.7-2.9C66.4,37.8,65.6,37,64,37z"/>
	<path class="st2" d="M127.2,90.5l-20.7-33L77.1,43.8c-3.1,3.8-7.9,6.3-13.2,6.3c-5.3,0-10.1-2.4-13.2-6.3l-29.4,13l-21,34.1
		l16.2,11.7l4.8-7.2v16.2c9.9,8.9,22.6,14.8,36.6,16.2c0.2,0,0.4,0,0.6,0.1c0.8,0.1,1.6,0.1,2.4,0.2c0.7,0,1.4,0.1,2.1,0.1
		c0.4,0,0.7,0,1.1,0c16.3,0,31.2-6.2,42.4-16.2V96l4.4,6.7L127.2,90.5z"/>
	<path class="st6" d="M21.4,98.1v13.7C32.7,121.8,47.6,128,64,128c16.3,0,31.2-6.1,42.5-16.2V98.6C95.3,108.5,80.2,115,64,115
		C47.5,115,32.7,108.3,21.4,98.1z"/>
	<path class="st6" d="M106.5,57.5L77.1,43.8c-2.5,3.1-6,5.2-10,6c-6.1,3.6-15.8,8.4-18.6,9.4c-1.6,0.5-2.7,0.6-3.6,0.7
		c-1.2,0.1-2.4,0.1-3.9,1.4c-1.3,1.1-1.9,2.7-1.6,4.6c0.2,1.4,1.7,2.1,3.2,1.4c0.4-0.2,0.8,0,1.2-0.2h68.5L106.5,57.5z M55.2,60.9
		c9.5-4.4,20.6-9.2,21.7-9.7c1.8-0.8,3.8-0.8,5.5,0c1.1,0.5,12.2,5.3,21.8,9.8H55.2z"/>
	<path class="st1" d="M107.4,56.9c-0.1-0.2-0.3-0.3-0.4-0.4L77.5,42.9c-0.4-0.2-0.9-0.1-1.2,0.3c-3.1,3.8-7.6,5.9-12.4,5.9
		s-9.3-2.2-12.4-5.9c-0.3-0.3-0.8-0.5-1.2-0.3L21,55.9c-0.2,0.1-0.3,0.2-0.4,0.4c0,0-18.6,29.8-19.9,31.9C0,89.1-0.4,92,1,93
		c1.1,0.8,15,10.4,15,10.4c0.2,0.2,0.5,0.2,0.8,0.2c0.3,0,0.5-0.2,0.6-0.4l3.6-5.3v13.5c0.7,0.6,1.3,1.2,2,1.7V95.3
		c0-0.6-0.4-1.1-0.9-1.2c-0.7-0.2-1.4,0.5-1.6,0.9l-4.2,6.2L2,90.6l20-33L50.5,45c3.4,3.9,8.3,6.1,13.4,6.1c5.2,0,10-2.2,13.4-6
		l28.5,13.2l20.1,32l-14.7,11.1l-3.8-5.8c-0.2-0.4-0.8-0.8-1.4-0.7c-0.5,0.1-0.9,0.8-0.9,1.2v17.1c0.7-0.6,1.3-1.1,2-1.7V99l3.1,4.3
		c0.2,0.2,0.4,0.4,0.7,0.4c0.3,0,0.6,0,0.8-0.2l15.7-11.8c0.8-0.6,0.8-1.7,0.4-2.5L107.4,56.9z"/>
	<rect x="47.9" y="57.5" class="st4" width="73.9" height="2"/>
	<path class="st1" d="M121.8,61H47.9c-0.6,0-1-0.4-1-1v-3c0-0.6,0.4-1,1-1h73.9c0.6,0,1,0.4,1,1v3C122.8,60.6,122.4,61,121.8,61z
		 M48.9,59h71.9v-1H48.9V59z"/>
	<path class="st4" d="M122.7,56.1c-2.3-1.8-3.3-0.5-7.2-1.8c-3.9-1.3-20.4-9.8-23.6-12.6c-3.2-2.8-3.9-5.8-7.2-5.8
		c-3.3,0-4.1,3-7.2,5.8c-3.2,2.8-19.7,11.3-23.6,12.6c-3.9,1.3-5,0-7.2,1.8c-1.3,1.1-1.4,2.6-1.2,3.7c0.1,0.8,0.9,1,1.7,0.6
		c6.4-3,32.6-15.2,34.4-16c2.1-0.9,4.4-0.9,6.3,0c1.7,0.8,28.4,13.2,34.6,16.1c0.8,0.4,1.5,0.1,1.6-0.6
		C124.1,58.8,124.1,57.2,122.7,56.1z"/>
	<path class="st5" d="M89,42.9c-0.2,0-0.5-0.1-0.6-0.2c-0.9-0.8-1.7-1.5-2.3-2.2c-0.9-1-2-1.3-2-1.3c-0.5-0.1-0.9-0.7-0.7-1.2
		c0.1-0.5,0.7-0.9,1.2-0.7c0.1,0,1.7,0.4,3,1.9c0.5,0.5,1.2,1.2,2,1.9c0.4,0.4,0.5,1,0.1,1.4C89.6,42.8,89.3,42.9,89,42.9z"/>
	<path class="st1" d="M123,62C123,62,123,62,123,62c-0.4,0-0.7-0.1-1.1-0.3c-6.2-2.9-32.9-15.4-34.7-16.2c-1.7-0.8-3.7-0.8-5.5,0
		c-1.8,0.8-28.1,13.1-34.5,16.1c-1.5,0.7-3,0-3.2-1.4c-0.3-1.9,0.3-3.6,1.6-4.7c1.5-1.2,2.7-1.3,3.9-1.4c0.9-0.1,2-0.1,3.6-0.7
		c3.8-1.3,20.3-9.8,23.4-12.5c1-0.9,1.8-1.9,2.5-2.7c1.4-1.7,2.8-3.4,5.4-3.4c2.7,0,4,1.6,5.4,3.4c0.7,0.8,1.5,1.8,2.5,2.7
		c3.1,2.7,19.6,11.2,23.4,12.5c1.6,0.5,2.7,0.6,3.6,0.7c1.2,0.1,2.4,0.1,3.9,1.4c1.3,1.1,1.9,2.8,1.6,4.7C124.8,61.3,124,62,123,62z
		 M84.5,37c-1.6,0-2.4,0.9-3.9,2.6c-0.7,0.9-1.6,1.9-2.7,2.9c-3.3,2.9-20.1,11.6-24,12.9c-1.9,0.6-3.1,0.7-4.2,0.8
		c-1.1,0.1-1.8,0.1-2.8,0.9c-0.8,0.6-1.1,1.6-0.9,2.8c0,0,0.2,0,0.3-0.1c6.4-3,32.7-15.3,34.5-16.1c2.3-1,5-1.1,7.2,0
		c1.7,0.8,28.4,13.3,34.7,16.2c0.1,0,0.2,0.1,0.2,0.1c0.2-1.2-0.1-2.2-0.9-2.8c-1-0.8-1.6-0.9-2.8-0.9c-1-0.1-2.3-0.1-4.2-0.8
		c-4-1.3-20.8-10-24-12.9c-1.1-1-2-2-2.7-2.9C86.9,37.9,86.1,37,84.5,37z"/>
	<path class="st7" d="M40,54c-0.4,0-0.8-0.2-0.9-0.6c-0.2-0.5,0-1.1,0.5-1.3l8.3-3.6c0.5-0.2,1.1,0,1.3,0.5c0.2,0.5,0,1.1-0.5,1.3
		l-8.3,3.6C40.3,54,40.1,54,40,54z"/>
	<path class="st7" d="M6,89.2c-0.2,0-0.4,0-0.5-0.1c-0.5-0.3-0.6-0.9-0.3-1.4l17.2-28c0.1-0.2,0.3-0.3,0.5-0.4L34,54.5
		c0.5-0.2,1.1,0,1.3,0.5c0.2,0.5,0,1.1-0.5,1.3L23.9,61L6.9,88.8C6.7,89.1,6.3,89.2,6,89.2z"/>
	<path class="st7" d="M120.3,89.2c-0.3,0-0.7-0.2-0.9-0.5L104.9,65c-0.3-0.5-0.1-1.1,0.3-1.4c0.5-0.3,1.1-0.1,1.4,0.3l14.5,23.7
		c0.3,0.5,0.1,1.1-0.3,1.4C120.6,89.2,120.4,89.2,120.3,89.2z"/>
	<path class="st5" d="M110,42c-2.2,0-4-1.8-4-4c0-2.2,1.8-4,4-4c2.2,0,4,1.8,4,4C114,40.2,112.2,42,110,42z M110,36
		c-1.1,0-2,0.9-2,2c0,1.1,0.9,2,2,2c1.1,0,2-0.9,2-2C112,36.9,111.1,36,110,36z"/>
	<path class="st5" d="M12,53c-2.2,0-4-1.8-4-4c0-2.2,1.8-4,4-4c2.2,0,4,1.8,4,4C16,51.2,14.2,53,12,53z M12,46.9
		c-1.2,0-2.1,1-2.1,2.1c0,1.2,1,2.1,2.1,2.1c1.2,0,2.1-1,2.1-2.1C14.1,47.8,13.2,46.9,12,46.9z"/>
	<path class="st5" d="M61.9,11.4c0-0.4-0.4-0.8-1-0.9L59,10.3c-0.5-0.1-1.1-0.6-1.1-1.1l-0.3-1.9c-0.1-0.5-0.5-1-0.9-1
		c-0.4,0-0.8,0.4-0.9,1l-0.3,1.9c-0.1,0.5-0.6,1.1-1.1,1.1l-1.9,0.3c-0.5,0.1-1,0.5-1,0.9c0,0.4,0.4,0.8,1,0.9l1.9,0.3
		c0.5,0.1,1.1,0.6,1.1,1.1l0.3,1.9c0.1,0.5,0.5,1,0.9,1c0.4,0,0.8-0.4,0.8-1l0.3-2.1c0.1-0.5,0.6-1,1.1-1.1l1.8-0.1
		C61.4,12.2,61.9,11.8,61.9,11.4z"/>
	<path class="st5" d="M38.9,35.1c0-0.4-0.4-0.8-1-0.9L36.1,34c-0.5-0.1-1.1-0.6-1.1-1.1L34.7,31c-0.1-0.5-0.5-1-0.9-1
		c-0.4,0-0.8,0.4-0.9,1l-0.3,1.9c-0.1,0.5-0.6,1.1-1.1,1.1l-1.9,0.3c-0.5,0.1-1,0.5-1,0.9c0,0.4,0.4,0.8,1,0.9l1.9,0.3
		c0.5,0.1,1.1,0.6,1.1,1.1l0.3,1.9c0.1,0.5,0.5,1,0.9,1c0.4,0,0.8-0.4,0.9-1l0.3-2.1c0.1-0.5,0.6-1,1.1-1.1l1.8-0.1
		C38.5,35.8,38.9,35.5,38.9,35.1z"/>
</g>
</svg>
