<?xml version="1.0" encoding="utf-8"?>
<!-- Generator: Adobe Illustrator 21.0.2, SVG Export Plug-In . SVG Version: 6.00 Build 0)  -->
<svg version="1.1" id="desklamp" xmlns="http://www.w3.org/2000/svg" xmlns:xlink="http://www.w3.org/1999/xlink" x="0px" y="0px"
	 viewBox="0 0 128 128" style="enable-background:new 0 0 128 128;" xml:space="preserve">
<style type="text/css">
	.st0{fill:#28A5C6;}
	.st1{fill:#074370;}
	.st2{fill:#FFFFFF;}
	.st3{fill:#D4D6D6;}
	.st4{fill:#FBD000;}
	.st5{opacity:0.5;fill:#074370;}
	.st6{opacity:0.5;fill:#FFFFFF;}
</style>
<g>
	<circle class="st0" cx="64" cy="64" r="64"/>
	<path class="st1" d="M118.7,105H8.8c-0.6,0-1-0.4-1-1s0.4-1,1-1h109.9c0.6,0,1,0.4,1,1S119.3,105,118.7,105z"/>
	<path class="st2" d="M59.5,95.8c-0.7,0-1.4-0.3-2-0.8l-41-36.7c-0.7-0.6-1-1.5-1-2.4c0-0.9,0.5-1.7,1.2-2.3L60.2,21
		c1.3-1,3.2-0.7,4.2,0.6c1,1.3,0.7,3.2-0.6,4.2L23.2,56.3l38.3,34.3c1.2,1.1,1.3,3,0.2,4.2C61.1,95.5,60.3,95.8,59.5,95.8z"/>
	<path class="st3" d="M24.8,47.6l-8.1,6.1c-0.7,0.5-1.2,1.4-1.2,2.3c0,0.9,0.3,1.8,1,2.4l6.5,5.8c1.9-0.9,3.4-2.3,4.4-4.1l-4.2-3.8
		l5-3.8C27.6,50.6,26.4,48.9,24.8,47.6z"/>
	<path class="st3" d="M57.7,22.9c0.1,0.1,0.1,0.3,0.2,0.4c0.3,0.5,0.6,0.9,0.9,1.3c-2.4,2.5-4.2,5.6-5.2,8.9l10.2-7.7
		c1.3-1,1.6-2.9,0.6-4.2c-1-1.3-2.9-1.6-4.2-0.6L57.7,22.9z"/>
	<path class="st1" d="M59.5,96.8c-1,0-1.9-0.4-2.7-1l-41-36.9c-0.9-0.8-1.4-2-1.3-3.2c0.1-1.2,0.6-2.3,1.6-3l43.5-32.9
		c0.7-0.5,1.5-0.8,2.4-0.8c1.3,0,2.4,0.6,3.2,1.6c1.3,1.8,1,4.3-0.8,5.6L24.8,56.2l37.4,33.6c0.8,0.7,1.3,1.7,1.3,2.8
		c0.1,1.1-0.3,2.1-1,2.9C61.7,96.3,60.6,96.8,59.5,96.8z M62,21c-0.4,0-0.9,0.1-1.2,0.4L17.3,54.3c-0.5,0.4-0.8,0.9-0.8,1.5
		c0,0.6,0.2,1.2,0.7,1.6l41,36.9c0.8,0.7,2.1,0.6,2.8-0.2c0.4-0.4,0.5-0.9,0.5-1.5c0-0.5-0.3-1-0.7-1.4L22.6,56.8
		c-0.2-0.2-0.3-0.5-0.3-0.8c0-0.3,0.2-0.6,0.4-0.8l40.6-30.7c0.9-0.7,1.1-1.9,0.4-2.8C63.2,21.3,62.6,21,62,21z"/>
	<path class="st2" d="M28.5,98.4c0-3,2.7-5.5,6-5.5H87c3.3,0,6,2.5,6,5.5s-2.7,5.5-6,5.5H34.5C31.2,103.9,28.5,101.4,28.5,98.4z"/>
	<ellipse transform="matrix(0.8819 -0.4714 0.4714 0.8819 -9.1743 41.3771)" class="st4" cx="78" cy="39" rx="7" ry="7"/>
	<path class="st1" d="M78,47c-3,0-5.7-1.6-7.1-4.2c-2.1-3.9-0.6-8.7,3.3-10.8c1.2-0.6,2.5-0.9,3.8-0.9c3,0,5.7,1.6,7.1,4.2
		c1,1.9,1.2,4,0.6,6.1c-0.6,2-2,3.7-3.9,4.7C80.6,46.7,79.3,47,78,47z M78,32.9c-1,0-2,0.2-2.8,0.7c-2.9,1.6-4.1,5.3-2.5,8.2
		c1.1,2,3.1,3.2,5.4,3.2c1,0,2-0.2,2.8-0.7c1.4-0.8,2.5-2,2.9-3.6c0.5-1.5,0.3-3.2-0.5-4.6C82.3,34.2,80.2,32.9,78,32.9z"/>
	<path class="st2" d="M95.8,26.3c-5.1-5.8-13-8.5-20.6-7.2c-0.1-0.5-0.3-1-0.6-1.4c-1.8-3.3-6.1-4.6-9.5-2.8
		c-3.4,1.8-4.7,5.9-2.9,9.3c0.3,0.5,0.6,0.9,0.9,1.3c-5.3,5.4-7.4,13.3-5.3,20.6c0.4,1.5,1.9,4.4,5.7,2.4c3.8-2,28.5-14.9,31.6-16.5
		C98.2,30.2,96.8,27.4,95.8,26.3z"/>
	<path class="st3" d="M96.3,28.5C93.4,30,70.5,42.1,67,44c-3.5,1.9-4.9-0.8-5.3-2.2c-1.9-6.9,0-14.2,5-19.3
		c-0.3-0.4-0.6-0.8-0.8-1.2c-1.3-2.4-0.9-5.3,0.8-7.2c-0.6,0.1-1.2,0.3-1.8,0.7c-3.4,1.8-4.7,6-2.9,9.4c0.3,0.5,0.6,0.9,0.9,1.3
		c-5.4,5.5-7.5,13.5-5.4,21c0.4,1.5,1.9,4.5,5.8,2.4c3.9-2,28.8-15.2,31.9-16.8c2-1,2.1-2.5,1.7-3.8C96.7,28.3,96.5,28.4,96.3,28.5z
		"/>
	<path class="st3" d="M87,100H35c-2.5,0-5.1-1.7-6-3.7c-0.3,0.7-0.5,1.4-0.5,2.2c0,3,2.7,5.5,6,5.5H87c3.3,0,6-2.5,6-5.5
		c0-0.8-0.2-1.5-0.5-2.2C91.6,98.3,89.5,100,87,100z"/>
	<circle class="st2" cx="19" cy="55.4" r="6"/>
	<path class="st1" d="M86.9,104.9H34.1c-3.9,0-7.1-2.9-7.1-6.5s3.2-6.4,7.1-6.4h52.9c3.9,0,7.1,2.8,7.1,6.4S90.8,104.9,86.9,104.9z
		 M34.1,93.9c-2.8,0-5,2-5,4.5c0,2.5,2.3,4.6,5,4.6h52.9c2.8,0,5-2.1,5-4.6c0-2.5-2.3-4.5-5-4.5H34.1z"/>
	<path class="st1" d="M19,62c-3.9,0-7-3.1-7-7s3.1-7,7-7c3.9,0,7,3.1,7,7S22.9,62,19,62z M19,50c-2.8,0-5,2.2-5,5s2.2,5,5,5
		c2.8,0,5-2.2,5-5S21.8,50,19,50z"/>
	<path class="st1" d="M61.1,51L61.1,51c-2,0-3.6-1.5-4.3-3.9c-2.1-7.5-0.2-15.7,5-21.5c-0.2-0.3-0.3-0.5-0.5-0.8
		c-2.1-3.9-0.6-8.8,3.3-10.9c1.2-0.6,2.5-1,3.8-1c3,0,5.7,1.6,7.1,4.2c0.1,0.3,0.3,0.5,0.4,0.8c1-0.1,2.1-0.2,3.2-0.2
		c6.8,0,13.2,3,17.5,8.1c0.9,1,1.7,2.7,1.4,4.3c-0.2,0.8-0.7,2-2.3,2.9L64,50.2C63,50.7,62,51,61.1,51z M68.4,15c-1,0-2,0.2-2.8,0.7
		c-2.9,1.6-4,5.2-2.5,8.2c0.2,0.4,0.5,0.8,0.8,1.1c0.3,0.4,0.3,1,0,1.4c-5.1,5.3-7.1,13.1-5.1,20.2c0.2,0.7,0.8,2.4,2.4,2.4
		c0.5,0,1.2-0.2,1.9-0.6l31.6-17c0.8-0.4,1.2-0.9,1.3-1.5c0.2-0.9-0.4-2-0.9-2.6c-4-4.7-9.8-7.4-16-7.4c-1.2,0-2.5,0.1-3.7,0.3
		c-0.5,0.1-1-0.2-1.1-0.7c-0.1-0.5-0.3-0.9-0.5-1.3C72.7,16.2,70.6,15,68.4,15z"/>
	<circle class="st3" cx="19" cy="55" r="3"/>
	<path class="st5" d="M89.7,27.3c-0.2,0-0.5-0.1-0.7-0.3c-4.3-4-10.8-3.4-10.9-3.4c-0.5,0.1-1-0.4-1.1-0.9c-0.1-0.5,0.4-1,0.9-1.1
		c0.3,0,7.5-0.7,12.4,3.9c0.4,0.4,0.4,1,0.1,1.4C90.2,27.2,89.9,27.3,89.7,27.3z"/>
	<path class="st5" d="M86,98H41c-0.5,0-1-0.4-1-1s0.4-1,1-1h45c0.5,0,1,0.4,1,1S86.6,98,86,98z"/>
	<path class="st5" d="M55.6,90.2c-0.2,0-0.5-0.1-0.7-0.3L27.6,65.7c-0.4-0.4-0.5-1-0.1-1.4c0.4-0.4,1-0.5,1.4-0.1l27.4,24.2
		c0.4,0.4,0.5,1,0.1,1.4C56.2,90.1,55.9,90.2,55.6,90.2z"/>
	<path class="st5" d="M29,49.2c-0.3,0-0.6-0.1-0.8-0.4c-0.3-0.4-0.2-1.1,0.2-1.4l22-16.4c0.4-0.3,1.1-0.2,1.4,0.2
		c0.3,0.4,0.2,1.1-0.2,1.4L29.6,49C29.4,49.1,29.2,49.2,29,49.2z"/>
	<path class="st6" d="M84,70c-2.2,0-4-1.8-4-4c0-2.2,1.8-4,4-4c2.2,0,4,1.8,4,4C88,68.2,86.2,70,84,70z M84,64c-1.1,0-2,0.9-2,2
		c0,1.1,0.9,2,2,2c1.1,0,2-0.9,2-2C86,64.9,85.1,64,84,64z"/>
	<path class="st6" d="M32,32c-2.2,0-4-1.8-4-4c0-2.2,1.8-4,4-4c2.2,0,4,1.8,4,4C36,30.2,34.2,32,32,32z M32,26c-1.1,0-2,0.9-2,2
		c0,1.1,0.9,2,2,2c1.1,0,2-0.9,2-2C34,26.9,33.1,26,32,26z"/>
	<path class="st6" d="M108.8,82.8c0-0.4-0.4-0.8-1-0.9l-1.9-0.3c-0.5-0.1-1.1-0.6-1.1-1.1l-0.3-1.9c-0.1-0.5-0.5-1-0.9-1
		c-0.4,0-0.8,0.4-0.9,1l-0.3,1.9c-0.1,0.5-0.6,1.1-1.1,1.1l-1.9,0.3c-0.5,0.1-1,0.5-1,0.9c0,0.4,0.4,0.8,1,0.9l1.9,0.3
		c0.5,0.1,1.1,0.6,1.1,1.1l0.3,1.9c0.1,0.5,0.5,1,0.9,1c0.4,0,0.8-0.4,0.8-1l0.3-2.1c0.1-0.5,0.6-1,1.1-1.1l1.8-0.1
		C108.4,83.5,108.8,83.2,108.8,82.8z"/>
	<path class="st6" d="M113.3,50.5c0-0.4-0.4-0.8-1-0.9l-1.9-0.3c-0.5-0.1-1.1-0.6-1.1-1.1l-0.3-1.9c-0.1-0.5-0.5-1-0.9-1
		c-0.4,0-0.8,0.4-0.9,1l-0.3,1.9c-0.1,0.5-0.6,1.1-1.1,1.1l-1.9,0.3c-0.5,0.1-1,0.5-1,0.9s0.4,0.8,1,0.9l1.9,0.3
		c0.5,0.1,1.1,0.6,1.1,1.1l0.3,1.9c0.1,0.5,0.5,1,0.9,1c0.4,0,0.8-0.4,0.8-1l0.3-2.1c0.1-0.5,0.6-1,1.1-1.1l1.8-0.1
		C112.9,51.2,113.3,50.9,113.3,50.5z"/>
	<path class="st6" d="M66.8,67.5c0-0.4-0.4-0.8-1-0.9L64,66.4c-0.5-0.1-1.1-0.6-1.1-1.1l-0.3-1.9c-0.1-0.5-0.5-1-0.9-1
		c-0.4,0-0.8,0.4-0.9,1l-0.3,1.9c-0.1,0.5-0.6,1.1-1.1,1.1l-1.9,0.3c-0.5,0.1-1,0.5-1,0.9s0.4,0.8,1,0.9l1.9,0.3
		c0.5,0.1,1.1,0.6,1.1,1.1l0.3,1.9c0.1,0.5,0.5,1,0.9,1c0.4,0,0.8-0.4,0.8-1l0.3-2.1c0.1-0.5,0.6-1,1.1-1.1l1.8-0.1
		C66.4,68.2,66.8,67.9,66.8,67.5z"/>
</g>
</svg>
