<?xml version="1.0" encoding="utf-8"?>
<!-- Generator: Adobe Illustrator 21.0.2, SVG Export Plug-In . SVG Version: 6.00 Build 0)  -->
<svg version="1.1" id="dog" xmlns="http://www.w3.org/2000/svg" xmlns:xlink="http://www.w3.org/1999/xlink" x="0px" y="0px"
	 viewBox="0 0 128 128" style="enable-background:new 0 0 128 128;" xml:space="preserve">
<style type="text/css">
	.st0{fill:#FF4848;}
	.st1{fill:#D4D6D6;}
	.st2{fill:#6B3C1C;}
	.st3{fill:#F99900;}
	.st4{fill:#EAEAEA;}
	.st5{opacity:0.5;fill:#FFFFFF;}
	.st6{fill:#FFFFFF;}
</style>
<g>
	<circle class="st0" cx="64" cy="64" r="64"/>
	<path class="st1" d="M61.8,65.3c-2.1-0.5-4.2,1.3-4.8,4l-5.8,26.7c-0.2,0.7-0.2,1.4-0.2,2h-3.6c-1.7,0-3,1.3-3,2.8
		c0,1.6,1.3,2.8,3,2.8h5.8c1.7,0,3-1.3,3-2.8c0-0.3,0.5-2.1,0.8-2.9l7.3-27C65,68.4,63.9,65.8,61.8,65.3z"/>
	<path class="st2" d="M53.2,104.8h-5.8c-2.2,0-4-1.7-4-3.8c0-2.1,1.8-3.8,4-3.8H50c0-0.4,0.1-0.8,0.2-1.2L56,69.2
		c0.6-2.8,2.8-4.9,5.1-4.9c0.3,0,0.6,0,0.9,0.1c1.1,0.2,2,1,2.7,2c0.8,1.4,1,3.2,0.5,4.9L57.7,99c-0.2,0.6-0.5,1.7-0.5,2
		C57.2,103,55.4,104.8,53.2,104.8z M47.4,99.1c-1.1,0-2,0.8-2,1.8c0,1,0.9,1.8,2,1.8h5.8c1.1,0,2-0.8,2-1.8c0-0.3,0.1-0.8,0.6-2.5
		l0.2-0.7l7.3-27c0.3-1.2,0.2-2.5-0.3-3.4c-0.2-0.4-0.7-0.9-1.4-1.1c-1.5-0.3-3.2,1.2-3.6,3.3l-5.8,26.7c-0.1,0.6-0.2,1.2-0.2,1.8
		c0,0.3-0.1,0.5-0.3,0.7c-0.2,0.2-0.4,0.3-0.7,0.3H47.4z"/>
	<path class="st3" d="M94.7,84.8c0,0,4-1.3,4.9-6c1.4-6.9-3.7-13.6-3.7-13.6s10.8,3.3,9.9,11.6c-0.9,8.3-10.6,11.3-10.6,11.3"/>
	<path class="st2" d="M95.2,89c-0.4,0-0.8-0.3-1-0.7c-0.2-0.5,0.1-1.1,0.7-1.2c0.1,0,9.2-2.9,10-10.4c0.5-4.8-3.6-7.8-6.5-9.3
		c1.4,2.7,3.1,7.1,2.2,11.6c-1,5.2-5.4,6.7-5.6,6.7c-0.5,0.2-1.1-0.1-1.3-0.6c-0.2-0.5,0.1-1.1,0.6-1.3c0.2-0.1,3.5-1.3,4.3-5.2
		c1.3-6.4-3.5-12.7-3.5-12.8c-0.3-0.3-0.3-0.8,0-1.2c0.3-0.4,0.7-0.5,1.1-0.4c0.5,0.1,11.8,3.7,10.7,12.6c-1,8.8-11,11.9-11.4,12.1
		C95.4,89,95.3,89,95.2,89z"/>
	<path class="st4" d="M92.6,99.8c-4.8,4.7-13.5,3.6-19.2-2.3l-19.2-20c-5.7-5.9-7.7-14.9-4.4-19.9c3.3-5,11-4.5,17,1.2L90.5,81
		C96.5,86.7,97.5,95.1,92.6,99.8z"/>
	<path class="st1" d="M81.2,80.6c0,0-7.7-0.4-11.7,2.9s-3.9,5.9-3.9,5.9l5.2,6.1c0,0-0.8-7,2.3-10.3S79.7,80.3,81.2,80.6z"/>
	<path class="st3" d="M68.1,60.3C65.6,62.1,64,65,64,68.2c0,5.4,4.6,9.8,10.3,9.8c3.6,0,6.7-1.7,8.6-4.4L68.1,60.3z"/>
	<path class="st1" d="M62.3,55.6c-4.9-2.4-10-1.9-12.5,2c-1.8,2.8-2.1,6.8-0.9,10.8c0.3,0,0.6,0.1,0.9,0.1
		C55.4,68.4,60.8,62.7,62.3,55.6z"/>
	<path class="st2" d="M85.5,104.1c-4.5,0-9.3-2.2-12.8-5.9l-19.2-20c-6-6.3-8-15.8-4.5-21.2c1.7-2.5,4.4-3.9,7.6-3.9
		c3.6,0,7.6,1.8,10.9,4.9l23.7,22.3c3.4,3.2,5.5,7.8,5.5,12.2c0,3.4-1.2,6.5-3.4,8.6C91.3,103,88.6,104.1,85.5,104.1z M56.6,55.1
		c-2.5,0-4.6,1.1-5.9,3c-3,4.6-1.1,13.1,4.2,18.7l19.2,20c3.2,3.3,7.5,5.3,11.4,5.3c2.6,0,4.8-0.8,6.4-2.4c1.8-1.7,2.8-4.3,2.8-7.1
		c0-3.9-1.9-7.9-4.9-10.7L66.1,59.4C63.1,56.7,59.7,55.1,56.6,55.1z"/>
	<path class="st4" d="M61,49c-1.1,7.6-6.9,13.8-12.7,13.8c-5.9,0-11.6-6.2-12.7-13.8l-0.8-5.2c-1.1-7.6,4.2-13.8,11.9-13.8h3.1
		c7.7,0,13.1,6.2,11.9,13.8L61,49z"/>
	<path class="st4" d="M58.2,67c-2.1-0.5-4.1-0.3-4.7,2.4l-5.8,26.7c-0.2,0.7-0.2,1.4-0.2,2h-3.6c-1.7,0-3,1.3-3,2.8
		c0,1.6,1.3,2.8,3,2.8h5.8c1.7,0,3-1.3,3-2.8c0-0.3,0.5-2.1,0.8-2.9l7.3-27C61.5,68.4,60.2,67.5,58.2,67z"/>
	<path class="st1" d="M48.3,57.4c-5.1,0-10.1-3.6-12.8-8.6l0,0.2c1.1,7.6,6.9,13.8,12.7,13.8c5.9,0,11.6-6.2,12.7-13.8l0-0.2
		C58.4,53.8,53.4,57.4,48.3,57.4z"/>
	<ellipse class="st2" cx="48" cy="53" rx="3" ry="2"/>
	<path class="st2" d="M45.8,58c-2.4,0-3.6-1.8-3.9-2.8c-0.2-0.5,0.1-1,0.7-1.2c0.5-0.1,1.1,0.1,1.2,0.6c0.1,0.1,0.5,1.4,2,1.4
		c1.2,0,1.3-1.1,1.3-1.3c0-0.5,0.4-0.9,0.9-0.9c0.5,0,1,0.3,1.1,0.8c0,0.1,0.3,1.4,1.3,1.4c1.1,0,1.8-1.5,1.8-1.6
		c0.2-0.5,0.8-0.7,1.3-0.5c0.5,0.2,0.8,0.7,0.6,1.2c0,0.1-1.1,2.8-3.7,2.8c-0.9,0-1.6-0.4-2.2-0.9C47.7,57.6,46.9,58,45.8,58z"/>
	<ellipse class="st3" cx="54" cy="46" rx="5" ry="4.9"/>
	<path class="st1" d="M34.8,43.8l0.3,2.2c2-1.6,3.8-4.5,4.6-7.7c0.6-2.3,0.4-4.4-0.5-6C35.9,34.8,34.1,39,34.8,43.8z"/>
	<path class="st1" d="M61.6,43.8L61.2,46c-2-1.6-3.8-4.5-4.6-7.7c-0.6-2.3-0.4-4.4,0.5-6C60.5,34.8,62.3,39,61.6,43.8z"/>
	<circle class="st2" cx="42" cy="46" r="2"/>
	<circle class="st2" cx="54.1" cy="46" r="1.9"/>
	<path class="st2" d="M117.6,105H10.1c-0.6,0-1-0.4-1-1s0.4-1,1-1h107.5c0.6,0,1,0.4,1,1S118.2,105,117.6,105z"/>
	<path class="st4" d="M82,81.4c-6.3,0-11.5,5.1-11.5,11.5c0,2.1,0.2,2.5,0.2,2.5c0.7,1.5,0,2.7-1.7,2.7h-0.9c-1.7,0-3,1.3-3,3
		c0,1.6,1.3,2.9,3,2.9l10.8-0.2c1.7,0,3.5-0.1,4.1-0.2c0.6-0.1,2.3-0.7,3.8-1.4c0,0,6.6-3.1,6.6-9.4C93.5,86.5,88.3,81.4,82,81.4z"
		/>
	<path class="st2" d="M48.3,63.8c-6.4,0-12.5-6.6-13.7-14.7l-0.8-5.2c-0.6-4,0.4-7.7,2.9-10.6c2.5-2.8,6-4.4,10-4.4h3.1
		c4,0,7.6,1.6,10,4.4c2.5,2.8,3.5,6.6,2.9,10.6L62,49.1C60.8,57.2,54.6,63.8,48.3,63.8z M46.7,30.9c-3.4,0-6.5,1.3-8.5,3.7
		c-2.1,2.4-2.9,5.6-2.4,9l0.8,5.2c1.1,7.2,6.3,13,11.7,13c5.4,0,10.7-5.8,11.7-13l0.8-5.2c0.5-3.4-0.4-6.6-2.4-9
		c-2.1-2.4-5.1-3.7-8.5-3.7H46.7z"/>
	<path class="st5" d="M49.1,54c-0.3,0-0.6-0.2-0.8-0.6c-0.2,0-0.3,0-0.4,0c-0.5,0-0.9-0.5-0.9-1.1c0-0.7,0.3-1.2,0.8-1.3
		c1-0.1,2-0.2,2.2,1.6c0.1,0.7-0.2,1.3-0.7,1.4C49.2,54,49.2,54,49.1,54z"/>
	<path class="st4" d="M69.1,36.5c0,3.9-2,7.2-4.4,7.2c-2.4,0-5.2-3.2-6.2-7.2c-1-3.9,1-7.2,4.4-7.2C66.3,29.3,69.1,32.5,69.1,36.5z"
		/>
	<path class="st3" d="M26.9,36.5c0,3.9,2,7.2,4.4,7.2c2.4,0,5.2-3.2,6.2-7.2c1-3.9-1-7.2-4.4-7.2C29.7,29.3,26.9,32.5,26.9,36.5z"/>
	<path class="st2" d="M64.6,45c-2.9,0-6.1-3.6-7.3-8.2c-0.6-2.5-0.3-4.9,1-6.6c1-1.4,2.6-2.2,4.4-2.2c4,0,7.3,3.8,7.3,8.5
		C70,41.3,67.6,45,64.6,45z M62.7,30.1c-1.2,0-2.1,0.5-2.8,1.4c-0.9,1.2-1.1,2.9-0.6,4.8c1,3.9,3.6,6.7,5.3,6.7c1.8,0,3.4-3,3.4-6.4
		C68,33,65.6,30.1,62.7,30.1z"/>
	<path class="st2" d="M31.4,45c-3.1,0-5.4-3.7-5.4-8.5c0-4.7,3.3-8.5,7.3-8.5c1.8,0,3.4,0.8,4.4,2.2c1.3,1.7,1.6,4.1,1,6.6
		C37.6,41.4,34.4,45,31.4,45z M33.3,30.1c-2.9,0-5.3,2.9-5.3,6.4c0,3.4,1.6,6.4,3.4,6.4c1.7,0,4.3-2.7,5.3-6.7
		c0.5-1.9,0.2-3.6-0.6-4.8C35.4,30.6,34.5,30.1,33.3,30.1z"/>
	<path class="st2" d="M71.8,99c-0.3,0-0.7-0.1-0.9-0.4c-1.3-2-1.9-4.2-1.9-6.6c0-6.9,5.8-12.5,13-12.5c0.6,0,1,0.4,1,1
		c0,0.6-0.5,1-1,1c-6,0-10.9,4.7-10.9,10.5c0,2,0.6,3.9,1.6,5.5c0.3,0.5,0.2,1.1-0.3,1.4C72.2,99,72,99,71.8,99z"/>
	<path class="st2" d="M85.6,104.9H68c-2.1,0-4-1.9-4-4.1c0-2.1,1.8-3.8,4-3.8h11.6c0.6,0,1,0.4,1,1s-0.5,1-1,1H68
		c-1.1,0-2,0.8-2,1.8c0,1,0.9,2.2,2,2.2h17.6c0.6,0,1,0.4,1,0.9C86.6,104.5,86.2,104.9,85.6,104.9z"/>
	<path class="st2" d="M49.8,105H44c-2.1,0-4-1.9-4-4.1c0-2.1,1.8-3.8,4-3.8h2.3c0.1-0.2,0.1-0.4,0.2-0.6c0.1-0.2,0.2-0.5,0.2-0.7
		l5.8-26.7c0.1-0.5,0.6-0.9,1.2-0.8c0.5,0.1,0.9,0.6,0.8,1.2l-5.8,26.7c-0.1,0.4-0.2,0.7-0.3,1c-0.1,0.3-0.2,0.6-0.2,0.8
		c0,0.3-0.1,0.5-0.3,0.7c-0.2,0.2-0.4,0.3-0.7,0.3H44c-1.1,0-2,0.8-2,1.8c0,1,0.9,2.1,2,2.1h5.8c1.1,0,2-1.1,2-2.1
		c0-0.2,0-0.4,8.1-30.2c0.1-0.5,0.7-0.9,1.2-0.7c0.5,0.1,0.8,0.7,0.7,1.2c-3.1,11.3-7.7,28.4-8,29.7C53.7,103.2,51.9,105,49.8,105z"
		/>
	<path class="st6" d="M53.5,35.2c-0.2,0-0.4-0.1-0.6-0.2c-2-1.4-6.5-1-8-0.7c-0.5,0.1-1.1-0.3-1.2-0.8c-0.1-0.5,0.3-1.1,0.8-1.2
		c0.3,0,6.4-1.2,9.5,1.1c0.5,0.3,0.6,0.9,0.2,1.4C54.1,35.1,53.8,35.2,53.5,35.2z"/>
	<path class="st6" d="M65.6,39.3c-0.1,0-0.2,0-0.4-0.1c-0.5-0.2-0.8-0.8-0.6-1.3c1.2-2.9-1.7-5.1-1.8-5.2c-0.4-0.3-0.5-1-0.2-1.4
		c0.3-0.4,1-0.5,1.4-0.2c1.5,1.1,3.8,4,2.5,7.5C66.4,39.1,66,39.3,65.6,39.3z"/>
	<path class="st5" d="M33.1,39.2c-0.2,0-0.4-0.1-0.5-0.2c-0.5-0.3-0.6-0.9-0.3-1.4c1.3-2,0.5-4.4,0.5-4.4c-0.2-0.5,0.1-1.1,0.6-1.3
		c0.5-0.2,1.1,0.1,1.3,0.6c0.1,0.1,1.2,3.3-0.6,6.2C33.8,39,33.4,39.2,33.1,39.2z"/>
	<path class="st6" d="M90.8,97.7c-0.2,0-0.4-0.1-0.6-0.2c-0.5-0.3-0.6-0.9-0.3-1.4c3.2-4.8-3-12.5-3.1-12.6
		c-0.4-0.4-0.3-1.1,0.1-1.4c0.4-0.4,1.1-0.3,1.4,0.1c0.3,0.4,7.2,8.9,3.2,14.9C91.5,97.5,91.2,97.7,90.8,97.7z"/>
	<path class="st6" d="M51,97.8c-0.1,0-0.2,0-0.2,0c-0.5-0.1-0.9-0.7-0.7-1.2l3.2-13.9c0.1-0.5,0.7-0.9,1.2-0.7
		c0.5,0.1,0.9,0.7,0.7,1.2l-3.2,13.9C51.8,97.5,51.4,97.8,51,97.8z"/>
	<path class="st6" d="M55.3,79c-0.1,0-0.2,0-0.2,0c-0.5-0.1-0.9-0.7-0.7-1.2l1.3-5.5c0.1-0.5,0.7-0.9,1.2-0.7
		c0.5,0.1,0.9,0.7,0.7,1.2l-1.3,5.5C56.2,78.7,55.8,79,55.3,79z"/>
	<path class="st5" d="M78,75.5c-0.3,0-0.5-0.1-0.7-0.3l-9.8-9.7c-0.4-0.4-0.4-1,0-1.4c0.4-0.4,1-0.4,1.4,0l9.8,9.7
		c0.4,0.4,0.4,1,0,1.4C78.5,75.4,78.3,75.5,78,75.5z"/>
	<path class="st5" d="M98.6,38c0-0.4-0.4-0.8-1-0.9l-1.9-0.3c-0.5-0.1-1.1-0.6-1.1-1.1l-0.3-1.9c-0.1-0.5-0.5-1-0.9-1
		c-0.4,0-0.8,0.4-0.9,1l-0.3,1.9c-0.1,0.5-0.6,1.1-1.1,1.1l-1.9,0.3c-0.5,0.1-1,0.5-1,0.9c0,0.4,0.4,0.8,1,0.9l1.9,0.3
		c0.5,0.1,1.1,0.6,1.1,1.1l0.3,1.9c0.1,0.5,0.5,1,0.9,1c0.4,0,0.8-0.4,0.9-1l0.3-2.1c0.1-0.5,0.6-1,1.1-1.1l1.8-0.1
		C98.1,38.7,98.6,38.4,98.6,38z"/>
	<path class="st5" d="M64.1,116.9c0-0.4-0.4-0.8-1-0.9l-1.9-0.3c-0.5-0.1-1.1-0.6-1.1-1.1l-0.3-1.9c-0.1-0.5-0.5-1-0.9-1
		c-0.4,0-0.8,0.4-0.9,1l-0.3,1.9c-0.1,0.5-0.6,1.1-1.1,1.1l-1.9,0.3c-0.5,0.1-1,0.5-1,0.9c0,0.4,0.4,0.8,1,0.9l1.9,0.3
		c0.5,0.1,1.1,0.6,1.1,1.1l0.3,1.9c0.1,0.5,0.5,1,0.9,1c0.4,0,0.8-0.4,0.9-1l0.3-2.1c0.1-0.5,0.6-1,1.1-1.1l1.8-0.1
		C63.7,117.7,64.1,117.3,64.1,116.9z"/>
	<path class="st5" d="M23.1,57c0-0.4-0.4-0.8-1-0.9l-1.9-0.3c-0.5-0.1-1.1-0.6-1.1-1.1l-0.3-1.9c-0.1-0.5-0.5-1-0.9-1
		c-0.4,0-0.8,0.4-0.9,1l-0.3,1.9c-0.1,0.5-0.6,1.1-1.1,1.1l-1.9,0.3c-0.5,0.1-1,0.5-1,0.9c0,0.4,0.4,0.8,1,0.9l1.9,0.3
		c0.5,0.1,1.1,0.6,1.1,1.1l0.3,1.9c0.1,0.5,0.5,1,0.9,1c0.4,0,0.8-0.4,0.9-1l0.3-2.1c0.1-0.5,0.6-1,1.1-1.1l1.8-0.1
		C22.6,57.7,23.1,57.4,23.1,57z"/>
	<path class="st5" d="M21,82c-2.2,0-4-1.8-4-4c0-2.2,1.8-4,4-4c2.2,0,4,1.8,4,4C25,80.2,23.2,82,21,82z M21,75.9
		c-1.2,0-2.1,1-2.1,2.1c0,1.2,1,2.1,2.1,2.1c1.2,0,2.1-1,2.1-2.1C23.1,76.8,22.2,75.9,21,75.9z"/>
	<path class="st5" d="M73,21c-2.2,0-4-1.8-4-4c0-2.2,1.8-4,4-4c2.2,0,4,1.8,4,4C77,19.2,75.2,21,73,21z M73,14.9
		c-1.2,0-2.1,1-2.1,2.1c0,1.2,1,2.1,2.1,2.1c1.2,0,2.1-1,2.1-2.1C75.1,15.8,74.2,14.9,73,14.9z"/>
	<path class="st5" d="M111,62c-2.2,0-4-1.8-4-4c0-2.2,1.8-4,4-4c2.2,0,4,1.8,4,4C115,60.2,113.2,62,111,62z M111,55.9
		c-1.2,0-2.1,1-2.1,2.1c0,1.2,1,2.1,2.1,2.1c1.2,0,2.1-1,2.1-2.1C113.1,56.8,112.2,55.9,111,55.9z"/>
</g>
</svg>
