<?xml version="1.0" encoding="utf-8"?>
<!-- Generator: Adobe Illustrator 21.0.2, SVG Export Plug-In . SVG Version: 6.00 Build 0)  -->
<svg version="1.1" id="england" xmlns="http://www.w3.org/2000/svg" xmlns:xlink="http://www.w3.org/1999/xlink" x="0px" y="0px"
	 viewBox="0 0 128 128" style="enable-background:new 0 0 128 128;" xml:space="preserve">
<style type="text/css">
	.st0{fill:#3DB39E;}
	.st1{opacity:0.5;fill:#FFFFFF;}
	.st2{fill:#AD5114;}
	.st3{fill:#663210;}
	.st4{fill:#993F0D;}
	.st5{fill:#FFFFFF;}
	.st6{fill:#D4D6D6;}
</style>
<g>
	<circle class="st0" cx="64" cy="64" r="64"/>
	<path class="st1" d="M30.6,95.1c-2.5,0-4.6-2-4.6-4.6c0-2.5,2-4.6,4.6-4.6c2.5,0,4.6,2,4.6,4.6C35.1,93.1,33.1,95.1,30.6,95.1z
		 M30.6,88.1c-1.3,0-2.4,1.1-2.4,2.4c0,1.3,1.1,2.4,2.4,2.4c1.3,0,2.4-1.1,2.4-2.4C33,89.2,31.9,88.1,30.6,88.1z"/>
	<path class="st1" d="M108.5,87c-2.5,0-4.5-2-4.5-4.5c0-2.5,2-4.5,4.5-4.5c2.5,0,4.5,2,4.5,4.5C113,85,111,87,108.5,87z M108.5,80.1
		c-1.3,0-2.4,1.1-2.4,2.4c0,1.3,1.1,2.4,2.4,2.4c1.3,0,2.4-1.1,2.4-2.4C110.9,81.2,109.8,80.1,108.5,80.1z"/>
	<path class="st1" d="M99.4,31c0-0.4-0.4-0.8-1-0.9l-1.9-0.3c-0.5-0.1-1.1-0.6-1.1-1.1l-0.3-1.9c-0.1-0.5-0.5-1-0.9-1
		c-0.4,0-0.8,0.4-0.9,1l-0.3,1.9c-0.1,0.5-0.6,1.1-1.1,1.1l-1.9,0.3c-0.5,0.1-1,0.5-1,0.9c0,0.4,0.4,0.8,1,0.9l1.9,0.3
		c0.5,0.1,1.1,0.6,1.1,1.1l0.3,1.9c0.1,0.5,0.5,1,0.9,1c0.4,0,0.8-0.4,0.8-1l0.3-2.1c0.1-0.5,0.6-1,1.1-1.1l1.8-0.1
		C98.9,31.8,99.4,31.4,99.4,31z"/>
	<path class="st1" d="M100.1,103c0-0.4-0.4-0.8-1-0.9l-1.9-0.3c-0.5-0.1-1.1-0.6-1.1-1.1l-0.3-1.9c-0.1-0.5-0.5-1-0.9-1
		c-0.4,0-0.8,0.4-0.9,1l-0.3,1.9c-0.1,0.5-0.6,1.1-1.1,1.1l-1.9,0.3c-0.5,0.1-1,0.5-1,0.9c0,0.4,0.4,0.8,1,0.9l1.9,0.3
		c0.5,0.1,1.1,0.6,1.1,1.1l0.3,1.9c0.1,0.5,0.5,1,0.9,1c0.4,0,0.8-0.4,0.8-1l0.3-2.1c0.1-0.5,0.6-1,1.1-1.1l1.8-0.1
		C99.7,103.8,100.1,103.4,100.1,103z"/>
	<path class="st1" d="M28.4,63.3c0-0.4-0.4-0.8-1-0.9l-1.9-0.3C25,62,24.5,61.5,24.4,61l-0.3-1.9c-0.1-0.5-0.5-1-0.9-1
		c-0.4,0-0.8,0.4-0.9,1L22.1,61C22,61.5,21.5,62,21,62.1l-1.9,0.3c-0.5,0.1-1,0.5-1,0.9c0,0.4,0.4,0.8,1,0.9l1.9,0.3
		c0.5,0.1,1.1,0.6,1.1,1.1l0.3,1.9c0.1,0.5,0.5,1,0.9,1c0.4,0,0.8-0.4,0.8-1l0.3-2.1c0.1-0.5,0.6-1,1.1-1.1l1.8-0.1
		C27.9,64,28.4,63.7,28.4,63.3z"/>
	<rect x="53.1" y="57.1" class="st2" width="21.9" height="8.9"/>
	<rect x="57.1" y="36.1" class="st2" width="14" height="8.6"/>
	<path class="st2" d="M71.1,36.1H56.9c0,0,2.6-5.3,3.7-9.1c1.1-3.9,1.5-9.9,1.5-9.9h3.9c0,0,0.4,6,1.4,9.6
		C68.3,30.4,71.1,36.1,71.1,36.1z"/>
	<path class="st2" d="M74.9,57.1H53.1c0,0,2.1-3.4,2.8-6.1c0.8-2.7,1.1-6.9,1.1-6.9h14c0,0,0,4,0.9,6.8
		C72.8,53.7,74.9,57.1,74.9,57.1z"/>
	<path class="st3" d="M74.9,66.9H53.1c-0.6,0-1-0.4-1-1V57c0-0.6,0.4-1,1-1h21.9c0.6,0,1,0.4,1,1v8.9C75.9,66.4,75.5,66.9,74.9,66.9
		z M54.1,64.9h19.9V58H54.1V64.9z"/>
	<path class="st2" d="M74,62.1H54c-2.2,0-4,1.8-4,4v60c4.5,1,9.2,1.6,14,1.6s9.5-0.5,14-1.6v-60C78,63.9,76.2,62.1,74,62.1z"/>
	<path class="st3" d="M71.1,46h-14c-0.6,0-1-0.4-1-1v-9c0-0.6,0.4-1,1-1h14c0.6,0,1,0.4,1,1v9C72.1,45.6,71.6,46,71.1,46z M58.1,44
		h12v-7h-12V44z"/>
	<rect x="50" y="99.1" class="st4" width="28" height="6"/>
	<path class="st3" d="M74,61H54c-2.8,0-4.9,2.2-4.9,5v59.8c0.6,0.1,1.2,0.3,1.9,0.4V66c0-1.7,1.3-3,3-3h20c1.7,0,3.1,1.3,3.1,3v60.2
		c0.7-0.1,1.2-0.3,1.9-0.5V66C79,63.2,76.8,61,74,61z"/>
	<path class="st3" d="M71.1,37C71.1,37,71.1,37,71.1,37h-14c-0.3,0-0.7-0.2-0.8-0.5c-0.2-0.3-0.2-0.6-0.1-1c0-0.1,2.4-5.3,3.4-9
		c1-3.7,1.4-9.6,1.4-9.6c0-0.5,0.5-0.9,1-0.9h3.9c0.5,0,1,0.4,1,0.9c0,0.1,0.4,5.9,1.4,9.4c0.9,3.2,3.2,8.1,3.6,9.1
		c0.1,0.2,0.2,0.4,0.2,0.6C72.1,36.6,71.7,37,71.1,37z M58.7,35h10.9c-0.9-2-2.4-5.5-3.1-8.1c-0.8-2.9-1.2-7-1.4-8.9h-2
		c-0.2,1.9-0.6,6.1-1.4,9.1C60.8,29.8,59.4,33.1,58.7,35z"/>
	<path class="st3" d="M75,58C75,58,75,58,75,58H53.1c-0.4,0-0.7-0.2-0.9-0.5c-0.2-0.3-0.2-0.7,0-1c0,0,2-3.3,2.7-5.8
		c0.7-2.6,1.2-5.7,1.2-5.8c0.1-0.5,0.5-0.9,1-0.9H71c0.3,0,0.5,0.1,0.7,0.3c0.2,0.2,0.3,0.4,0.3,0.7c0,0,0,2.9,0.8,5.5
		c0.7,2.3,2.5,5.2,2.9,5.8c0.2,0.2,0.3,0.4,0.3,0.7C76,57.6,75.5,58,75,58z M54.8,56h18.4c-0.7-1.3-1.7-3.2-2.3-4.9
		c-0.6-1.9-0.8-3.9-0.9-5.1H58c-0.2,1.2-0.6,3.3-1.1,5.2C56.4,52.8,55.5,54.7,54.8,56z"/>
	<path class="st2" d="M80,94.1c0,2.2-1.8,4-4,4H52c-2.2,0-4-1.8-4-4v-20c0-2.2,1.8-4,4-4h24c2.2,0,4,1.8,4,4V94.1z"/>
	<line class="st5" x1="64" y1="6.1" x2="64" y2="16.4"/>
	<path class="st3" d="M64,17.4c-0.6,0-1-0.4-1-1V6.1c0-0.6,0.4-1,1-1s1,0.4,1,1v10.3C65,17,64.6,17.4,64,17.4z"/>
	<circle class="st5" cx="64" cy="84.1" r="10"/>
	<path class="st6" d="M64,79c4.7,0,8.6,3.3,9.7,7.6c0.2-0.8,0.3-1.6,0.3-2.5c0-5.5-4.5-10-10-10c-5.5,0-10,4.5-10,10
		c0,0.9,0.1,1.7,0.3,2.5C55.4,82.3,59.3,79,64,79z"/>
	<line class="st5" x1="54" y1="65.1" x2="54" y2="67.1"/>
	<path class="st3" d="M54,68c-0.6,0-1-0.4-1-1v-2c0-0.6,0.4-1,1-1s1,0.4,1,1v2C55,67.6,54.6,68,54,68z"/>
	<line class="st5" x1="58" y1="65.1" x2="58" y2="67.1"/>
	<path class="st3" d="M58,68c-0.6,0-1-0.4-1-1v-2c0-0.6,0.4-1,1-1s1,0.4,1,1v2C59,67.6,58.6,68,58,68z"/>
	<line class="st5" x1="62" y1="65.1" x2="62" y2="67.1"/>
	<path class="st3" d="M62,68c-0.6,0-1-0.4-1-1v-2c0-0.6,0.4-1,1-1s1,0.4,1,1v2C63,67.6,62.6,68,62,68z"/>
	<line class="st5" x1="60" y1="39.1" x2="60" y2="43.1"/>
	<path class="st3" d="M60,44c-0.6,0-1-0.4-1-1v-4c0-0.6,0.4-1,1-1s1,0.4,1,1v4C61,43.6,60.6,44,60,44z"/>
	<line class="st5" x1="64" y1="39.1" x2="64" y2="43.1"/>
	<path class="st3" d="M64,44.1c-0.6,0-1-0.4-1-1v-4c0-0.6,0.4-1,1-1s1,0.4,1,1v4C65,43.7,64.6,44.1,64,44.1z"/>
	<line class="st5" x1="68" y1="39.1" x2="68" y2="43.1"/>
	<path class="st3" d="M68,44c-0.6,0-1-0.4-1-1v-4c0-0.6,0.4-1,1-1s1,0.4,1,1v4C69,43.6,68.6,44,68,44z"/>
	<line class="st5" x1="66" y1="65.1" x2="66" y2="67.1"/>
	<path class="st3" d="M66,68c-0.6,0-1-0.4-1-1v-2c0-0.6,0.4-1,1-1s1,0.4,1,1v2C67,67.6,66.6,68,66,68z"/>
	<line class="st5" x1="70" y1="65.1" x2="70" y2="67.1"/>
	<path class="st3" d="M70,68c-0.6,0-1-0.4-1-1v-2c0-0.6,0.4-1,1-1s1,0.4,1,1v2C71,67.6,70.6,68,70,68z"/>
	<line class="st5" x1="74" y1="65.1" x2="74" y2="67.1"/>
	<path class="st3" d="M74,68c-0.6,0-1-0.4-1-1v-2c0-0.6,0.4-1,1-1s1,0.4,1,1v2C75,67.6,74.6,68,74,68z"/>
	<line class="st5" x1="53" y1="47.1" x2="53" y2="57.1"/>
	<path class="st3" d="M53,58.1c-0.6,0-1-0.5-1-1V47c0-0.6,0.4-1,1-1s1,0.5,1,1v10.1C54,57.7,53.6,58.1,53,58.1z"/>
	<line class="st5" x1="47" y1="65.1" x2="47" y2="72.1"/>
	<path class="st3" d="M47,73c-0.6,0-1-0.4-1-1v-7c0-0.6,0.4-1,1-1s1,0.4,1,1v7C48,72.6,47.6,73,47,73z"/>
	<line class="st5" x1="81" y1="65.1" x2="81" y2="72.1"/>
	<path class="st3" d="M81,73c-0.6,0-1-0.4-1-1v-7c0-0.6,0.4-1,1-1s1,0.4,1,1v7C82,72.6,81.6,73,81,73z"/>
	<line class="st5" x1="75" y1="47.1" x2="75" y2="57.1"/>
	<path class="st3" d="M75,58.1c-0.6,0-1-0.5-1-1V47c0-0.6,0.4-1,1-1s1,0.5,1,1v10.1C76,57.7,75.6,58.1,75,58.1z"/>
	<line class="st5" x1="60" y1="49.1" x2="60" y2="50.1"/>
	<path class="st3" d="M60,51c-0.6,0-1-0.4-1-1v-1c0-0.6,0.4-1,1-1s1,0.4,1,1v1C61,50.6,60.6,51,60,51z"/>
	<line class="st5" x1="58" y1="55.1" x2="58" y2="56.1"/>
	<path class="st3" d="M58,57.1c-0.6,0-1-0.5-1-1v-1c0-0.6,0.4-1,1-1s1,0.5,1,1v1C59,56.7,58.6,57.1,58,57.1z"/>
	<line class="st5" x1="62" y1="55.1" x2="62" y2="56.1"/>
	<path class="st3" d="M62,57.1c-0.6,0-1-0.5-1-1v-1c0-0.6,0.4-1,1-1s1,0.5,1,1v1C63,56.7,62.6,57.1,62,57.1z"/>
	<line class="st5" x1="66" y1="55.1" x2="66" y2="56.1"/>
	<path class="st3" d="M66,57.1c-0.6,0-1-0.5-1-1v-1c0-0.6,0.4-1,1-1s1,0.5,1,1v1C67,56.7,66.6,57.1,66,57.1z"/>
	<line class="st5" x1="70" y1="55.1" x2="70" y2="56.1"/>
	<path class="st3" d="M70,57.1c-0.6,0-1-0.5-1-1v-1c0-0.6,0.4-1,1-1s1,0.5,1,1v1C71,56.7,70.6,57.1,70,57.1z"/>
	<line class="st5" x1="64" y1="49.1" x2="64" y2="50.1"/>
	<path class="st3" d="M64,51c-0.6,0-1-0.4-1-1v-1c0-0.6,0.4-1,1-1s1,0.4,1,1v1C65,50.6,64.6,51,64,51z"/>
	<line class="st5" x1="68" y1="49.1" x2="68" y2="50.1"/>
	<path class="st3" d="M68,51c-0.6,0-1-0.4-1-1v-1c0-0.6,0.4-1,1-1s1,0.4,1,1v1C69,50.6,68.6,51,68,51z"/>
	<line class="st5" x1="48" y1="117" x2="80" y2="117"/>
	<path class="st3" d="M80,118H48c-0.6,0-1-0.4-1-1s0.4-1,1-1h32c0.6,0,1,0.4,1,1S80.6,118,80,118z"/>
	<path class="st3" d="M64,85.1c-0.2,0-0.4-0.1-0.6-0.2c-0.3-0.2-0.4-0.5-0.4-0.8V79c0-0.6,0.4-1,1-1s1,0.4,1,1v3.7l3.6-1.5
		c0.5-0.2,1.1,0,1.3,0.6c0.2,0.5,0,1.1-0.6,1.3l-5,2C64.3,85.1,64.1,85.1,64,85.1z"/>
	<path class="st4" d="M76,94H52c-2.2,0-4-1.8-4-4v4c0,2.2,1.8,4,4,4h24c2.2,0,4-1.8,4-4v-4C80,92.2,78.2,94,76,94z"/>
	<path class="st3" d="M76,99H52c-2.8,0-5-2.2-5-5V74c0-2.8,2.2-5,5-5h24c2.8,0,5,2.2,5,5v20C81,96.8,78.8,99,76,99z M52,71
		c-1.7,0-3,1.3-3,3v20c0,1.7,1.3,3,3,3h24c1.7,0,3-1.3,3-3V74c0-1.7-1.3-3-3-3H52z"/>
	<path class="st3" d="M64,95.1c-6.1,0-11-5-11-11.1C53,78,57.9,73,64,73s11,5,11,11.1C75,90.2,70.1,95.1,64,95.1z M64,75
		c-5,0-9,4.1-9,9.1c0,5,4,9.1,9,9.1c5,0,9-4.1,9-9.1C73,79.1,69,75,64,75z"/>
	<path class="st3" d="M74,102.1c-0.6,0-0.9,0.4-0.9,1V127c0.6-0.1,1.3-0.2,1.9-0.3v-23.5C75,102.6,74.6,102.1,74,102.1z"/>
	<path class="st3" d="M69,102.1c-0.6,0-0.9,0.4-0.9,1v24.4c0.6,0,1.3-0.1,1.9-0.1v-24.2C70,102.6,69.6,102.1,69,102.1z"/>
	<path class="st3" d="M64,102.1c-0.6,0-0.9,0.4-0.9,1v24.5c0.3,0,0.5,0,0.8,0c0.4,0,0.7,0,1.1,0v-24.5C65,102.6,64.6,102.1,64,102.1
		z"/>
	<path class="st3" d="M59,102.1c-0.6,0-0.9,0.4-0.9,1v24.2c0.6,0.1,1.2,0.1,1.9,0.1v-24.4C60,102.6,59.6,102.1,59,102.1z"/>
	<path class="st3" d="M54,102.1c-0.6,0-0.9,0.4-0.9,1v23.6c0.6,0.1,1.2,0.2,1.9,0.3v-23.9C55,102.6,54.6,102.1,54,102.1z"/>
	<path class="st1" d="M77,92.1c-0.6,0-1-0.4-1-1v-16c0-0.6,0.4-1,1-1s1,0.4,1,1v16C78,91.7,77.6,92.1,77,92.1z"/>
	<path class="st1" d="M51,90.1c-0.6,0-1-0.4-1-1v-10c0-0.6,0.4-1,1-1s1,0.4,1,1v10C52,89.7,51.6,90.1,51,90.1z"/>
	<path class="st1" d="M72.1,60h-14c-0.6,0-1-0.4-1-1s0.4-1,1-1h14c0.6,0,1,0.4,1,1S72.7,60,72.1,60z"/>
	<path class="st1" d="M71,116.1c-0.6,0-1-0.5-1-1V106c0-0.6,0.4-1,1-1s1,0.5,1,1v9.1C72,115.7,71.6,116.1,71,116.1z"/>
	<path class="st1" d="M71,125.1c-0.6,0-1-0.4-1-1v-4c0-0.6,0.4-1,1-1s1,0.4,1,1v4C72,124.7,71.6,125.1,71,125.1z"/>
	<path class="st1" d="M66,125.1c-0.6,0-1-0.4-1-1v-4c0-0.6,0.4-1,1-1s1,0.4,1,1v4C67,124.7,66.6,125.1,66,125.1z"/>
	<path class="st1" d="M61,125.1c-0.6,0-1-0.4-1-1v-4c0-0.6,0.4-1,1-1s1,0.4,1,1v4C62,124.7,61.6,125.1,61,125.1z"/>
	<path class="st1" d="M56,125.1c-0.6,0-1-0.4-1-1v-4c0-0.6,0.4-1,1-1s1,0.4,1,1v4C57,124.7,56.6,125.1,56,125.1z"/>
	<path class="st1" d="M66,116.1c-0.6,0-1-0.5-1-1V106c0-0.6,0.4-1,1-1s1,0.5,1,1v9.1C67,115.7,66.6,116.1,66,116.1z"/>
	<path class="st1" d="M61,116.1c-0.6,0-1-0.5-1-1V106c0-0.6,0.4-1,1-1s1,0.5,1,1v9.1C62,115.7,61.6,116.1,61,116.1z"/>
	<path class="st1" d="M56,116.1c-0.6,0-1-0.5-1-1V106c0-0.6,0.4-1,1-1s1,0.5,1,1v9.1C57,115.7,56.6,116.1,56,116.1z"/>
	<path class="st1" d="M52,125.1c-0.6,0-1-0.4-1-1v-4c0-0.6,0.4-1,1-1s1,0.4,1,1v4C53,124.7,52.6,125.1,52,125.1z"/>
	<path class="st1" d="M52,116.1c-0.6,0-1-0.5-1-1V106c0-0.6,0.4-1,1-1s1,0.5,1,1v9.1C53,115.7,52.6,116.1,52,116.1z"/>
	<path class="st1" d="M66.1,33.8c-0.4,0-0.8-0.2-0.9-0.6c-2-5.4-2.1-11.9-2.1-12.2c0-0.6,0.4-1,1-1c0,0,0,0,0,0c0.6,0,1,0.4,1,1
		c0,0.1,0,6.4,2,11.5c0.2,0.5-0.1,1.1-0.6,1.3C66.4,33.8,66.2,33.8,66.1,33.8z"/>
	<path class="st5" d="M120,59c0-1.1-1.4-2-2.6-2h-1.9c-1.2,0-2.5-1-2.5-2c0-1-0.8-2-2-2H98c-1.2,0-2,1-2,2c0,1-1.2,2-2.5,2h-2.3
		C90,57,89,57.9,89,59c0,1.1,1,2,2.3,2h6.4c1.2,0,2.4,0.1,2.4,1s0.2,2-1,2h-3c-1.2,0-2,0.9-2,2c0,1.1,0.8,2,2,2h6.7
		c1.2,0,2.3-1.1,2.3-2.1c0-1,0.8-1.9,2-1.9h1c1.2,0,2.2-0.7,2.2-1.7c0-1,1-1.3,2.3-1.3h4.9C118.6,61,120,60.1,120,59z"/>
	<path class="st5" d="M43,37c0-1.1-1.3-2-3-2H26.1c-1.7,0-3.1,0.9-3.1,2s-0.6,2-2,2c-1.4,0-3,0.9-3,2s1.3,2,3,2h10c1.7,0,3-0.9,3-2
		s1.3-2,3-2h3C41.7,39,43,38.1,43,37z"/>
</g>
</svg>
