<?xml version="1.0" encoding="utf-8"?>
<!-- Generator: Adobe Illustrator 21.0.2, SVG Export Plug-In . SVG Version: 6.00 Build 0)  -->
<svg version="1.1" id="eraser" xmlns="http://www.w3.org/2000/svg" xmlns:xlink="http://www.w3.org/1999/xlink" x="0px" y="0px"
	 viewBox="0 0 128 128" style="enable-background:new 0 0 128 128;" xml:space="preserve">
<style type="text/css">
	.st0{fill:#FBD000;}
	.st1{fill:#F4B10B;}
	.st2{fill:#FFFFFF;}
	.st3{fill:#F74541;}
	.st4{fill:#3AD0F9;}
	.st5{fill:#E8372E;}
	.st6{fill:#D4D6D6;}
	.st7{fill:#A03513;}
	.st8{opacity:0.5;fill:#FFFFFF;}
</style>
<g>
	<circle class="st0" cx="64" cy="64" r="64"/>
	<path class="st1" d="M116.6,28.5l-8.7-8.7c-1.6-1.6-4.1-1.6-5.7,0L62.2,59.6c-1.6,1.6-1.6,4.1,0,5.6l16.7,16.6
		c1.6,1.6,4.1,1.6,5.7,0l39.3-39C122,37.7,119.6,32.9,116.6,28.5z"/>
	<path class="st2" d="M96.8,52.9l-29,29c-1.6,1.6-3.7,2.2-4.8,1.1c-1.1-1.1-0.8-3.5,0.8-5.1l19.7-19.7c1.6-1.6,2.7-2.9,2.7-3
		c-0.1-0.1,1.1-1.4,2.7-3l6.5-6.5c1.6-1.6,1.8-3.9,0.5-5.1c-1.3-1.3-3.6-1-5.1,0.5l-29,29c-1.6,1.6-3.7,2.1-4.8,0.9
		c-1.1-1.1-0.8-3.4,0.8-5l19.7-19.7c1.6-1.6,1.8-3.9,0.5-5.1c-1.3-1.3-3.6-1-5.1,0.5l-60.7,60.7c6.4,8.4,14.7,15.2,24.4,19.7
		l64.6-64.6c1.6-1.6,1.8-3.9,0.5-5.1C100.6,51.1,98.3,51.4,96.8,52.9z"/>
	<path class="st3" d="M124.6,28.9c1.6,1.6,1.6,4.1,0,5.7L84.6,74.5c-1.6,1.6-4.1,1.6-5.7,0L62.4,57.9c-1.6-1.6-1.6-4.1,0-5.7
		l39.9-39.9c1.6-1.6,4.1-1.6,5.7,0L124.6,28.9z"/>
	<path class="st4" d="M114.5,44.7l10.1-10.1c1.6-1.6,1.6-4.1,0-5.7L108,12.3c-1.6-1.6-4.1-1.6-5.7,0L92.2,22.4L114.5,44.7z"/>
	<path class="st5" d="M86.8,66.7L70.2,50.1c-1.6-1.6-1.6-4.1,0-5.7l-7.8,7.8c-1.6,1.6-1.6,4.1,0,5.7L79,74.5c1.6,1.6,4.1,1.6,5.7,0
		l7.8-7.8C90.9,68.2,88.4,68.2,86.8,66.7z"/>
	<path class="st6" d="M83.2,70.3L66.6,53.7c-1.6-1.6-1.6-4.1,0-5.7l-1.4,1.4c-1.6,1.6-1.6,4.1,0,5.7l16.6,16.6
		c1.6,1.6,4.1,1.6,5.7,0l1.4-1.4C87.3,71.8,84.8,71.8,83.2,70.3z"/>
	<path class="st7" d="M81.8,77c-1.3,0-2.6-0.5-3.6-1.5L61.5,58.8c-2-2-2-5.2,0-7.1l40.2-40.2c0.9-0.9,2.2-1.5,3.6-1.5
		c1.3,0,2.6,0.5,3.6,1.5l16.7,16.7c2,2,2,5.2,0,7.1L85.3,75.5C84.4,76.5,83.1,77,81.8,77z M105.2,12c-0.8,0-1.6,0.3-2.1,0.9
		L62.9,53.1c-0.6,0.6-0.9,1.3-0.9,2.1s0.3,1.6,0.9,2.1l16.7,16.7c1.1,1.1,3.1,1.1,4.3,0l40.2-40.2c0.6-0.6,0.9-1.3,0.9-2.1
		s-0.3-1.6-0.9-2.1l-16.7-16.7C106.8,12.3,106,12,105.2,12z"/>
	<path class="st7" d="M114.2,45.4c-0.3,0-0.5-0.1-0.7-0.3l-22-22c-0.4-0.4-0.4-1,0-1.4c0.4-0.4,1-0.4,1.4,0l22,22
		c0.4,0.4,0.4,1,0,1.4C114.7,45.3,114.4,45.4,114.2,45.4z"/>
	<path class="st7" d="M89.6,68.9c-1.3,0-2.6-0.5-3.5-1.5L69.5,50.8c-1.9-1.9-1.9-5.1,0-7.1c0.4-0.4,1-0.4,1.4,0c0.4,0.4,0.4,1,0,1.4
		c-1.2,1.2-1.2,3.1,0,4.2L87.5,66c1.2,1.2,3.1,1.2,4.2,0c0.4-0.4,1-0.4,1.4,0c0.4,0.4,0.4,1,0,1.4C92.2,68.4,90.9,68.9,89.6,68.9z"
		/>
	<path class="st8" d="M74.7,48c-0.3,0-0.5-0.1-0.7-0.3c-0.4-0.4-0.4-1,0-1.4l29.4-30c0.4-0.4,1-0.4,1.4,0c0.4,0.4,0.4,1,0,1.4
		l-29.4,30C75.2,47.9,74.9,48,74.7,48z"/>
	<path class="st2" d="M108.3,88.5c0-0.4-0.4-0.8-1-0.9l-1.9-0.3c-0.5-0.1-1.1-0.6-1.1-1.1l-0.3-1.9c-0.1-0.5-0.5-1-0.9-1
		c-0.4,0-0.8,0.4-0.9,1l-0.3,1.9c-0.1,0.5-0.6,1.1-1.1,1.1L99,87.7c-0.5,0.1-1,0.5-1,0.9c0,0.4,0.4,0.8,1,0.9l1.9,0.3
		c0.5,0.1,1.1,0.6,1.1,1.1l0.3,1.9c0.1,0.5,0.5,1,0.9,1c0.4,0,0.8-0.4,0.9-1l0.3-2.1c0.1-0.5,0.6-1,1.1-1.1l1.8-0.1
		C107.9,89.3,108.3,88.9,108.3,88.5z"/>
	<path class="st2" d="M32.9,64.2c0-0.4-0.4-0.8-1-0.9l-1.9-0.3c-0.5-0.1-1.1-0.6-1.1-1.1l-0.3-1.9c-0.1-0.5-0.5-1-0.9-1
		s-0.8,0.4-0.9,1l-0.3,1.9c-0.1,0.5-0.6,1.1-1.1,1.1l-1.9,0.3c-0.5,0.1-1,0.5-1,0.9c0,0.4,0.4,0.8,1,0.9l1.9,0.3
		c0.5,0.1,1.1,0.6,1.1,1.1l0.3,1.9c0.1,0.5,0.5,1,0.9,1s0.8-0.4,0.9-1l0.3-2.1c0.1-0.5,0.6-1,1.1-1.1l1.8-0.1
		C32.5,65,32.9,64.6,32.9,64.2z"/>
	<path class="st2" d="M75.2,24.8c0-0.4-0.4-0.8-1-0.9l-1.9-0.3c-0.5-0.1-1.1-0.6-1.1-1.1l-0.3-1.9c-0.1-0.5-0.5-1-0.9-1
		c-0.4,0-0.8,0.4-0.9,1l-0.3,1.9c-0.1,0.5-0.6,1.1-1.1,1.1l-1.9,0.3c-0.5,0.1-1,0.5-1,0.9c0,0.4,0.4,0.8,1,0.9l1.9,0.3
		c0.5,0.1,1.1,0.6,1.1,1.1l0.3,1.9c0.1,0.5,0.5,1,0.9,1c0.4,0,0.8-0.4,0.9-1l0.3-2.1c0.1-0.5,0.6-1,1.1-1.1l1.8-0.1
		C74.7,25.5,75.2,25.2,75.2,24.8z"/>
	<path class="st2" d="M79.4,100c-2.2-0.2-4.2,1.4-4.4,3.6c-0.2,2.2,1.4,4.2,3.6,4.4c2.2,0.2,4.2-1.4,4.4-3.6
		C83.2,102.2,81.6,100.2,79.4,100z M78.8,106.1c-1.2-0.1-2-1.2-1.9-2.3c0.1-1.2,1.2-2,2.3-1.9c1.2,0.1,2,1.2,1.9,2.3
		C81,105.4,80,106.2,78.8,106.1z"/>
	<path class="st2" d="M39.4,29c-2.2-0.2-4.2,1.4-4.4,3.6c-0.2,2.2,1.4,4.2,3.6,4.4c2.2,0.2,4.2-1.4,4.4-3.6
		C43.2,31.2,41.6,29.2,39.4,29z M38.8,35.1c-1.2-0.1-2-1.2-1.9-2.3c0.1-1.2,1.2-2,2.3-1.9c1.2,0.1,2,1.2,1.9,2.3
		C41,34.4,40,35.2,38.8,35.1z"/>
</g>
</svg>
