<?xml version="1.0" encoding="utf-8"?>
<!-- Generator: Adobe Illustrator 21.0.2, SVG Export Plug-In . SVG Version: 6.00 Build 0)  -->
<svg version="1.1" id="flag" xmlns="http://www.w3.org/2000/svg" xmlns:xlink="http://www.w3.org/1999/xlink" x="0px" y="0px"
	 viewBox="0 0 128 128" style="enable-background:new 0 0 128 128;" xml:space="preserve">
<style type="text/css">
	.st0{fill:#A7FCD0;}
	.st1{fill:#C68D55;}
	.st2{fill:#AF723A;}
	.st3{fill:#A81000;}
	.st4{fill:#EA291C;}
	.st5{fill:#FFFFFF;}
	.st6{fill:#A03513;}
	.st7{opacity:0.5;fill:#FFFFFF;}
</style>
<g>
	<circle class="st0" cx="64" cy="64" r="64"/>
	<path class="st1" d="M31,118.7c3,1.7,6,3.2,9,4.5V24h-9V118.7z"/>
	<rect x="31" y="86" class="st2" width="9" height="4"/>
	<path class="st3" d="M40,23h-9c-0.6,0-1,0.7-1,1.2v93.8c1,0.4,1,0.8,2,1.2V25h7v97.8c1,0.3,1,0.5,2,0.8V24.2C41,23.7,40.6,23,40,23
		z"/>
	<path class="st4" d="M93.7,54c-4.8,0-8.9-3.4-9.9-8c-2.9,1.8-3.8,4.9-3.8,8.5V105h0c0,3,1.9,6,6.6,6H91h10h11V54H93.7z"/>
	<path class="st3" d="M80,85h14.4c4.8,0,6.6,3,6.6,6.5S99.2,98,94.4,98H87c0,0-3.2-0.4-4.7,1.4c-1.5,1.8-2.4,2.9-2.4,2.9
		S79.7,85,80,85z"/>
	<rect x="100" y="76" class="st5" width="12" height="12"/>
	<path class="st6" d="M112,112H86.6c-5.4,0-7.5-3.6-7.6-6.7c0-0.1,0-0.2,0-0.3V54.5c0-4.5,1.4-7.6,4.2-9.3c0.3-0.2,0.6-0.2,0.9-0.1
		c0.3,0.1,0.5,0.4,0.6,0.7c0.9,4.2,4.7,7.2,8.9,7.2H112c0.6,0,1,0.4,1,1v57C113,111.6,112.6,112,112,112z M81,104.8
		c0,0.1,0,0.2,0,0.2c0,1.2,0.4,5,5.6,5H111V55H93.7c-4.7,0-8.9-3-10.4-7.3c-1.5,1.5-2.2,3.7-2.2,6.8V104.8z"/>
	<path class="st5" d="M16,59c-2.2,0-4-1.8-4-4c0-2.2,1.8-4,4-4c2.2,0,4,1.8,4,4C20,57.2,18.2,59,16,59z M16,52.9
		c-1.2,0-2.1,1-2.1,2.1c0,1.2,1,2.1,2.1,2.1c1.2,0,2.1-1,2.1-2.1C18.1,53.8,17.2,52.9,16,52.9z"/>
	<path class="st5" d="M110,44c-2.2,0-4-1.8-4-4c0-2.2,1.8-4,4-4c2.2,0,4,1.8,4,4C114,42.2,112.2,44,110,44z M110,37.9
		c-1.2,0-2.1,1-2.1,2.1c0,1.2,1,2.1,2.1,2.1c1.2,0,2.1-1,2.1-2.1C112.1,38.8,111.2,37.9,110,37.9z"/>
	<path class="st5" d="M70,117c-2.2,0-4-1.8-4-4c0-2.2,1.8-4,4-4c2.2,0,4,1.8,4,4C74,115.2,72.2,117,70,117z M70,110.9
		c-1.2,0-2.1,1-2.1,2.1c0,1.2,1,2.1,2.1,2.1c1.2,0,2.1-1,2.1-2.1C72.1,111.8,71.2,110.9,70,110.9z"/>
	<path class="st4" d="M101,39c0-5.5-3.7-10-9.3-10H31v56c0,0,53,0,61.7,0c9.7,0,8.3,7.1,8.3,7.1V39z"/>
	<path class="st5" d="M101,73V61c0-5.5-3.7-10-9.3-10H40v12h51.7C97.3,63,101,67.5,101,73z"/>
	<path class="st5" d="M72.2,17c0-0.4,0.4-0.8,1-0.9l1.9-0.3c0.5-0.1,1.1-0.6,1.1-1.1l0.3-1.9c0.1-0.5,0.5-1,0.9-1
		c0.4,0,0.8,0.4,0.9,1l0.3,1.9c0.1,0.5,0.6,1.1,1.1,1.1l1.9,0.3c0.5,0.1,1,0.5,1,0.9s-0.4,0.8-1,0.9l-1.9,0.3
		c-0.5,0.1-1.1,0.6-1.1,1.1l-0.3,1.9c-0.1,0.5-0.5,1-0.9,1c-0.4,0-0.8-0.4-0.9-1L76.2,19c-0.1-0.5-0.6-1-1.1-1.1l-1.8-0.1
		C72.6,17.7,72.2,17.4,72.2,17z"/>
	<path class="st5" d="M50.3,100.4c0-0.4,0.4-0.8,1-0.9l1.9-0.3c0.5-0.1,1.1-0.6,1.1-1.1l0.3-1.9c0.1-0.5,0.5-1,0.9-1
		c0.4,0,0.8,0.4,0.9,1l0.3,1.9c0.1,0.5,0.6,1.1,1.1,1.1l1.9,0.3c0.5,0.1,1,0.5,1,0.9c0,0.4-0.4,0.8-1,0.9l-1.9,0.3
		c-0.5,0.1-1.1,0.6-1.1,1.1l-0.3,1.9c-0.1,0.5-0.5,1-0.9,1c-0.4,0-0.8-0.4-0.9-1l-0.3-2.1c-0.1-0.5-0.6-1-1.1-1.1l-1.8-0.1
		C50.7,101.1,50.3,100.7,50.3,100.4z"/>
	<path class="st5" d="M13,82.2c0-0.4,0.4-0.8,1-0.9l1.9-0.3c0.5-0.1,1.1-0.6,1.1-1.1l0.3-1.9c0.1-0.5,0.5-1,0.9-1
		c0.4,0,0.8,0.4,0.9,1l0.3,1.9c0.1,0.5,0.6,1.1,1.1,1.1l1.9,0.3c0.5,0.1,1,0.5,1,0.9s-0.4,0.8-1,0.9l-1.9,0.3
		c-0.5,0.1-1.1,0.6-1.1,1.1L19,86.4c-0.1,0.5-0.5,1-0.9,1c-0.4,0-0.8-0.4-0.9-1L17,84.2c-0.1-0.5-0.6-1-1.1-1.1L14,83
		C13.5,83,13,82.6,13,82.2z"/>
	<path class="st3" d="M101,93.1C101,93.1,100.9,93.1,101,93.1c-0.6-0.1-1-0.5-1-1v-1.7c-0.4-2.8-3-4.3-7.3-4.3H31c-0.6,0-1-0.4-1-1
		V29c0-0.6,0.4-1,1-1h60.7c5.9,0,10.3,4.6,10.3,11v51.2c0.2,1.1,0,2,0,2.1C101.9,92.7,101.5,93.1,101,93.1z M32,84h60.7
		c3.7,0,5.9,1,7.3,2.2V39c0-5.2-3.5-9-8.3-9H32V84z"/>
	<polygon class="st3" points="83.5,98 91,98 91,111 84.4,111 80,107.5 80,102.7 	"/>
	<path class="st6" d="M94.4,99H87c-0.6,0-1-0.4-1-1s0.4-1,1-1h7.4c4.9,0,5.6-3.4,5.6-5.5S99.3,86,94.4,86H80c-0.6,0-1-0.4-1-1
		s0.4-1,1-1h14.4c4.7,0,6.6,2.9,6.6,7.5S99.1,99,94.4,99z"/>
	<path class="st6" d="M101,112H86.6c-4.8,0-7.6-2.8-7.6-7.4c0-4.7,2.9-7.6,7.6-7.6c0.6,0,1,0.4,1,1c0,0.6-0.4,1-1,1
		c-4.9,0-5.6,3.5-5.6,5.6c0,2.5,1,5.4,5.6,5.4H101c0.6,0,1,0.4,1,1S101.6,112,101,112z"/>
	<circle class="st1" cx="35.4" cy="18.6" r="8"/>
	<path class="st2" d="M35.4,21.6c-3.5,0-6.5-2.3-7.6-5.5c-0.3,0.8-0.4,1.6-0.4,2.5c0,4.4,3.6,8,8,8c4.4,0,8-3.6,8-8
		c0-0.9-0.1-1.7-0.4-2.5C41.9,19.3,38.9,21.6,35.4,21.6z"/>
	<path class="st6" d="M37.7,27c-0.4,0-0.8-0.3-0.9-0.7c-0.2-0.5,0.1-1,0.6-1.2c2.8-0.9,4.7-3.5,4.7-6.4c0-3.7-3-6.7-6.6-6.7
		c-3.6,0-6.6,3-6.6,6.7c0,3,1.9,5.5,4.6,6.4c0.5,0.2,0.8,0.7,0.6,1.2c-0.2,0.5-0.7,0.8-1.2,0.6c-3.6-1.1-5.9-4.5-5.9-8.3
		c0-4.8,3.8-8.7,8.5-8.7c4.7,0,8.5,3.9,8.5,8.7c0,3.8-2.4,7.2-6,8.3C37.9,27,37.8,27,37.7,27z"/>
	<path class="st3" d="M40,86c-0.6,0-1-0.4-1-1V29c0-0.6,0.4-1,1-1c0.6,0,1,0.4,1,1v56C41,85.6,40.6,86,40,86z"/>
	<path class="st7" d="M36,81c-0.6,0-1-0.4-1-1V33c0-0.6,0.4-1,1-1c0.6,0,1,0.4,1,1v47C37,80.6,36.6,81,36,81z"/>
	<path class="st7" d="M97,82c-0.6,0-1-0.4-1-1V70c0-0.6,0.4-1,1-1c0.6,0,1,0.4,1,1v11C98,81.6,97.6,82,97,82z"/>
	<path class="st7" d="M97,49c-0.6,0-1-0.4-1-1v-8.3c0-4.8-1.8-5.7-5-5.7H60c-0.6,0-1-0.4-1-1s0.4-1,1-1h31c4.8,0,7,2.5,7,7.7V48
		C98,48.6,97.6,49,97,49z"/>
	<path class="st7" d="M53,34h-9c-0.6,0-1-0.4-1-1s0.4-1,1-1h9c0.6,0,1,0.4,1,1S53.6,34,53,34z"/>
	<path class="st7" d="M108,72c-0.6,0-1-0.4-1-1V58c0-0.6,0.4-1,1-1c0.6,0,1,0.4,1,1v13C109,71.6,108.6,72,108,72z"/>
	<path class="st7" d="M108,107c-0.6,0-1-0.4-1-1V93c0-0.6,0.4-1,1-1c0.6,0,1,0.4,1,1v13C109,106.6,108.6,107,108,107z"/>
	<path class="st5" d="M39.1,18c-0.4,0-0.8-0.3-0.9-0.8c-0.4-2.2-3.3-2.4-3.3-2.4c-0.5,0-0.9-0.5-0.9-1c0-0.5,0.5-0.9,1-0.9
		c0.2,0,4.3,0.3,5,3.9c0.1,0.5-0.2,1-0.7,1.1C39.2,18,39.1,18,39.1,18z"/>
</g>
</svg>
