<?xml version="1.0" encoding="utf-8"?>
<!-- Generator: Adobe Illustrator 21.0.2, SVG Export Plug-In . SVG Version: 6.00 Build 0)  -->
<svg version="1.1" id="gift" xmlns="http://www.w3.org/2000/svg" xmlns:xlink="http://www.w3.org/1999/xlink" x="0px" y="0px"
	 viewBox="0 0 128 128" style="enable-background:new 0 0 128 128;" xml:space="preserve">
<style type="text/css">
	.st0{fill:#FBD000;}
	.st1{fill:#00B3F9;}
	.st2{fill:#0798E8;}
	.st3{fill:#FFFFFF;}
	.st4{opacity:0.3;fill:#00B3F9;}
	.st5{fill:#0C508E;}
	.st6{opacity:0.5;fill:#FFFFFF;}
	.st7{opacity:0.5;fill:#0C508E;}
</style>
<g>
	<circle class="st0" cx="64" cy="64" r="64"/>
	<path class="st1" d="M98.3,100c0,2.8-2.2,5-5,5H36.9c-2.8,0-5-2.2-5-5V59.8c0-2.8,2.2-5,5-5h56.4c2.8,0,5,2.2,5,5V100z"/>
	<path class="st2" d="M93.3,99H36.9c-2.8,0-5-2.9-5-5.7v6.7c0,2.8,2.2,5,5,5h56.4c2.8,0,5-2.2,5-5v-6.7C98.3,96.1,96,99,93.3,99z"/>
	<path class="st2" d="M31.9,59.8V72h66.4V59.8c0-2.8-2.2-5-5-5H36.9C34.2,54.8,31.9,57,31.9,59.8z"/>
	<rect x="58" y="54.8" class="st3" width="14.9" height="50.3"/>
	<rect x="58" y="54.8" class="st4" width="15" height="17.2"/>
	<polyline class="st3" points="42.9,43.7 49.6,29.7 64.3,39.5 66.5,39.5 81.2,29.7 88,43.7 	"/>
	<polygon class="st4" points="66.5,39.9 64.3,39.9 62.9,39 45.3,39 42.9,44.1 88,44.1 85.5,39 67.9,39 	"/>
	<rect x="40" y="42" class="st3" width="50" height="11.9"/>
	<circle class="st3" cx="64.9" cy="49.1" r="10.8"/>
	<path class="st1" d="M101.3,60.5c0,2.8-2.2,5-5,5H33.9c-2.8,0-5-2.2-5-5v-7.3c0-2.8,2.2-5,5-5h62.4c2.8,0,5,2.2,5,5V60.5z"/>
	<rect x="55" y="48.2" class="st3" width="20" height="16.7"/>
	<path class="st5" d="M100,104H23c-0.6,0-1,0.4-1,1c0,0.6,0.5,1,1,1h77c0.6,0,1-0.4,1-1C101,104.5,100.5,104,100,104z"/>
	<path class="st5" d="M108,106h-4c-0.6,0-1-0.4-1-1c0-0.6,0.4-1,1-1h4c0.6,0,1,0.5,1,1C109,105.6,108.6,106,108,106z"/>
	<path class="st3" d="M34,32c-2.2,0-4-1.8-4-4c0-2.2,1.8-4,4-4c2.2,0,4,1.8,4,4C38,30.2,36.2,32,34,32z M34,25.9
		c-1.2,0-2.1,1-2.1,2.1c0,1.2,1,2.1,2.1,2.1c1.2,0,2.1-1,2.1-2.1C36.1,26.8,35.2,25.9,34,25.9z"/>
	<path class="st3" d="M21,83c-2.2,0-4-1.8-4-4c0-2.2,1.8-4,4-4c2.2,0,4,1.8,4,4C25,81.2,23.2,83,21,83z M21,76.9
		c-1.2,0-2.1,1-2.1,2.1c0,1.2,1,2.1,2.1,2.1c1.2,0,2.1-1,2.1-2.1C23.1,77.8,22.2,76.9,21,76.9z"/>
	<path class="st3" d="M109,91c-2.2,0-4-1.8-4-4c0-2.2,1.8-4,4-4c2.2,0,4,1.8,4,4C113,89.2,111.2,91,109,91z M109,84.9
		c-1.2,0-2.1,1-2.1,2.1c0,1.2,1,2.1,2.1,2.1c1.2,0,2.1-1,2.1-2.1C111.1,85.8,110.2,84.9,109,84.9z"/>
	<path class="st3" d="M105.3,32.2c0-0.4-0.4-0.8-1-0.9l-1.9-0.3c-0.5-0.1-1.1-0.6-1.1-1.1l-0.3-1.9c-0.1-0.5-0.5-1-0.9-1
		c-0.4,0-0.8,0.4-0.9,1L99,30c-0.1,0.5-0.6,1.1-1.1,1.1L96,31.4c-0.5,0.1-1,0.5-1,0.9c0,0.4,0.4,0.8,1,0.9l1.9,0.3
		c0.5,0.1,1.1,0.6,1.1,1.1l0.3,1.9c0.1,0.5,0.5,1,0.9,1c0.4,0,0.8-0.4,0.8-1l0.3-2.1c0.1-0.5,0.6-1,1.1-1.1l1.8-0.1
		C104.8,33,105.3,32.6,105.3,32.2z"/>
	<path class="st3" d="M67.3,16.3c0-0.4-0.4-0.8-1-0.9l-1.9-0.3c-0.5-0.1-1.1-0.6-1.1-1.1L63,12.2c-0.1-0.5-0.5-1-0.9-1
		c-0.4,0-0.8,0.4-0.9,1L61,14.1c-0.1,0.5-0.6,1.1-1.1,1.1L58,15.5c-0.5,0.1-1,0.5-1,0.9c0,0.4,0.4,0.8,1,0.9l1.9,0.3
		c0.5,0.1,1.1,0.6,1.1,1.1l0.3,1.9c0.1,0.5,0.5,1,0.9,1c0.4,0,0.8-0.4,0.8-1l0.3-2.1c0.1-0.5,0.6-1,1.1-1.1l1.8-0.1
		C66.8,17.1,67.3,16.7,67.3,16.3z"/>
	<path class="st3" d="M119.8,65.1c0-0.4-0.4-0.8-1-0.9l-1.9-0.3c-0.5-0.1-1.1-0.6-1.1-1.1l-0.3-1.9c-0.1-0.5-0.5-1-0.9-1
		c-0.4,0-0.8,0.4-0.9,1l-0.3,1.9c-0.1,0.5-0.6,1.1-1.1,1.1l-1.9,0.3c-0.5,0.1-1,0.5-1,0.9c0,0.4,0.4,0.8,1,0.9l1.9,0.3
		c0.5,0.1,1.1,0.6,1.1,1.1l0.3,1.9c0.1,0.5,0.5,1,0.9,1c0.4,0,0.8-0.4,0.8-1l0.3-2.1c0.1-0.5,0.6-1,1.1-1.1l1.8-0.1
		C119.4,65.8,119.8,65.4,119.8,65.1z"/>
	<path class="st6" d="M96,60.4c-0.6,0-1-0.4-1-1V56c0-1.1-0.9-2-2-2H79.5c-0.6,0-1-0.4-1-1s0.4-1,1-1H93c2.2,0,4,1.8,4,4v3.4
		C97,60,96.6,60.4,96,60.4z"/>
	<path class="st6" d="M52.2,54H34.7c-0.6,0-1-0.4-1-1s0.4-1,1-1h17.5c0.6,0,1,0.4,1,1S52.7,54,52.2,54z"/>
	<path class="st6" d="M94,93.8c-0.6,0-1-0.4-1-1V74.5c0-0.6,0.4-1,1-1s1,0.4,1,1v18.3C95,93.4,94.6,93.8,94,93.8z"/>
	<path class="st3" d="M65.1,41.7c1.4,0,4.6,1.2,5.6,3.5"/>
	<path class="st7" d="M71,46.2c-0.4,0-0.8-0.2-0.9-0.5c-0.9-1.8-3.9-2.8-4.9-2.8c-0.6,0-1-0.4-1-0.9s0.5-0.9,1-0.9
		c1.6,0,5.4,1.2,6.8,3.8c0.2,0.5,0,1-0.5,1.2C71.3,46.1,71.1,46.2,71,46.2z"/>
	<rect x="58" y="99" class="st4" width="15" height="6"/>
	<path class="st5" d="M96,47h-5v-5c0-0.6-0.4-1-1-1h-2.2L83,31c-0.1-0.3-1-2-2-2c-0.3,0-1.8,0.8-2,1l-11.4,7.6
		c-0.9-0.2-1.8-0.3-2.7-0.3c-0.6,0-1.3,0.1-1.9,0.2L52,30c0,0-1.7-1-2-1c-1,0-1.9,1.7-2,2l-4.9,10H40c-0.6,0-1,0.4-1,1v5h-5.1
		c-3.3,0-5.9,2.7-5.9,6v7c0,2.2,1.2,4.2,3,5.2V100c0,3.3,2.6,6,5.9,6H93c3.3,0,6-2.6,6-6V65.2c1.8-1,3-3,3-5.2v-7
		C102,49.7,99.3,47,96,47z M89,43v4H76.5c-0.3-1.4-0.8-2.8-1.5-4H89z M80.8,31.2l4.7,9.8H73.4c-1-1-2.2-1.9-3.5-2.5L80.8,31.2z
		 M64.9,39.3c4.7,0,8.6,3.3,9.6,7.7H55.3C56.3,42.6,60.2,39.3,64.9,39.3z M50,31.2l10.4,7c-1.6,0.6-3,1.6-4.1,2.8h-11L50,31.2z
		 M41,43h13.8c-0.7,1.2-1.3,2.6-1.5,4H41V43z M97,100c0,2.2-1.8,4-4,4H36.9c-2.2,0-4-1.8-4-4V65.9c0.3,0.1,0.7,0.1,1,0.1H96
		c0.3,0,0.7,0,1-0.1V100z M100,60c0,2.2-1.8,4-4,4H33.9c-2.2,0-4-1.8-4-4v-7c0-2.2,1.8-4,4-4H96c2.2,0,4,1.8,4,4V60z"/>
</g>
</svg>
