<?xml version="1.0" encoding="utf-8"?>
<!-- Generator: Adobe Illustrator 21.0.2, SVG Export Plug-In . SVG Version: 6.00 Build 0)  -->
<svg version="1.1" id="honey" xmlns="http://www.w3.org/2000/svg" xmlns:xlink="http://www.w3.org/1999/xlink" x="0px" y="0px"
	 viewBox="0 0 128 128" style="enable-background:new 0 0 128 128;" xml:space="preserve">
<style type="text/css">
	.st0{fill:#A7FCD0;}
	.st1{fill:#C68D55;}
	.st2{fill:#A55F26;}
	.st3{fill:#7C4119;}
	.st4{fill:#FBD000;}
	.st5{opacity:0.5;fill:#FFFFFF;}
	.st6{fill:#F4B10B;}
	.st7{fill:#FFFFFF;}
</style>
<g>
	<circle class="st0" cx="64" cy="64" r="64"/>
	<path class="st1" d="M32.4,55.3c-4.2-2.1-5.8-7.3-3.7-11.4l7.7-15.2c2.1-4.2,7.2-5.9,11.4-3.7c4.2,2.1,5.8,7.3,3.7,11.4l-7.7,15.2
		C41.7,55.7,36.6,57.4,32.4,55.3z"/>
	<path class="st1" d="M87.7,83.4c-4.2-2.1-5.8-7.3-3.7-11.4l7.7-15.2c2.1-4.2,7.2-5.9,11.4-3.7c4.2,2.1,5.8,7.3,3.7,11.4l-7.7,15.2
		C97,83.9,91.9,85.5,87.7,83.4z"/>
	<path class="st1" d="M43.1,68.5c-4.2-2.1-6.3-7.5-4.2-11.7l14-27.6c2.1-4.2,7.7-5.6,11.9-3.5c4.2,2.1,6.3,7.5,4.2,11.7L54.9,65
		C52.8,69.2,47.3,70.7,43.1,68.5z"/>
	<path class="st1" d="M70.7,82.6c-4.2-2.1-6.3-7.5-4.2-11.7l14-27.6c2.1-4.2,7.7-5.6,11.9-3.5c4.2,2.1,6.3,7.5,4.2,11.7l-14,27.6
		C80.4,83.3,74.9,84.7,70.7,82.6z"/>
	<path class="st2" d="M51.6,29.4l-7.7,15.2c-2.1,4.2-7.2,5.9-11.4,3.7c-1.8-0.9-3.1-2.4-3.9-4.1c-1.9,4.1-0.2,9,3.9,11.1
		c4.2,2.1,9.3,0.5,11.4-3.7l7.7-15.2c1.2-2.4,1.2-5.1,0.2-7.4C51.7,29.1,51.6,29.2,51.6,29.4z"/>
	<path class="st1" d="M55.8,77.6c-4.2-2.1-5.8-7.3-3.7-11.4l16.2-31.8c2.1-4.2,7.2-5.9,11.4-3.7c4.2,2.1,5.8,7.3,3.7,11.4L67.3,73.9
		C65.1,78.1,60,79.8,55.8,77.6z"/>
	<path class="st2" d="M69,30.4L54.9,58c-2.1,4.2-7.7,5.6-11.9,3.5c-1.9-1-3.4-2.6-4.2-4.5c-2,4.2,0.1,9.4,4.2,11.5
		c4.2,2.1,9.8,0.7,11.9-3.5l14-27.6c1.2-2.3,1.1-4.9,0.1-7.2C69,30.3,69,30.4,69,30.4z"/>
	<path class="st1" d="M126.5,77.7l-22.7-11.6c-3-1.5-6.6-0.3-8.1,2.6c-1.5,3-0.3,6.6,2.6,8.1l24.4,12.4
		C124.3,85.5,125.6,81.7,126.5,77.7z"/>
	<path class="st2" d="M106.8,58.5l-7.7,15.2c-2.1,4.2-7.2,5.9-11.4,3.7c-2-1-3.4-2.7-4.1-4.6c-1.5,4,0.2,8.6,4.1,10.6
		c4.2,2.1,9.3,0.5,11.4-3.7l7.7-15.2c1.1-2.2,1.2-4.7,0.4-6.9C107.1,57.9,107,58.2,106.8,58.5z"/>
	<path class="st2" d="M96.6,44.5l-14,27.6c-2.1,4.2-7.7,5.6-11.9,3.5c-1.9-1-3.4-2.6-4.2-4.5c-2,4.2,0.1,9.4,4.2,11.5
		c4.2,2.1,9.8,0.7,11.9-3.5l14-27.6c1.2-2.3,1.1-4.9,0.1-7.2C96.7,44.4,96.7,44.4,96.6,44.5z"/>
	<path class="st2" d="M83.4,35.1L67.3,66.9c-2.1,4.2-7.2,5.9-11.4,3.7c-1.8-0.9-3.1-2.4-3.9-4.1c-1.9,4.1-0.2,9,3.9,11.1
		c4.2,2.1,9.3,0.5,11.4-3.7l16.2-31.8c1.2-2.4,1.2-5.1,0.2-7.4C83.5,34.9,83.5,35,83.4,35.1z"/>
	<path class="st2" d="M125,83.2l-24.5-12.5c-1.7-0.9-3.7-0.9-5.4-0.3c-0.4,2.5,0.8,5.1,3.2,6.3l24.4,12.4
		C123.6,87.3,124.3,85.3,125,83.2z"/>
	<path class="st3" d="M123.1,88.3l-22.6-11.5c-0.1-0.1-0.3-0.1-0.5-0.1c-0.4,0-0.7,0.2-0.9,0.5l-1,1.9c-1.3,2.5-3.9,4.1-6.7,4.1
		c-1.2,0-2.3-0.3-3.4-0.8c-2-1-3.4-2.8-3.9-5c-0.1-0.4-0.4-0.7-0.9-0.8c-0.4-0.1-0.8,0.2-1,0.5l-0.7,1.3c-1.2,2.4-3.9,3.9-6.9,3.9
		c-1.3,0-2.6-0.3-3.7-0.9c-2.2-1.1-3.9-3.4-4.3-5.9c-0.1-0.4-0.3-0.7-0.7-0.8c-0.4-0.1-0.8,0-1,0.3c-2.2,2.3-5.9,3-8.8,1.5
		c-3-1.5-4.6-4.7-4-8c0.1-0.4-0.1-0.8-0.4-1c-0.3-0.2-0.7-0.3-1-0.1c-2.2,1.1-5.1,1.1-7.4,0c-1.8-0.9-3.2-2.6-4-4.5
		c-0.7-2-0.6-4.1,0.2-5.8l0.7-1.3c0.2-0.4,0.1-0.8-0.2-1.1c-0.3-0.3-0.7-0.4-1.1-0.2c-2,0.9-4.4,0.8-6.3-0.2
		c-1.8-0.9-3.1-2.5-3.7-4.4c-0.6-1.9-0.5-3.9,0.5-5.7l7.7-15.2c1.3-2.5,3.8-4.1,6.7-4.1c1.2,0,2.3,0.3,3.4,0.8c2,1,3.4,2.8,3.9,5
		c0.1,0.4,0.4,0.7,0.9,0.8c0.4,0.1,0.8-0.2,1-0.5l0.7-1.3C55.1,27.3,58,26,61,26c1.3,0,2.3,0.1,3.4,0.6c2.2,1.1,3.9,3.4,4.3,5.9
		c0.1,0.4,0.3,0.7,0.7,0.8c0.4,0.1,0.8,0,1-0.3c2.2-2.3,5.9-3,8.8-1.5c3,1.5,4.6,4.7,4,8c-0.1,0.4,0.1,0.8,0.4,1
		c0.3,0.2,0.7,0.3,1,0.1c2.2-1.1,5.1-1.1,7.4,0c3.8,1.9,5.5,6.8,3.7,10.3l-0.7,1.3c-0.2,0.4-0.1,0.8,0.2,1.1
		c0.3,0.3,0.7,0.4,1.1,0.2c2-0.9,4.3-0.8,6.3,0.2c3.7,1.9,5.2,6.4,3.3,10.1l-1.3,2.5c-0.2,0.5-0.1,1.1,0.4,1.3l21.2,10.8
		c0.2-0.7,0.3-1.3,0.5-2l-19.8-10.1l0.8-1.7c2.4-4.7,0.5-10.4-4.2-12.8c-1.8-0.9-3.8-1.2-5.7-0.9c1.8-4.5-0.3-10-4.9-12.3
		c-2.3-1.2-5.1-1.4-7.6-0.6c0-3.5-1.9-6.8-5.2-8.5c-3.2-1.6-7.1-1.3-9.9,0.8c-0.9-2.5-2.7-4.6-5-5.7C63.9,24.1,62.6,24,61,24
		c-3.5,0-6.9,1.4-8.6,4.1c-0.9-1.7-2.3-3.2-4.1-4.1c-1.4-0.7-2.8-1-4.3-1c-3.6,0-6.8,2-8.5,5.2l-7.7,15.2
		c-2.4,4.7-0.5,10.4,4.2,12.8c1.8,0.9,3.8,1.2,5.7,0.9c-0.8,2.1-0.9,4.4,0,6.7c0.9,2.4,2.7,4.5,4.9,5.6c2.3,1.2,5.1,1.4,7.6,0.6
		c0,3.5,1.9,6.8,5.2,8.5c3.2,1.6,7.1,1.3,9.9-0.8c0.9,2.5,2.7,4.6,5,5.7c1.4,0.7,3,1.1,4.6,1.1c3.5,0,6.6-1.7,8.3-4.4
		c0.9,1.7,2.3,3.2,4.1,4.1c1.3,0.7,2.8,1,4.3,1c3.6,0,6.8-2,8.5-5.2l0.5-1.1l21.8,11.1C122.6,89.5,122.9,88.9,123.1,88.3z"/>
	<path class="st4" d="M93.7,67c-4.1,0-7.3,1.9-7.3,4.3c0,2.3-3.5,4.3-7.9,4.3c-4.3,0-7.9-2.4-7.9-5.3c0-2.9-3.3-5.3-7.4-5.3
		c-4.1,0-7.4-2.8-7.4-6.3c0-3.5-3.6-6.3-7.9-6.3c-4.3,0-7.9-3.8-7.9-8.4c0-4.6-3.5-8.4-7.6-8.4s-7.6,5-7.6,11v39.1
		c0,6,3.5,11,7.6,11c4.1,0,7.5-3.1,7.5-6.8c0-3.8,3.7-6.8,8-6.8c4.3,0,8,5,8,11v14.8c0,6,3.3,11,7.3,11c4.1,0,7.3-3.1,7.3-6.8
		c0-3.8,3.5-6.8,7.9-6.8c4.3,0,7.9-2.6,7.9-5.8s3.2-5.8,7.3-5.8c4.1,0,7.3-5,7.3-11V78C101,72,97.8,67,93.7,67z"/>
	<path class="st5" d="M62.4,61.4c-0.1,0-0.3,0-0.4-0.1c-0.5-0.2-0.7-0.8-0.4-1.3l6-12c0.2-0.5,0.8-0.7,1.3-0.4
		c0.5,0.2,0.7,0.8,0.4,1.3l-6,12C63.1,61.2,62.7,61.4,62.4,61.4z"/>
	<path class="st5" d="M71.9,42.4c-0.2,0-0.3,0-0.4-0.1c-0.5-0.2-0.7-0.8-0.4-1.3l3.5-7c0.2-0.5,0.8-0.7,1.3-0.4
		c0.5,0.2,0.7,0.8,0.4,1.3l-3.5,7C72.6,42.2,72.2,42.4,71.9,42.4z"/>
	<path class="st5" d="M75.4,69.4c-0.2,0-0.3,0-0.4-0.1c-0.5-0.2-0.7-0.8-0.4-1.3l3.5-7c0.2-0.5,0.8-0.7,1.3-0.4
		c0.5,0.2,0.7,0.8,0.4,1.3l-3.5,7C76.1,69.2,75.7,69.4,75.4,69.4z"/>
	<path class="st5" d="M81.4,57.4c-0.2,0-0.3,0-0.4-0.1c-0.5-0.2-0.7-0.8-0.4-1.3l7-14c0.2-0.5,0.8-0.7,1.3-0.4
		c0.5,0.2,0.7,0.8,0.4,1.3l-7,14C82.1,57.2,81.7,57.4,81.4,57.4z"/>
	<path class="st5" d="M50.4,48.4c-0.1,0-0.3,0-0.4-0.1c-0.5-0.2-0.7-0.8-0.4-1.3l9-18c0.2-0.5,0.8-0.7,1.3-0.4
		c0.5,0.2,0.7,0.8,0.4,1.3l-9,18C51.1,48.2,50.7,48.4,50.4,48.4z"/>
	<path class="st5" d="M38.9,35.4c-0.1,0-0.3,0-0.4-0.1c-0.5-0.2-0.7-0.8-0.4-1.3l3.5-7c0.2-0.5,0.8-0.7,1.3-0.4
		c0.5,0.2,0.7,0.8,0.4,1.3l-3.5,7C39.6,35.2,39.2,35.4,38.9,35.4z"/>
	<path class="st5" d="M95.4,64.4c-0.2,0-0.3,0-0.4-0.1c-0.5-0.2-0.7-0.8-0.4-1.3l3-6c0.2-0.5,0.8-0.7,1.3-0.4
		c0.5,0.2,0.7,0.8,0.4,1.3l-3,6C96.1,64.2,95.7,64.4,95.4,64.4z"/>
	<path class="st6" d="M56,86.8c0-6.1-3.7-10.8-8-10.8c-4.3,0-8,2.9-8,6.6c0,3.8-3,7.4-7,7.4c-4.1,0-8-5.5-8-11.5v7
		c0,6.1,3.5,11,7.6,11c4.1,0,7.5-3.1,7.5-6.8c0-3.8,3.7-6.8,8-6.8c4.3,0,8,4.9,8,11V86.8z"/>
	<path class="st6" d="M94,87c-4,0-8,2.8-8,6c0,3.2-2.7,6-7,6c-4.3,0-8,3.2-8,7s-4,7-8,7c-4,0-7-5.3-7-11.4v7c0,6,3.3,11,7.3,11
		s7.3-3.1,7.3-6.8c0-3.8,3.5-6.8,7.9-6.8c4.3,0,7.9-2.6,7.9-5.8c0-3.2,3.2-5.8,7.3-5.8c4,0,7.3-4.9,7.3-11V78c0-0.3,0.2-0.5,0.2-0.8
		C100.7,82.9,97.9,87,94,87z"/>
	<path class="st5" d="M33.2,86.1c-0.9,0-1.8-0.3-2.6-0.8c-1.8-1.2-2.6-3.4-2.6-4.9V61c0-0.6,0.4-1,1-1c0.6,0,1,0.4,1,1v19.4
		c0,1,0.6,2.5,1.7,3.2c0.8,0.5,1.7,0.6,2.7,0.2c0.5-0.2,1.1,0,1.3,0.6c0.2,0.5,0,1.1-0.6,1.3C34.5,86,33.8,86.1,33.2,86.1z"/>
	<path class="st5" d="M29,52c-0.6,0-1-0.4-1-1v-7c0-0.6,0.4-1,1-1c0.6,0,1,0.4,1,1v7C30,51.6,29.6,52,29,52z"/>
	<path class="st5" d="M52.5,61.8c-0.5,0-0.9-0.4-1-0.9c-0.4-3.2-2.7-3.9-8.2-5.1c-0.7-0.1-1.4-0.3-2.1-0.5c-0.5-0.1-0.9-0.7-0.7-1.2
		c0.1-0.5,0.7-0.9,1.2-0.7c0.7,0.2,1.4,0.3,2.1,0.5c5.3,1.2,9.1,2,9.7,6.8c0.1,0.5-0.3,1.1-0.9,1.1C52.6,61.8,52.5,61.8,52.5,61.8z"
		/>
	<path class="st5" d="M78.7,81.4c-1.1,0-2.3-0.1-3.5-0.4c-3-0.7-5.3-2.2-6.3-4c-0.2-0.4-0.4-0.8-0.6-1.2c-1.5-2.8-2.9-5.5-6.5-5.6
		c-0.6,0-1-0.5-1-1.1c0-0.5,0.5-1.1,1-1.1c0,0,0,0,0,0c4.8,0,6.6,3.6,8.2,6.7c0.2,0.4,0.4,0.8,0.6,1.2c0.7,1.3,2.7,2.5,5,3
		c2.9,0.7,5.7,0.4,7.6-0.9c1.8-1.2,2.9-2.8,4-4.3c1.5-2,2.9-4,5.6-4.1c1.6-0.1,2.9,0.4,4,1.4c2,2,2.1,5.6,2,7.6c0,0.6-0.5,1-1.1,0.9
		c-0.6,0-1-0.5-0.9-1.1c0.2-2.7-0.4-4.9-1.4-6c-0.6-0.6-1.4-0.9-2.4-0.8C91.4,71.8,90.5,73,89,75c-1.1,1.6-2.4,3.3-4.5,4.7
		C82.9,80.8,80.9,81.4,78.7,81.4z"/>
	<path class="st5" d="M63.6,109.4c-0.1,0-0.3,0-0.4,0c-0.5-0.1-0.9-0.6-0.9-1.1c0.1-0.5,0.6-0.9,1.1-0.9c0.4,0,0.8-0.1,1.1-0.4
		c1-0.9,1.6-3.1,1.6-5.9c0-2.1,0.8-3.9,2.3-5.1c2.2-1.9,5.2-2.2,7.1-1.9c0.5,0.1,0.9,0.6,0.8,1.1c-0.1,0.5-0.6,0.9-1.1,0.8
		c-1.6-0.3-4,0.1-5.5,1.4c-1,0.9-1.6,2.1-1.6,3.6c0,3.4-0.8,6.1-2.3,7.4C65.2,109.1,64.4,109.4,63.6,109.4z"/>
	<path class="st7" d="M72,17c-2.2,0-4-1.8-4-4c0-2.2,1.8-4,4-4c2.2,0,4,1.8,4,4C76,15.2,74.2,17,72,17z M72,10.9
		c-1.2,0-2.1,1-2.1,2.1c0,1.2,1,2.1,2.1,2.1c1.2,0,2.1-1,2.1-2.1C74.1,11.8,73.2,10.9,72,10.9z"/>
	<path class="st7" d="M98,110c-2.2,0-4-1.8-4-4c0-2.2,1.8-4,4-4c2.2,0,4,1.8,4,4C102,108.2,100.2,110,98,110z M98,103.9
		c-1.2,0-2.1,1-2.1,2.1c0,1.2,1,2.1,2.1,2.1c1.2,0,2.1-1,2.1-2.1C100.1,104.8,99.2,103.9,98,103.9z"/>
	<path class="st7" d="M99.2,30.3c0-0.4,0.4-0.8,1-0.9l1.9-0.3c0.5-0.1,1.1-0.6,1.1-1.1l0.3-1.9c0.1-0.5,0.5-1,0.9-1
		c0.4,0,0.8,0.4,0.9,1l0.3,1.9c0.1,0.5,0.6,1.1,1.1,1.1l1.9,0.3c0.5,0.1,1,0.5,1,0.9s-0.4,0.8-1,0.9l-1.9,0.3
		c-0.5,0.1-1.1,0.6-1.1,1.1l-0.3,1.9c-0.1,0.5-0.5,1-0.9,1c-0.4,0-0.8-0.4-0.9-1l-0.3-2.1c-0.1-0.5-0.6-1-1.1-1.1l-1.8-0.1
		C99.7,31,99.2,30.6,99.2,30.3z"/>
	<path class="st7" d="M7.7,69.1c0-0.4,0.4-0.8,1-0.9l1.9-0.3c0.5-0.1,1.1-0.6,1.1-1.1L12,65c0.1-0.5,0.5-1,0.9-1
		c0.4,0,0.8,0.4,0.9,1l0.3,1.9c0.1,0.5,0.6,1.1,1.1,1.1l1.9,0.3c0.5,0.1,1,0.5,1,0.9c0,0.4-0.4,0.8-1,0.9l-1.9,0.3
		c-0.5,0.1-1.1,0.6-1.1,1.1l-0.3,1.9c-0.1,0.5-0.5,1-0.9,1c-0.4,0-0.8-0.4-0.9-1l-0.3-2.1c-0.1-0.5-0.6-1-1.1-1.1l-1.8-0.1
		C8.2,69.9,7.7,69.5,7.7,69.1z"/>
	<path class="st7" d="M59.9,56.7c0-0.4-0.4-0.8-1-0.9l-4.8-0.8c-0.5-0.1-1.1-0.6-1.2-1.2L52.1,49c-0.1-0.5-0.5-1-0.9-1
		c-0.4,0-0.8,0.4-0.9,1l-0.8,4.8c-0.1,0.5-0.6,1.1-1.2,1.2l-4.8,0.8c-0.5,0.1-1,0.5-1,0.9c0,0.4,0.4,0.8,1,0.9l4.7,0.6
		c0.5,0.1,1.1,0.6,1.2,1.1l0.9,5c0.1,0.5,0.5,1,0.9,1c0.4,0,0.8-0.4,0.9-1l0.9-5.1c0.1-0.5,0.6-1,1.2-1.1l4.7-0.6
		C59.4,57.5,59.9,57.1,59.9,56.7z"/>
</g>
</svg>
