<?xml version="1.0" encoding="utf-8"?>
<!-- Generator: Adobe Illustrator 21.0.2, SVG Export Plug-In . SVG Version: 6.00 Build 0)  -->
<svg version="1.1" id="hotdog" xmlns="http://www.w3.org/2000/svg" xmlns:xlink="http://www.w3.org/1999/xlink" x="0px" y="0px"
	 viewBox="0 0 128 128" style="enable-background:new 0 0 128 128;" xml:space="preserve">
<style type="text/css">
	.st0{fill:#6AE5E1;}
	.st1{fill:#FFFFFF;}
	.st2{fill:#FBD000;}
	.st3{fill:#FC8BA4;}
	.st4{fill:#E55C80;}
	.st5{fill:#663210;}
	.st6{fill:#FF4848;}
	.st7{fill:#F4B10B;}
</style>
<g>
	<circle class="st0" cx="64" cy="63.4" r="64"/>
	<path class="st1" d="M57,19c-2.2,0-4-1.8-4-4c0-2.2,1.8-4,4-4c2.2,0,4,1.8,4,4C61,17.2,59.2,19,57,19z M57,12.9
		c-1.2,0-2.1,1-2.1,2.1c0,1.2,1,2.1,2.1,2.1c1.2,0,2.1-1,2.1-2.1C59.1,13.8,58.2,12.9,57,12.9z"/>
	<path class="st1" d="M15,56c-2.2,0-4-1.8-4-4c0-2.2,1.8-4,4-4c2.2,0,4,1.8,4,4C19,54.2,17.2,56,15,56z M15,49.9
		c-1.2,0-2.1,1-2.1,2.1c0,1.2,1,2.1,2.1,2.1c1.2,0,2.1-1,2.1-2.1C17.1,50.8,16.2,49.9,15,49.9z"/>
	<path class="st1" d="M86.5,109c-2.5,0-4.5-2-4.5-4.5c0-2.5,2-4.5,4.5-4.5c2.5,0,4.5,2,4.5,4.5C91,107,89,109,86.5,109z M86.5,102.1
		c-1.3,0-2.4,1.1-2.4,2.4c0,1.3,1.1,2.4,2.4,2.4c1.3,0,2.4-1.1,2.4-2.4C88.9,103.2,87.8,102.1,86.5,102.1z"/>
	<path class="st1" d="M32.8,28.5c0-0.4-0.4-0.8-1-0.9L30,27.3c-0.5-0.1-1.1-0.6-1.1-1.1l-0.3-1.9c-0.1-0.5-0.5-1-0.9-1
		c-0.4,0-0.8,0.4-0.9,1l-0.3,1.9c-0.1,0.5-0.6,1.1-1.1,1.1l-1.9,0.3c-0.5,0.1-1,0.5-1,0.9c0,0.4,0.4,0.8,1,0.9l1.9,0.3
		c0.5,0.1,1.1,0.6,1.1,1.1l0.3,1.9c0.1,0.5,0.5,1,0.9,1c0.4,0,0.8-0.4,0.8-1l0.3-2.1c0.1-0.5,0.6-1,1.1-1.1l1.8-0.1
		C32.4,29.2,32.8,28.9,32.8,28.5z"/>
	<path class="st1" d="M113.7,80c0-0.4-0.4-0.8-1-0.9l-1.9-0.3c-0.5-0.1-1.1-0.6-1.1-1.1l-0.3-1.9c-0.1-0.5-0.5-1-0.9-1
		c-0.4,0-0.8,0.4-0.9,1l-0.3,1.9c-0.1,0.5-0.6,1.1-1.1,1.1l-1.9,0.3c-0.5,0.1-1,0.5-1,0.9c0,0.4,0.4,0.8,1,0.9l1.9,0.3
		c0.5,0.1,1.1,0.6,1.1,1.1l0.3,1.9c0.1,0.5,0.5,1,0.9,1c0.4,0,0.8-0.4,0.8-1l0.3-2.1c0.1-0.5,0.6-1,1.1-1.1l1.8-0.1
		C113.2,80.7,113.7,80.4,113.7,80z"/>
	<path class="st1" d="M65.6,113.1c0-0.4-0.4-0.8-1-0.9l-1.9-0.3c-0.5-0.1-1.1-0.6-1.1-1.1l-0.3-1.9c-0.1-0.5-0.5-1-0.9-1
		s-0.8,0.4-0.9,1l-0.3,1.9c-0.1,0.5-0.6,1.1-1.1,1.1l-1.9,0.3c-0.5,0.1-1,0.5-1,0.9c0,0.4,0.4,0.8,1,0.9l1.9,0.3
		c0.5,0.1,1.1,0.6,1.1,1.1l0.3,1.9c0.1,0.5,0.5,1,0.9,1s0.8-0.4,0.8-1l0.3-2.1c0.1-0.5,0.6-1,1.1-1.1l1.8-0.1
		C65.2,113.9,65.6,113.5,65.6,113.1z"/>
	<path class="st2" d="M108.8,28.6c7.9,9.6,6.3,24-3.5,32L53.5,103c-9.8,8-24.2,6.7-32.1-2.9c-7.9-9.6-6.3-24,3.5-32l51.7-42.3
		C86.5,17.7,100.9,19,108.8,28.6z"/>
	<path class="st3" d="M106.5,30.8c2.9,3.5,2.4,8.8-1.2,11.6L37,98c-3.5,2.9-8.8,2.4-11.6-1.2l0,0c-2.9-3.5-2.4-8.8,1.2-11.6
		l68.3-55.5C98.4,26.8,103.6,27.3,106.5,30.8L106.5,30.8z"/>
	<path class="st4" d="M101.9,38.3L33.8,94c-2.8,2.3-6.6,2.4-9.5,0.7c0.3,0.5,0.6,1,1,1.5c2.9,3.5,8.1,4,11.6,1.1l68.1-55.8
		c3.5-2.9,4-8.1,1.1-11.6c-0.6-0.8-1.4-1.4-2.2-1.8C105.8,31.5,105,35.7,101.9,38.3z"/>
	<path class="st5" d="M31.8,100.8c-2.8,0-5.4-1.2-7.2-3.4c-1.6-1.9-2.3-4.3-2-6.8c0.2-2.5,1.4-4.7,3.3-6.2l68-55.3
		c1.6-1.3,3.7-2.1,5.8-2.1c2.8,0,5.4,1.2,7.2,3.4c1.6,1.9,2.3,4.3,2,6.8c-0.2,2.5-1.4,4.7-3.3,6.2l-68,55.3
		C35.9,100.1,33.9,100.8,31.8,100.8z M99.8,29c-1.7,0-3.3,0.6-4.6,1.6L27.2,86c-1.5,1.2-2.4,3-2.6,4.9c-0.2,1.9,0.4,3.8,1.6,5.3
		c1.4,1.7,3.4,2.7,5.6,2.7c1.7,0,3.3-0.6,4.6-1.6l68-55.3c1.5-1.2,2.4-3,2.6-4.9c0.2-1.9-0.4-3.8-1.6-5.3C104,30,101.9,29,99.8,29z"
		/>
	<path class="st2" d="M111.1,44.3c-3-3.6-8.4-4.1-12-1.1l-60,49.9c-3.6,3-4.1,8.4-1.1,12l0,0c3,3.6,9.6,2.4,13.2-0.7l55.8-46.1
		C110.7,55.4,114.2,47.9,111.1,44.3L111.1,44.3z"/>
	<path class="st5" d="M34.8,105C34.7,105,34.7,105,34.8,105c-0.6,0-1-0.5-1-1c0.3-7.6,4.5-11.4,4.7-11.6c0.6-0.5,58.1-48.2,60-49.9
		c2.2-2,6-2.7,10.4-1.8c0.5,0.1,0.9,0.6,0.8,1.2c-0.1,0.5-0.6,0.9-1.2,0.8c-3.7-0.7-6.9-0.2-8.7,1.3c-1.9,1.7-57.6,48-60,50
		c0,0-3.8,3.5-4,10.2C35.7,104.6,35.3,105,34.8,105z"/>
	<path class="st2" d="M93.8,22.8c3,3.7,2.4,9-1.2,12L32.2,84.2c-3.7,3-9,2.4-12-1.2l0,0c-3-3.7-0.5-9.9,3.2-12.9l55.8-46
		C82.8,21.1,90.9,19.1,93.8,22.8L93.8,22.8z"/>
	<path class="st5" d="M23.6,87.6c-1,0-2-0.1-3.1-0.2c-0.5-0.1-0.9-0.6-0.8-1.1c0.1-0.5,0.6-0.9,1.1-0.8c6.7,1,10.7-2,10.8-2
		C33.9,81.5,90,35.6,92,34c1.9-1.4,3-4.4,3-8.2c0-0.6,0.4-1,1-1c0.6,0,1,0.4,1,1c0,4.4-1.4,8-3.8,9.8c-2,1.5-59.8,48.9-60.4,49.3
		C32.6,85.1,29.3,87.6,23.6,87.6z"/>
	<path class="st6" d="M25.7,97.3c-0.7,0-1.4-0.4-1.7-1c-0.5-0.9-0.1-2.1,0.8-2.6c0.7-0.4,7.4-3.7,12.2-1.2c2,1,4,1.1,4.6,0.6
		c0.4-0.3,0.5-1.6-0.3-3.8l-3.9-10c-2.2-5.6-1-8.2,0.5-9.4c1.4-1.2,4.2-1.9,9.3,1.4l9.1,5.8c3.2,2,4.5,1.8,4.7,1.7
		c0.2-0.2,0.7-1.5-0.7-5l-3.9-10c-2.2-5.6-1-8.2,0.5-9.4c1.4-1.2,4.2-1.9,9.3,1.4l9.1,5.8c3.2,2,4.5,1.8,4.7,1.7
		c0.2-0.2,0.7-1.5-0.7-5l-3.9-10c-2.2-5.6-1-8.2,0.5-9.4c1.4-1.2,4.2-1.9,9.3,1.4L94,46c2.8,1.8,4,1.7,4.2,1.5
		c0.3-0.3,0.7-1.8-0.2-4.9c-2.4-7.9,1-11.8,4.3-13.8c0.9-0.5,2.1-0.2,2.6,0.7c0.5,0.9,0.2,2.1-0.7,2.6c-2,1.2-4.4,3.4-2.6,9.4
		c1.3,4.3,0.9,7.6-1.1,9.1c-2,1.5-4.9,1.1-8.6-1.3l-9.1-5.8c-3.2-2-4.5-1.8-4.7-1.7c-0.2,0.2-0.7,1.5,0.7,5l3.9,10
		c2.2,5.6,1,8.2-0.5,9.4c-1.4,1.2-4.2,1.9-9.3-1.4l-9.1-5.8c-3.2-2-4.5-1.8-4.7-1.7c-0.2,0.2-0.7,1.5,0.7,5l3.9,10
		c2.2,5.6,1,8.2-0.5,9.4c-1.4,1.2-4.2,1.9-9.3-1.4L45,74.4c-3.2-2-4.5-1.8-4.7-1.7c-0.2,0.2-0.7,1.5,0.7,5l3.9,10
		c1.8,4.6,0.6,6.9-0.7,8c-2.4,2.1-6.3,1.3-8.9,0c-2.6-1.4-7.2,0.4-8.7,1.2C26.3,97.2,26,97.3,25.7,97.3z"/>
	<path class="st5" d="M25.7,98.3c-1.1,0-2.1-0.6-2.6-1.6c-0.8-1.4-0.2-3.2,1.2-3.9c0.7-0.4,4.5-2.3,8.6-2.3c1.7,0,3.3,0.3,4.6,1
		c1,0.5,2,0.8,2.9,0.8c0.3,0,0.4,0,0.5-0.1c0-0.2,0.1-1-0.6-2.7l-3.9-10c-2.4-6.2-0.9-9.1,0.8-10.5c2.4-1.9,6-1.5,10.4,1.3l9.1,5.8
		c1.8,1.2,2.9,1.5,3.4,1.6c0-0.5-0.1-1.7-0.9-3.7l-3.9-10c-2.4-6.2-0.9-9.1,0.8-10.5c2.3-1.9,6-1.5,10.4,1.3l9.1,5.8
		c1.8,1.2,2.9,1.5,3.4,1.6c0-0.5-0.1-1.7-0.9-3.7l-3.9-10c-2.4-6.2-0.9-9.1,0.8-10.5c2.3-1.9,6-1.5,10.4,1.3l9.1,5.8
		c1.7,1.1,2.6,1.3,3,1.4c0.1-0.5,0.1-1.7-0.5-3.7c-2.7-9,1.8-13.2,4.8-14.9c0.4-0.3,1-0.4,1.5-0.4c1,0,2,0.6,2.5,1.4
		c0.8,1.4,0.4,3.2-1,4c-1.8,1.1-3.7,3-2.1,8.2c1.4,4.8,0.9,8.4-1.5,10.2c-2.3,1.8-5.7,1.4-9.8-1.3l-9.1-5.8
		c-1.8-1.2-2.9-1.5-3.4-1.6c0,0.5,0.1,1.7,0.9,3.7l3.9,10c2.4,6.2,0.9,9.1-0.8,10.5c-2.4,1.9-6,1.5-10.4-1.3l-9.1-5.8
		c-1.8-1.2-2.9-1.5-3.4-1.6c0,0.5,0.1,1.7,0.9,3.7l3.9,10c2.4,6.2,0.9,9.1-0.8,10.5c-2.4,1.9-6,1.5-10.4-1.3l-9.1-5.8
		c-1.8-1.2-2.9-1.5-3.4-1.6c0,0.5,0.1,1.7,0.9,3.7l3.9,10c2,5.1,0.6,7.8-0.9,9.2c-1.1,1-2.7,1.6-4.5,1.6c-2.4,0-4.5-0.9-5.5-1.4
		c-0.5-0.3-1.1-0.4-1.9-0.4c-2.2,0-4.8,1-5.9,1.6C26.6,98.1,26.1,98.3,25.7,98.3z M32.9,92.5c-3.7,0-7.2,1.8-7.6,2
		c-0.4,0.2-0.6,0.8-0.4,1.2c0.2,0.4,0.8,0.6,1.2,0.4c1.3-0.7,4.2-1.8,6.8-1.8c1.1,0,2,0.2,2.8,0.6c1.5,0.8,3.2,1.2,4.6,1.2
		c1.3,0,2.4-0.4,3.1-1.1c1.5-1.4,1.6-3.8,0.4-6.9l-3.9-10c-1.8-4.5-0.7-5.8-0.4-6.1c0.3-0.2,0.6-0.3,1.1-0.3c0.8,0,2.3,0.3,4.8,1.9
		l9.1,5.8c3.6,2.3,6.4,2.8,8.1,1.5c1.7-1.4,1.7-4.2,0.2-8.2l-3.9-10c-1.8-4.5-0.7-5.8-0.4-6.1c0.3-0.2,0.6-0.3,1.1-0.3
		c0.8,0,2.3,0.3,4.8,1.9l9.1,5.8c3.6,2.3,6.4,2.8,8.1,1.5c1.7-1.4,1.7-4.2,0.2-8.2l-3.9-10c-1.8-4.5-0.7-5.8-0.4-6.1
		c0.3-0.2,0.6-0.3,1.1-0.3c0.8,0,2.3,0.3,4.8,1.9l9.1,5.8c3.3,2.1,5.8,2.6,7.5,1.4c1.7-1.3,2-4.1,0.8-8c-1.5-5-0.5-8.4,3-10.5
		c0.4-0.3,0.6-0.8,0.3-1.3c-0.2-0.4-0.8-0.6-1.3-0.3c-4.3,2.6-5.6,6.8-3.9,12.6c0.9,3,0.9,5.3-0.1,6c-0.3,0.2-0.6,0.3-1.1,0.3
		c-0.7,0-2.1-0.3-4.3-1.7l-9.1-5.8c-3.6-2.3-6.4-2.8-8.1-1.5c-1.7,1.4-1.7,4.2-0.2,8.2l3.9,10c1.8,4.5,0.7,5.8,0.4,6.1
		c-0.3,0.2-0.6,0.3-1.1,0.3c-0.8,0-2.3-0.3-4.8-1.9l-9.1-5.8c-3.6-2.3-6.4-2.8-8.1-1.5c-1.7,1.4-1.7,4.2-0.2,8.2l3.9,10
		c1.8,4.5,0.7,5.8,0.4,6.1c-0.3,0.2-0.6,0.3-1.1,0.3c-0.8,0-2.3-0.3-4.8-1.9L46.5,72c-3.6-2.3-6.4-2.8-8.1-1.5
		c-1.7,1.4-1.7,4.2-0.2,8.2l3.9,10c0.9,2.4,0.9,4.1,0.1,4.9c-0.4,0.4-1.1,0.6-1.9,0.6c-1.1,0-2.5-0.4-3.8-1
		C35.5,92.7,34.3,92.5,32.9,92.5z"/>
	<path class="st7" d="M108.8,28.6c-0.2-0.3-0.5-0.6-0.8-0.8c4.5,9.2,2.1,20.8-6.3,27.7L50,97.8c-9.5,7.8-23.3,6.8-31.3-2.1
		c0.7,1.5,1.6,3,2.8,4.3c7.9,9.6,22.3,10.9,32.1,2.9l51.7-42.3C115,52.6,116.6,38.2,108.8,28.6z"/>
	<path class="st1" d="M25.2,74.2c-0.3,0-0.6-0.1-0.8-0.4c-0.4-0.4-0.3-1,0.1-1.4l45.8-37.3c0.4-0.3,1.1-0.3,1.4,0.1
		c0.4,0.4,0.3,1-0.1,1.4L25.8,74C25.7,74.2,25.4,74.2,25.2,74.2z"/>
	<path class="st5" d="M38.5,109c-7.2,0-13.8-3.1-18.3-8.5c-4-4.9-5.8-11-5.1-17.4c0.7-6.3,3.8-12.1,8.8-16.1L76,24.5
		C80.4,21,85.9,19,91.5,19c7.2,0,13.8,3.1,18.3,8.5c8.3,10.1,6.6,25.1-3.7,33.5L54,103.5C49.6,107,44.1,109,38.5,109z M91.5,21
		c-5.1,0-10.2,1.8-14.1,5L25.2,68.5c-4.6,3.7-7.4,9-8.1,14.8c-0.6,5.8,1,11.5,4.7,15.9c4.1,5,10.2,7.8,16.7,7.8
		c5.1,0,10.2-1.8,14.1-5l52.1-42.5c9.4-7.7,11-21.5,3.4-30.7C104.1,23.8,98,21,91.5,21z"/>
	<path class="st1" d="M76,32c-0.3,0-0.6-0.1-0.8-0.3c-0.4-0.4-0.4-1.1,0.1-1.4c0.3-0.3,6.9-6.3,12.5-7.2c0.6-0.1,1.1,0.3,1.2,0.8
		c0.1,0.6-0.3,1.1-0.8,1.2c-4.9,0.8-11.4,6.6-11.4,6.7C76.5,31.9,76.3,32,76,32z"/>
</g>
</svg>
