<?xml version="1.0" encoding="utf-8"?>
<!-- Generator: Adobe Illustrator 21.0.2, SVG Export Plug-In . SVG Version: 6.00 Build 0)  -->
<svg version="1.1" id="ipad" xmlns="http://www.w3.org/2000/svg" xmlns:xlink="http://www.w3.org/1999/xlink" x="0px" y="0px"
	 viewBox="0 0 128 128" style="enable-background:new 0 0 128 128;" xml:space="preserve">
<style type="text/css">
	.st0{fill:#FF4848;}
	.st1{fill:#FFFFFF;}
	.st2{fill:#EAEAEA;}
	.st3{fill:#FBD000;}
	.st4{fill:#663210;}
	.st5{fill:#D4D6D6;}
	.st6{opacity:0.5;fill:#0C508E;}
</style>
<g>
	<circle class="st0" cx="64" cy="64" r="64"/>
	<path class="st1" d="M111,118.5c0,4.4-3.6,8-8,8H25.4c-4.4,0-8-3.6-8-8V13.8c0-4.4,3.6-8,8-8H103c4.4,0,8,3.6,8,8V118.5z"/>
	<path class="st2" d="M103,121H25.4c-4.4,0-8-3.6-8-8v6c0,4.4,3.6,8,8,8H103c4.4,0,8-3.6,8-8v-6C111,117.4,107.4,121,103,121z"/>
	<rect x="24.9" y="16.3" class="st3" width="78.7" height="95.5"/>
	<path class="st4" d="M103,128H26c-5,0-9-4-9-9V14c0-5,4-9,9-9h77c5,0,9,4,9,9v105C112,124,108,128,103,128z M26,7c-3.9,0-7,3.1-7,7
		v105c0,3.9,3.1,7,7,7h77c3.9,0,7-3.1,7-7V14c0-3.9-3.1-7-7-7H26z"/>
	<path class="st4" d="M103,112H25c-0.6,0-1-0.4-1-1V16c0-0.6,0.4-1,1-1h78c0.6,0,1,0.4,1,1v95C104,111.6,103.6,112,103,112z M26,110
		h76V17H26V110z"/>
	<path class="st4" d="M68.6,12h-8.1c-0.6,0-1-0.4-1-1s0.4-1,1-1h8.1c0.6,0,1,0.4,1,1S69.1,12,68.6,12z"/>
	<path class="st4" d="M56.4,12h-2.9c-0.6,0-1-0.4-1-1s0.4-1,1-1h2.9c0.6,0,1,0.4,1,1S56.9,12,56.4,12z"/>
	<ellipse class="st5" cx="64.5" cy="119.5" rx="3.5" ry="3.5"/>
	<path class="st1" d="M38.8,48.5c-0.3,0-0.5-0.1-0.7-0.3c-0.4-0.4-0.4-1,0-1.4l15.5-15.5c0.4-0.4,1-0.4,1.4,0c0.4,0.4,0.4,1,0,1.4
		L39.5,48.2C39.3,48.4,39.1,48.5,38.8,48.5z"/>
	<path class="st1" d="M37.7,69.3c-0.3,0-0.5-0.1-0.7-0.3c-0.4-0.4-0.4-1,0-1.4l42-42c0.4-0.4,1-0.4,1.4,0c0.4,0.4,0.4,1,0,1.4
		l-42,42C38.2,69.2,37.9,69.3,37.7,69.3z"/>
	<path class="st1" d="M79,48.7c-0.3,0-0.5-0.1-0.7-0.3c-0.4-0.4-0.4-1,0-1.4l9.7-9.7c0.4-0.4,1-0.4,1.4,0c0.4,0.4,0.4,1,0,1.4
		l-9.7,9.7C79.5,48.6,79.3,48.7,79,48.7z"/>
	<path class="st1" d="M41.3,86.3c-0.3,0-0.5-0.1-0.7-0.3c-0.4-0.4-0.4-1,0-1.4l21.5-21.5c0.4-0.4,1-0.4,1.4,0c0.4,0.4,0.4,1,0,1.4
		L42,86C41.8,86.2,41.6,86.3,41.3,86.3z"/>
	<path class="st1" d="M59.3,88.3c-0.3,0-0.5-0.1-0.7-0.3c-0.4-0.4-0.4-1,0-1.4l24.2-24.2c0.4-0.4,1-0.4,1.4,0c0.4,0.4,0.4,1,0,1.4
		L60,88C59.8,88.2,59.6,88.3,59.3,88.3z"/>
	<path class="st1" d="M67.7,98.3c-0.3,0-0.5-0.1-0.7-0.3c-0.4-0.4-0.4-1,0-1.4l17-17c0.4-0.4,1-0.4,1.4,0c0.4,0.4,0.4,1,0,1.4
		l-17,17C68.2,98.2,67.9,98.3,67.7,98.3z"/>
	<path class="st1" d="M80.7,55.8c0-0.4-0.4-0.8-1-0.9L74.9,54c-0.5-0.1-1.1-0.6-1.2-1.2l-0.8-4.8c-0.1-0.5-0.5-1-0.9-1
		c-0.4,0-0.8,0.4-0.9,1l-0.8,4.8c-0.1,0.5-0.6,1.1-1.2,1.2l-4.8,0.8c-0.5,0.1-1,0.5-1,0.9c0,0.4,0.4,0.8,1,0.9l4.7,0.6
		c0.5,0.1,1.1,0.6,1.2,1.1l0.9,5c0.1,0.5,0.5,1,0.9,1c0.4,0,0.8-0.4,0.9-1l0.9-5.1c0.1-0.5,0.6-1,1.2-1.1l4.7-0.6
		C80.2,56.6,80.7,56.2,80.7,55.8z"/>
	<path class="st1" d="M40,33c-2.2,0-4-1.8-4-4c0-2.2,1.8-4,4-4c2.2,0,4,1.8,4,4C44,31.2,42.2,33,40,33z M40,26.9
		c-1.2,0-2.1,1-2.1,2.1c0,1.2,1,2.1,2.1,2.1c1.2,0,2.1-1,2.1-2.1C42.1,27.8,41.2,26.9,40,26.9z"/>
	<path class="st1" d="M89,98c-2.2,0-4-1.8-4-4c0-2.2,1.8-4,4-4c2.2,0,4,1.8,4,4C93,96.2,91.2,98,89,98z M89,91.9
		c-1.2,0-2.1,1-2.1,2.1c0,1.2,1,2.1,2.1,2.1c1.2,0,2.1-1,2.1-2.1C91.1,92.8,90.2,91.9,89,91.9z"/>
	<path class="st1" d="M43.1,98.1c0-0.4-0.4-0.8-1-0.9L40.2,97c-0.5-0.1-1.1-0.6-1.1-1.1L38.8,94c-0.1-0.5-0.5-1-0.9-1
		c-0.4,0-0.8,0.4-0.9,1l-0.3,1.9c-0.1,0.5-0.6,1.1-1.1,1.1l-1.9,0.3c-0.5,0.1-1,0.5-1,0.9s0.4,0.8,1,0.9l1.9,0.3
		c0.5,0.1,1.1,0.6,1.1,1.1l0.3,1.9c0.1,0.5,0.5,1,0.9,1c0.4,0,0.8-0.4,0.9-1l0.3-2.1c0.1-0.5,0.6-1,1.1-1.1l1.8-0.1
		C42.6,98.9,43.1,98.5,43.1,98.1z"/>
	<path class="st6" d="M107,103c-0.6,0-1-0.4-1-1V79.7c0-0.6,0.4-1,1-1c0.6,0,1,0.4,1,1V102C108,102.6,107.6,103,107,103z"/>
	<path class="st6" d="M107,69.3c-0.6,0-1-0.4-1-1v-52c0-0.6,0.4-1,1-1c0.6,0,1,0.4,1,1v52C108,68.9,107.6,69.3,107,69.3z"/>
</g>
</svg>
