<?xml version="1.0" encoding="utf-8"?>
<!-- Generator: Adobe Illustrator 21.0.2, SVG Export Plug-In . SVG Version: 6.00 Build 0)  -->
<svg version="1.1" id="photos" xmlns="http://www.w3.org/2000/svg" xmlns:xlink="http://www.w3.org/1999/xlink" x="0px" y="0px"
	 viewBox="0 0 128 128" style="enable-background:new 0 0 128 128;" xml:space="preserve">
<style type="text/css">
	.st0{fill:#FBD000;}
	.st1{fill:#FFFFFF;}
	.st2{fill:#663210;}
	.st3{fill:#75B600;}
	.st4{fill:#3AD0F9;}
	.st5{fill:#AD5114;}
</style>
<g>
	<circle class="st0" cx="64" cy="64" r="64"/>
	<path class="st1" d="M102.6,76.1c0.7,4.3-2.2,8.5-6.6,9.2L32.8,95.9c-4.3,0.7-8.5-2.2-9.2-6.6l-7.3-43.7c-0.7-4.3,2.2-8.5,6.6-9.2
		L86,25.8c4.3-0.7,8.5,2.2,9.2,6.6L102.6,76.1z"/>
	<path class="st2" d="M31.5,96c-4.4,0-8.2-3.1-8.9-7.4l-7.4-42.9c-0.8-4.8,2.5-9.4,7.4-10.2l63.4-10.4c0.5-0.1,1-0.1,1.5-0.1
		c4.4,0,8.2,3.1,8.9,7.4l7.4,42.9c0.8,4.8-2.5,9.4-7.4,10.2L33,95.9C32.5,96,32,96,31.5,96z M87.6,27c-0.4,0-0.8,0-1.2,0.1L23,37.5
		c-3.8,0.6-6.4,4.2-5.8,7.9l7.4,42.9c0.6,3.3,3.5,5.7,6.9,5.7c0.4,0,0.8,0,1.2-0.1l63.4-10.4c3.8-0.6,6.4-4.2,5.8-7.9l-7.4-42.9
		C94,29.4,91,27,87.6,27z"/>
	<path class="st3" d="M98,74.6c0.5,3.3-1.7,6.4-4.9,6.9l-58.7,9.9c-3.3,0.5-6.4-1.7-6.9-4.9l-6.6-39.2c-0.5-3.3,1.7-6.4,4.9-6.9
		l58.7-9.9c3.3-0.5,6.4,1.7,6.9,4.9L98,74.6z"/>
	<path class="st1" d="M107.6,90.8c0,4.4-3.6,8-8,8H28.4c-4.4,0-8-3.6-8-8V41c0-4.4,3.6-8,8-8h71.3c4.4,0,8,3.6,8,8V90.8z"/>
	<path class="st4" d="M103,88c0,3.3-2.7,6-6,6H31c-3.3,0-6-2.7-6-6V44c0-3.3,2.7-6,6-6h66c3.3,0,6,2.7,6,6V88z"/>
	<circle class="st0" cx="48" cy="51" r="5"/>
	<path class="st2" d="M100,100H28c-5,0-9-4-9-9V41c0-5,4-9,9-9h72c5,0,9,4,9,9v50C109,96,105,100,100,100z M28,34c-3.9,0-7,3.1-7,7
		v50c0,3.9,3.1,7,7,7h72c3.9,0,7-3.1,7-7V41c0-3.9-3.1-7-7-7H28z"/>
	<path class="st5" d="M31.1,94h65.9c3.3,0,6-2.5,6-5.8V71L88.8,57.7c-2.5-2.1-6.4-1.9-8.7,0.6L62.8,77c-2.2,2.4-5.7,2.3-7.8-0.3
		l-8-10.1c-2-2.6-5.8-3-8.4-0.9l-13.6,11v11.5C25.1,91.5,27.8,94,31.1,94z"/>
	<path class="st2" d="M102.9,71.9v-2.4L89.4,56.7c-2.9-2.5-7.4-2.2-10,0.7L62.1,76.3c-0.9,1-1.9,1.8-3.1,1.7c-1.2,0-2.4-0.9-3.2-1.9
		l-8-10.2C46.7,64.4,45,63,43,63c-1.9,0-3.5,0.6-5,1.8l-13,10.6v2.3c0.2,0,0.4-0.1,0.6-0.2l13.6-11.1c1-0.8,2.4-1.3,3.7-1.3
		c1,0,2.5,1.1,3.3,2.1l8,10.2c1.2,1.5,3,2.6,4.7,2.7c0.1,0-0.1,0,0,0c1.7,0,3.4-1,4.6-2.3l17.3-18.9c1.9-2.1,5.2-2.3,7.3-0.5
		l14.1,13.4C102.4,71.8,102.7,71.9,102.9,71.9z"/>
	<path class="st2" d="M48,57c-3.3,0-6-2.7-6-6c0-3.3,2.7-6,6-6c3.3,0,6,2.7,6,6C54,54.3,51.3,57,48,57z M48,47c-2.2,0-4,1.8-4,4
		c0,2.2,1.8,4,4,4c2.2,0,4-1.8,4-4C52,48.8,50.2,47,48,47z"/>
	<path class="st1" d="M99,61.2c-0.6,0-1-0.4-1-1V46.3c0-3.6-1.5-4.3-4.3-4.3H78.2c-0.6,0-1-0.4-1-1s0.4-1,1-1h15.5
		c2.7,0,6.3,0.7,6.3,6.3v13.8C100,60.7,99.6,61.2,99,61.2z"/>
	<path class="st1" d="M73,42h-7c-0.5,0-1-0.4-1-1s0.4-1,1-1h7c0.5,0,1,0.4,1,1S73.6,42,73,42z"/>
	<path class="st1" d="M11,71c-2.2,0-4-1.8-4-4c0-2.2,1.8-4,4-4c2.2,0,4,1.8,4,4C15,69.2,13.2,71,11,71z M11,64.9
		c-1.2,0-2.1,1-2.1,2.1c0,1.2,0.9,2.1,2.1,2.1c1.2,0,2.1-1,2.1-2.1C13.1,65.8,12.2,64.9,11,64.9z"/>
	<path class="st1" d="M53,118c-2.2,0-4-1.8-4-4c0-2.2,1.8-4,4-4c2.2,0,4,1.8,4,4C57,116.2,55.2,118,53,118z M53,111.9
		c-1.2,0-2.1,1-2.1,2.1c0,1.2,1,2.1,2.1,2.1c1.2,0,2.1-1,2.1-2.1C55.1,112.8,54.2,111.9,53,111.9z"/>
	<path class="st1" d="M88.2,109.7c0-0.4-0.4-0.8-1-0.9l-1.9-0.3c-0.5-0.1-1.1-0.6-1.1-1.1l-0.3-1.9c-0.1-0.5-0.5-1-0.9-1
		c-0.4,0-0.8,0.4-0.9,1l-0.3,1.9c-0.1,0.5-0.6,1.1-1.1,1.1l-1.9,0.3c-0.5,0.1-1,0.5-1,0.9s0.4,0.8,1,0.9l1.9,0.3
		c0.5,0.1,1.1,0.6,1.1,1.1l0.3,1.9c0.1,0.5,0.5,1,0.9,1c0.4,0,0.8-0.4,0.8-1l0.3-2.1c0.1-0.5,0.6-1,1.1-1.1l1.8-0.1
		C87.7,110.5,88.2,110.1,88.2,109.7z"/>
	<path class="st1" d="M58.4,15.5c0-0.4-0.4-0.8-1-0.9l-1.9-0.3c-0.5-0.1-1.1-0.6-1.1-1.1l-0.3-1.9c-0.1-0.5-0.5-1-0.9-1
		c-0.4,0-0.8,0.4-0.9,1l-0.3,1.9c-0.1,0.5-0.6,1.1-1.1,1.1l-1.9,0.3c-0.5,0.1-1,0.5-1,0.9c0,0.4,0.4,0.8,1,0.9l1.9,0.3
		c0.5,0.1,1.1,0.6,1.1,1.1l0.3,1.9c0.1,0.5,0.5,1,0.9,1c0.4,0,0.8-0.4,0.8-1l0.3-2.1c0.1-0.5,0.6-1,1.1-1.1l1.8-0.1
		C58,16.2,58.4,15.8,58.4,15.5z"/>
	<path class="st1" d="M122.9,63.7c0-0.4-0.4-0.8-1-0.9l-1.9-0.3c-0.5-0.1-1.1-0.6-1.1-1.1l-0.3-1.9c-0.1-0.5-0.5-1-0.9-1
		c-0.4,0-0.8,0.4-0.9,1l-0.3,1.9c-0.1,0.5-0.6,1.1-1.1,1.1l-1.9,0.3c-0.5,0.1-1,0.5-1,0.9c0,0.4,0.4,0.8,1,0.9l1.9,0.3
		c0.5,0.1,1.1,0.6,1.1,1.1l0.3,1.9c0.1,0.5,0.5,1,0.9,1c0.4,0,0.8-0.4,0.8-1l0.3-2.1c0.1-0.5,0.6-1,1.1-1.1l1.8-0.1
		C122.5,64.5,122.9,64.1,122.9,63.7z"/>
</g>
</svg>
