<?xml version="1.0" encoding="utf-8"?>
<!-- Generator: Adobe Illustrator 21.0.2, SVG Export Plug-In . SVG Version: 6.00 Build 0)  -->
<svg version="1.1" id="pizza" xmlns="http://www.w3.org/2000/svg" xmlns:xlink="http://www.w3.org/1999/xlink" x="0px" y="0px"
	 viewBox="0 0 128 128" style="enable-background:new 0 0 128 128;" xml:space="preserve">
<style type="text/css">
	.st0{fill:#6AE5E1;}
	.st1{fill:#FFFFFF;}
	.st2{fill:#F99900;}
	.st3{fill:#FBD000;}
	.st4{fill:#FF4848;}
	.st5{fill:#EAEAEA;}
	.st6{fill:#D4D6D6;}
	.st7{fill:#6B3C1C;}
	.st8{fill:#415E6D;}
	.st9{fill:#D34929;}
	.st10{fill:#75B600;}
	.st11{fill:#5C8E0D;}
	.st12{opacity:0.5;fill:#FFFFFF;}
</style>
<g>
	<circle class="st0" cx="64" cy="64" r="64"/>
	<path class="st1" d="M30.5,38.8c0-0.4-0.4-0.8-1-0.9l-1.9-0.3c-0.5-0.1-1.1-0.6-1.1-1.1l-0.3-1.9c-0.1-0.5-0.5-1-0.9-1
		s-0.8,0.4-0.9,1l-0.3,1.9c-0.1,0.5-0.6,1.1-1.1,1.1L21.3,38c-0.5,0.1-1,0.5-1,0.9c0,0.4,0.4,0.8,1,0.9l1.9,0.3
		c0.5,0.1,1.1,0.6,1.1,1.1l0.3,1.9c0.1,0.5,0.5,1,0.9,1s0.8-0.4,0.9-1l0.3-2.1c0.1-0.5,0.6-1,1.1-1.1l1.8-0.1
		C30.1,39.6,30.5,39.2,30.5,38.8z"/>
	<path class="st1" d="M115,79.8c0-0.4-0.4-0.8-1-0.9l-1.9-0.3c-0.5-0.1-1.1-0.6-1.1-1.1l-0.3-1.9c-0.1-0.5-0.5-1-0.9-1
		c-0.4,0-0.8,0.4-0.9,1l-0.3,1.9c-0.1,0.5-0.6,1.1-1.1,1.1l-1.9,0.3c-0.5,0.1-1,0.5-1,0.9c0,0.4,0.4,0.8,1,0.9l1.9,0.3
		c0.5,0.1,1.1,0.6,1.1,1.1l0.3,1.9c0.1,0.5,0.5,1,0.9,1c0.4,0,0.8-0.4,0.9-1l0.3-2.1c0.1-0.5,0.6-1,1.1-1.1l1.8-0.1
		C114.6,80.5,115,80.2,115,79.8z"/>
	<path class="st1" d="M49.5,112.8c0-0.4-0.4-0.8-1-0.9l-1.9-0.3c-0.5-0.1-1.1-0.6-1.1-1.1l-0.3-1.9c-0.1-0.5-0.5-1-0.9-1
		c-0.4,0-0.8,0.4-0.9,1l-0.3,1.9c-0.1,0.5-0.6,1.1-1.1,1.1l-1.9,0.3c-0.5,0.1-1,0.5-1,0.9c0,0.4,0.4,0.8,1,0.9l1.9,0.3
		c0.5,0.1,1.1,0.6,1.1,1.1l0.3,1.9c0.1,0.5,0.5,1,0.9,1c0.4,0,0.8-0.4,0.9-1l0.3-2.1c0.1-0.5,0.6-1,1.1-1.1l1.8-0.1
		C49,113.5,49.5,113.2,49.5,112.8z"/>
	<path class="st1" d="M98,100c-2.2,0-4-1.8-4-4c0-2.2,1.8-4,4-4c2.2,0,4,1.8,4,4C102,98.2,100.2,100,98,100z M98,93.9
		c-1.2,0-2.1,1-2.1,2.1c0,1.2,1,2.1,2.1,2.1c1.2,0,2.1-1,2.1-2.1C100.1,94.8,99.2,93.9,98,93.9z"/>
	<path class="st1" d="M21,71c-2.2,0-4-1.8-4-4c0-2.2,1.8-4,4-4c2.2,0,4,1.8,4,4C25,69.2,23.2,71,21,71z M21,64.9
		c-1.2,0-2.1,1-2.1,2.1c0,1.2,1,2.1,2.1,2.1c1.2,0,2.1-1,2.1-2.1C23.1,65.8,22.2,64.9,21,64.9z"/>
	<path class="st1" d="M88,23c-2.2,0-4-1.8-4-4c0-2.2,1.8-4,4-4c2.2,0,4,1.8,4,4C92,21.2,90.2,23,88,23z M88,16.9
		c-1.2,0-2.1,1-2.1,2.1c0,1.2,1,2.1,2.1,2.1c1.2,0,2.1-1,2.1-2.1C90.1,17.8,89.2,16.9,88,16.9z"/>
	<path class="st2" d="M105.2,52.1c-2.4-4.2-12-14.8-20-20.8C77,25.1,64.8,19.2,58.9,17.7c-6-1.5-9,2.1-10.6,7
		c-1.6,4.9-12.2,55.3-14,63.9c-1.8,8.7,3.9,11.3,11.7,7.8c1.2-0.5,3.3-1.6,5.9-2.9v5.7c0,1.7,1.2,3,2.6,3c1.4,0,2.6-1.3,2.6-3l0-3.1
		c0-1.7,1.1-3,2.4-3c1.3,0,2.4,1.3,2.4,3v13.8c0,1.7,1.2,3,2.6,3c1.4,0,2.6-1.3,2.6-3V95.6c0-1.7,1.1-3,2.4-3c1.3,0,2.4,1.3,2.4,3
		v5.2c0,1.7,1.2,3,2.6,3c1.4,0,2.6-1.3,2.6-3v-3.1c0-1.7,0-4.3,0-6l-0.1-11.9c11.1-6.1,21.6-12,24.5-13.9
		C108,61.8,107.7,56.3,105.2,52.1z"/>
	<path class="st3" d="M85.3,31.3C77,25.1,64.8,19.2,58.9,17.7c-6-1.5-9,2.1-10.6,7c-1.6,4.9-12.2,55.3-14,63.9
		c-1.8,8.7,3.9,11.3,11.7,7.8c7.9-3.5,49.3-26.2,55.7-30.4c6.4-4.2,6-9.7,3.6-13.9C102.8,47.9,93.2,37.2,85.3,31.3z"/>
	<path class="st2" d="M101.8,56.6c-2.4-4.2-12-14.8-20-20.8c-8.2-6.2-20.4-12.1-26.4-13.6c-2.8-0.7-4.9-0.3-6.6,0.8
		c-0.2,0.5-0.4,1-0.6,1.6c-1.6,4.9-12.2,55.3-14,63.9c-1.8,8.7,3.9,11.3,11.7,7.8c7.9-3.5,49.3-26.2,55.7-30.4
		c0.5-0.3,0.9-0.6,1.3-1C104,62.1,103.3,59.1,101.8,56.6z"/>
	<path class="st4" d="M46,96.4c7.6-3.4,46.5-24.7,54.9-29.9c0.3-2.3-0.4-4.5-1.6-6.5c-2.5-4.2-12-14.8-20-20.8
		C71.1,33,58.9,27.1,52.9,25.6c-1.9-0.5-3.6-0.4-4.9,0c-2.3,8.4-12,54.7-13.7,63C32.4,97.3,38.1,99.8,46,96.4z"/>
	<path class="st2" d="M75,46.1c-5.2-3.9-10.6-11.5-16.4-14.2c-3.4-1.6-9.5,2.1-11.7,1.6c-0.3-0.1-0.6-0.1-0.8-0.2
		c-3.7,16-10.5,48.5-11.9,55.3c-1.8,8.7,3.9,11.7,11.7,8.2c6.3-2.8,34.5-18.1,48.5-26.1c-0.3-0.8-0.6-2-1.1-2.8
		c-1.3-2.2,1.1-10.4-3-14.6C86.9,49.6,78.7,48.8,75,46.1z"/>
	<path class="st5" d="M88,54.8c-3-3.7-8.4-4.2-12-1.3c-0.7,0.6-1.3,1.2-1.7,1.9c-0.9,1.4,1.2,2,1.9,1.8c2.3-0.8,4.9-0.1,6.5,1.9
		c1.5,1.9,1.7,4.5,0.6,6.5c-0.4,0.7-0.4,3.1,1.1,2.5c0.8-0.3,1.7-0.8,2.4-1.4C90.4,63.9,91,58.5,88,54.8z"/>
	<path class="st5" d="M76.7,67.5c-0.5,0.4-1.2,0.3-1.6-0.2L73,64.7c-0.4-0.5-0.3-1.2,0.2-1.6l8.2-6.6c0.5-0.4,1.2-0.3,1.6,0.2
		l2.1,2.6c0.4,0.5,0.3,1.2-0.2,1.6L76.7,67.5z"/>
	<path class="st6" d="M84.1,67.5c2.3-2.7,2.5-6.8,0.1-9.6c-2.3-2.9-6.3-3.6-9.4-1.9c0.4,0.6,1.5,0.9,2,0.8c2.3-0.8,4.9-0.1,6.5,1.9
		c1.5,1.9,1.7,4.5,0.6,6.5C83.7,65.6,83.6,66.9,84.1,67.5z"/>
	<path class="st7" d="M83.9,69L83.9,69c-0.6,0-1.2-0.3-1.5-0.9c-0.6-1-0.4-2.6,0-3.3c0.2-0.4,0.4-0.9,0.5-1.4l-5.5,4.5
		c-0.9,0.7-2.3,0.6-3-0.3L72.3,65c-0.7-0.9-0.6-2.3,0.3-3.1l5.4-4.5c-0.5,0-1.1,0.1-1.6,0.3c-0.2,0.1-0.4,0.1-0.6,0.1
		c-0.7,0-2.1-0.4-2.6-1.4c-0.2-0.4-0.4-1.2,0.2-2.1c0.5-0.8,1.2-1.6,2-2.2c1.7-1.4,3.8-2.2,6-2.2c2.9,0,5.6,1.3,7.4,3.6
		c3.3,4.2,2.7,10.3-1.4,13.7c-0.8,0.7-1.7,1.2-2.7,1.6C84.4,68.9,84.2,69,83.9,69z M83.8,60.3c0.1,0,0.2,0,0.3,0.1
		c0.3,0.1,0.6,0.4,0.6,0.8c0.3,1.6,0.1,3.3-0.7,4.7C84,66,84,66.6,84.1,66.9c0.8-0.3,1.4-0.7,2-1.2c3.2-2.7,3.7-7.5,1.1-10.8
		c-1.4-1.8-3.6-2.9-5.9-2.9c-1.7,0-3.4,0.6-4.7,1.7c-0.6,0.5-1.1,1.1-1.5,1.7c0,0,0,0,0,0.1c0.1,0.1,0.5,0.3,0.8,0.3
		c1.5-0.5,3.3-0.5,4.8,0.2c0.3,0.1,0.6,0.4,0.6,0.8c0.1,0.4-0.1,0.7-0.4,0.9l-7.1,5.8c-0.1,0-0.1,0.1,0,0.2l2.1,2.6
		c0,0,0.1,0.1,0.1,0.1l7.2-5.9C83.4,60.4,83.6,60.3,83.8,60.3z"/>
	<path class="st1" d="M87.1,62.4c-0.1,0-0.2,0-0.3,0c-0.5-0.2-0.8-0.7-0.7-1.2c0.8-2.7-1.4-4.7-1.5-4.8c-0.4-0.4-0.4-1-0.1-1.4
		c0.4-0.4,1-0.4,1.4-0.1c0.1,0.1,3.3,3,2.1,6.9C88,62.1,87.6,62.4,87.1,62.4z"/>
	<path class="st5" d="M48.4,67.8c-4.7,0.4-8.2,4.6-7.8,9.3c0.1,0.9,0.3,1.7,0.6,2.5c0.6,1.5,2.4,0.1,2.6-0.6
		c0.6-2.3,2.7-4.1,5.2-4.4c2.4-0.2,4.7,1.1,5.8,3.1c0.4,0.7,2.3,2.1,2.7,0.5c0.2-0.9,0.3-1.8,0.2-2.7C57.2,70.8,53.1,67.3,48.4,67.8
		z"/>
	<path class="st5" d="M52.6,84.2c0.1,0.6-0.4,1.2-1,1.2l-3.3,0.3c-0.6,0.1-1.2-0.4-1.2-1l-0.9-10.5c-0.1-0.6,0.4-1.2,1-1.2l3.3-0.3
		c0.6-0.1,1.2,0.4,1.2,1L52.6,84.2z"/>
	<path class="st6" d="M56.7,78.1c-1-3.4-4.2-5.8-7.9-5.5c-3.7,0.3-6.5,3.2-6.8,6.8c0.7,0.1,1.6-0.8,1.7-1.2c0.6-2.3,2.7-4.1,5.2-4.4
		c2.4-0.2,4.7,1.1,5.8,3.1C54.9,77.3,56,78.2,56.7,78.1z"/>
	<path class="st7" d="M48.5,86c-1.1,0-2-0.8-2.1-1.9l-0.6-6.6c-0.3,0.4-0.5,0.9-0.6,1.4c-0.2,0.9-1.5,1.9-2.6,1.9
		c-0.8,0-1.5-0.5-1.8-1.2c-0.4-0.9-0.6-1.8-0.7-2.7c-0.5-5,3.4-9.4,8.6-9.8c5.3-0.5,9.8,3.3,10.3,8.2c0.1,1,0,2-0.2,2.9
		c-0.2,0.9-0.9,1.4-1.8,1.4h0c-1.2,0-2.4-1-2.8-1.7c-0.2-0.4-0.5-0.8-0.9-1.1l0.6,6.7c0,0.5-0.1,1.1-0.5,1.5
		c-0.4,0.4-0.9,0.7-1.4,0.7L48.7,86C48.6,86,48.6,86,48.5,86z M46.6,74.5c0.1,0,0.3,0,0.4,0.1c0.3,0.1,0.5,0.4,0.6,0.8l0.8,8.6
		c0,0.1,0.1,0.1,0.1,0.1l3.3-0.3c0,0,0.1,0,0.1,0c0,0,0-0.1,0-0.1L51.2,75c0-0.3,0.1-0.7,0.4-0.9c0.3-0.2,0.7-0.2,1-0.1
		c1.5,0.6,2.7,1.6,3.4,3c0.1,0.2,0.6,0.5,0.9,0.6c0.2-0.8,0.2-1.5,0.2-2.2c-0.4-3.9-4-6.9-8.1-6.5c-4.1,0.3-7.2,3.8-6.8,7.8
		c0.1,0.7,0.2,1.4,0.5,2.1c0,0,0,0,0,0.1c0.2-0.1,0.6-0.3,0.7-0.5c0.4-1.5,1.4-2.8,2.8-3.7C46.2,74.6,46.4,74.5,46.6,74.5z"/>
	<path class="st1" d="M53.4,73.2c-0.3,0-0.6-0.1-0.8-0.4c-1.8-2.2-4.7-1.4-4.9-1.4c-0.5,0.1-1.1-0.2-1.2-0.7
		c-0.1-0.5,0.2-1.1,0.7-1.2c0.2,0,4.3-1.1,6.9,2.1c0.4,0.4,0.3,1.1-0.1,1.4C53.8,73.1,53.6,73.2,53.4,73.2z"/>
	<path class="st8" d="M71.8,69.1c-2.4-1.8-5.9-1.3-7.7,1.1c-1.8,2.4-1.3,5.9,1.1,7.7c2.4,1.8,5.9,1.3,7.7-1.1
		C74.7,74.4,74.2,70.9,71.8,69.1z M70.8,75.3c-1,1.3-2.8,1.6-4.1,0.6c-1.3-1-1.6-2.8-0.6-4.1c1-1.3,2.8-1.6,4.1-0.6
		C71.6,72.1,71.8,74,70.8,75.3z"/>
	<ellipse transform="matrix(0.6 -0.8 0.8 0.6 -16.831 68.0107)" class="st9" cx="59.6" cy="50.8" rx="10.9" ry="10.9"/>
	<path class="st7" d="M60,63c-2.6,0-5.1-0.9-7.2-2.5c-5.3-4.1-6.4-12-2.4-17.5c2.3-3.2,5.8-5,9.6-5c2.6,0,5.1,0.9,7.2,2.5
		c5.3,4.1,6.4,12,2.4,17.5C67.3,61.2,63.8,63,60,63z M60,40.1c-3.2,0-6.1,1.5-8,4.2c-3.3,4.6-2.4,11.1,2,14.6c1.7,1.4,3.8,2.1,6,2.1
		c3.2,0,6.1-1.5,8-4.2c3.3-4.6,2.4-11.1-2-14.6C64.3,40.8,62.2,40.1,60,40.1z"/>
	<ellipse transform="matrix(0.6002 -0.7998 0.7998 0.6002 -15.0051 64.9798)" class="st1" cx="57.5" cy="47.5" rx="1.5" ry="1.5"/>
	<ellipse transform="matrix(0.6004 -0.7997 0.7997 0.6004 -17.2099 71.5568)" class="st1" cx="63" cy="53" rx="1" ry="1"/>
	<ellipse transform="matrix(0.5999 -0.8001 0.8001 0.5999 -20.5986 65.8089)" class="st1" cx="55.5" cy="53.5" rx="1.5" ry="1.5"/>
	<path class="st10" d="M67.8,37.9c4.9,0.9,8,6.1,8,6.1s-4.7,3.8-9.6,3c-4.9-0.9-8-6.1-8-6.1S62.9,37,67.8,37.9z"/>
	<path class="st11" d="M65.3,44.8c-2.9-0.7-5.3-2.3-7-3.8c0.6,0.9,3.6,5.1,7.9,5.9c4.9,0.9,9.6-3,9.6-3s0-0.1-0.1-0.1
		C73.4,44.6,69.4,45.7,65.3,44.8z"/>
	<path class="st7" d="M67.7,48c-0.6,0-1.1,0-1.7-0.1c-5.4-0.9-8.7-6.2-8.9-6.4c-0.3-0.4-0.2-1,0.2-1.3c0.2-0.1,4.2-3.2,8.9-3.2
		c0.6,0,1.1,0,1.7,0.1c5.4,0.9,8.7,6.2,8.9,6.4c0.3,0.4,0.2,1-0.2,1.3C76.4,44.9,72.4,48,67.7,48z M59.4,41.2
		c1.1,1.4,3.6,4.2,6.9,4.7c0.4,0.1,0.9,0.1,1.3,0.1c2.9,0,5.6-1.5,6.9-2.3c-1.1-1.4-3.6-4.2-6.9-4.7C67.2,39,66.8,39,66.3,39
		C63.4,39,60.7,40.4,59.4,41.2z"/>
	<path class="st12" d="M70.5,42.8c-0.2,0-0.4-0.1-0.6-0.2c-3.2-2.4-7.5-0.4-7.5-0.4c-0.5,0.2-1.1,0-1.3-0.5c-0.2-0.5,0-1.1,0.5-1.3
		c0.2-0.1,5.4-2.6,9.6,0.6c0.4,0.3,0.5,1,0.2,1.4C71.1,42.7,70.8,42.8,70.5,42.8z"/>
	<path class="st10" d="M49.5,90.4c-4.4,2.1-10-0.2-10-0.2s1.6-5.9,6.1-8c4.4-2.1,10,0.2,10,0.2S53.9,88.2,49.5,90.4z"/>
	<path class="st11" d="M47.5,83.3c2.7-1.1,5.6-1.2,7.9-1c-1-0.4-5.9-2.1-9.8-0.2c-4.4,2.1-6.1,8-6.1,8s0.1,0,0.2,0.1
		C40.9,88.2,43.6,84.9,47.5,83.3z"/>
	<path class="st7" d="M45.1,92c-3.4,0-6.4-1.2-6.5-1.2c-0.5-0.2-0.7-0.7-0.6-1.2c0.1-0.3,1.9-6.3,6.9-8.6c1.4-0.7,3.1-1,4.9-1
		c3.4,0,6.4,1.2,6.5,1.2c0.5,0.2,0.7,0.7,0.6,1.2c-0.1,0.3-1.9,6.3-6.9,8.6C48.6,91.7,47,92,45.1,92z M40.4,89.3
		c1,0.3,2.8,0.7,4.7,0.7c1.5,0,2.9-0.3,4-0.8c3.1-1.4,4.8-4.9,5.5-6.5c-1-0.3-2.8-0.7-4.7-0.7c-1.5,0-2.9,0.3-4,0.8
		C42.7,84.2,41,87.7,40.4,89.3z"/>
	<path class="st12" d="M45.1,89.7c0,0-0.1,0-0.1,0c-0.6,0-1-0.5-1-1c0-0.5,0.5-1,1-1c0,0,0.1,0,0.1,0c3.9,0,6.2-4.1,6.2-4.1
		c0.3-0.5,0.9-0.7,1.4-0.4c0.5,0.3,0.7,0.9,0.4,1.4C53,84.8,50.3,89.7,45.1,89.7z"/>
	<path class="st7" d="M64.5,113.8c-2,0-3.5-1.8-3.5-4V96c0-1.1-0.7-2-1.5-2C58.7,94,58,95,58,96v3.1c0,2.2-1.6,4-3.6,4
		c-2,0-3.4-1.7-3.4-4v-4.1c-1.5,0.7-3.1,1.5-4.6,2.2c-5.2,2.3-9.7,2.1-11.9-0.7c-1.5-1.8-1.9-4.7-1.2-8.2c0.1-0.6,12.3-58.6,14-64.1
		c2.1-6.4,6.1-9.1,11.8-7.6c6,1.5,18.4,7.5,26.8,13.8c8.2,6.1,17.8,16.9,20.2,21.1c3.3,5.7,1.9,11.4-3.9,15.3
		c-2.5,1.7-10.7,6.3-24.2,13.7v20.3c0,2.3-1.4,4-3.4,4c-2,0-3.6-1.8-3.6-4v-5.2c0-1.1-0.7-2-1.4-2c-0.7,0-1.6,0.9-1.6,2v14.2
		C68,112,66.5,113.8,64.5,113.8z M59.5,92c1.9,0,3.4,1.8,3.4,4v13.8c0,1.1,0.7,2,1.6,2c0.8,0,1.5-0.9,1.5-2V95.6c0-2.2,1.6-4,3.6-4
		c1.9,0,3.4,1.8,3.4,4v5.2c0,1.1,0.7,2,1.6,2c0.9,0,1.4-1,1.4-2V79.9c0-0.4,0.2-0.7,0.5-0.9c13.6-7.4,22.1-12.3,24.6-13.9
		c6.7-4.4,4.9-9.8,3.3-12.6c-2.3-4-11.8-14.6-19.7-20.5c-8.1-6.1-20.3-12-26-13.4c-4.6-1.2-7.6,0.9-9.4,6.3
		c-1.5,4.6-11.4,51.5-14,63.8c-0.6,2.9-0.3,5.2,0.8,6.5c0.8,1,2.1,1.5,3.9,1.5c1.6,0,3.6-0.5,5.7-1.4c2.1-0.9,4.1-1.9,6-2.9
		c0.3-0.2,0.7-0.1,1,0c0.3,0.2,0.5,0.5,0.5,0.9v5.7c0,1,0.5,2,1.4,2c0.9,0,1.6-0.9,1.6-2V96C56,93.8,57.6,92,59.5,92z"/>
	<path class="st12" d="M74,97.7c-0.6,0-1-0.4-1-1V81c0-0.6,0.4-1,1-1c0.6,0,1,0.4,1,1v15.7C75,97.2,74.6,97.7,74,97.7z"/>
	<path class="st12" d="M64,105.6c-0.6,0-1-0.4-1-1v-11c0-3.5,4.2-5.4,5.9-5.4c0.6,0,1,0.4,1,1s-0.4,1-1,1c-0.9,0-3.9,1.2-3.9,3.4v11
		C65,105.2,64.6,105.6,64,105.6z"/>
	<path class="st12" d="M61.9,89.7c-0.6,0-1-0.4-1-1c0-2.2-1.5-2.3-1.7-2.3c-0.6,0-1-0.5-1-1c0-0.6,0.5-1,1-1c1.3,0,3.6,1,3.6,4.3
		C62.9,89.3,62.5,89.7,61.9,89.7z"/>
	<path class="st1" d="M102.9,54.9c-0.3,0-0.6-0.2-0.8-0.5c-7.8-11.9-20.1-20.6-29-25.7c-0.5-0.3-0.6-0.9-0.4-1.4
		c0.3-0.5,0.9-0.6,1.4-0.4c9.1,5.3,21.6,14.1,29.6,26.3c0.3,0.5,0.2,1.1-0.3,1.4C103.3,54.8,103.1,54.9,102.9,54.9z"/>
	<path class="st1" d="M69,26.3c-0.2,0-0.3,0-0.5-0.1c-6.2-3.2-10.7-4.9-10.7-4.9c-0.5-0.2-0.8-0.8-0.6-1.3c0.2-0.5,0.8-0.8,1.3-0.6
		c0.2,0.1,4.6,1.7,10.9,5c0.5,0.3,0.7,0.9,0.4,1.4C69.7,26.1,69.4,26.3,69,26.3z"/>
	<path class="st12" d="M60.5,66.4c-3.2,0-5.8-1.1-6-1.2c-0.5-0.2-0.7-0.8-0.5-1.3c0.2-0.5,0.8-0.7,1.3-0.5c0.1,0,7.3,3.1,11.4-1.6
		c0.4-0.4,1-0.5,1.4-0.1c0.4,0.4,0.5,1,0.1,1.4C65.9,65.6,63,66.4,60.5,66.4z"/>
	<path class="st12" d="M42.4,67.9c-0.2,0-0.5-0.1-0.7-0.3c-0.4-0.4-0.4-1,0-1.4c0.1-0.1,2.4-2.4,5.7-2.6c0.6,0,1,0.4,1,1
		c0,0.6-0.4,1-1,1c-2.5,0.1-4.3,1.9-4.3,1.9C42.9,67.8,42.6,67.9,42.4,67.9z"/>
</g>
</svg>
