<?xml version="1.0" encoding="utf-8"?>
<!-- Generator: Adobe Illustrator 21.0.2, SVG Export Plug-In . SVG Version: 6.00 Build 0)  -->
<svg version="1.1" id="quadrocopter" xmlns="http://www.w3.org/2000/svg" xmlns:xlink="http://www.w3.org/1999/xlink" x="0px"
	 y="0px" viewBox="0 0 128 128" style="enable-background:new 0 0 128 128;" xml:space="preserve">
<style type="text/css">
	.st0{fill:#28A5C6;}
	.st1{fill:#FFFFFF;}
	.st2{fill:#EAEAEA;}
	.st3{fill:#663210;}
	.st4{fill:#D4D6D6;}
	.st5{fill:#FBD000;}
	.st6{opacity:0.5;fill:#FFFFFF;}
</style>
<g>
	<circle class="st0" cx="64" cy="64" r="64"/>
	<path class="st1" d="M56,102c0-1.1-1.3-2-3-2H39.1c-1.7,0-3,0.9-3,2s-1.1,2-2.5,2c-1.4,0-2.5,0.9-2.5,2s1.3,2,3,2h10
		c1.7,0,3-0.9,3-2s1.3-2,3-2h3C54.7,104,56,103.1,56,102z"/>
	<path class="st1" d="M100,27.9c0-1.1-1-1.9-2.3-1.9h-1.9c-1.3,0-2.3-0.9-2.3-1.9c0-1-1-2.1-2.3-2.1H78.1c-1.3,0-2.3,1.1-2.3,2.1
		c0,1-1,1.9-2.3,1.9h-2.3C70,26,69,26.8,69,27.9c0,1.1,1,2,2.3,2h6.5c1.3,0,2.3,0.7,2.3,1.6s-1,1.6-2.3,1.6h-1.1
		c-1.3,0-2.3,0.9-2.3,2c0,1.1,1,2,2.3,2h6.3c1.3,0,2.3-0.8,2.3-1.8c0-1,1-1.8,2.3-1.8h0.8c1.3,0,2.3-0.8,2.3-1.8c0-1,1-1.8,2.3-1.8
		h4.9C99,29.9,100,29,100,27.9z"/>
	<rect x="20" y="57.1" class="st2" width="89" height="3.9"/>
	<path class="st2" d="M77,52c0,2.8-2.2,5-5,5H57c-2.8,0-5-2.2-5-5l0,0c0-2.8,2.2-5,5-5h15C74.8,47,77,49.2,77,52L77,52z"/>
	<path class="st3" d="M72,58H57c-3.3,0-6-2.7-6-6s2.7-6,6-6h15c3.3,0,6,2.7,6,6S75.3,58,72,58z M57,48c-2.2,0-4,1.8-4,4s1.8,4,4,4
		h15c2.2,0,4-1.8,4-4s-1.8-4-4-4H57z"/>
	<path class="st2" d="M55.4,60.2c1,0.5,1.4,1.7,1,2.7L44.5,88.2c-0.5,1-1.7,1.4-2.7,1l0,0c-1-0.5-1.4-1.7-1-2.7l11.9-25.4
		C53.2,60.1,54.4,59.7,55.4,60.2L55.4,60.2z"/>
	<path class="st2" d="M72.6,60.2c-1,0.5-1.4,1.7-1,2.7l11.9,25.4c0.5,1,1.7,1.4,2.7,1l0,0c1-0.5,1.4-1.7,1-2.7L75.3,61.1
		C74.8,60.1,73.6,59.7,72.6,60.2L72.6,60.2z"/>
	<path class="st3" d="M42.9,90c-0.4,0-0.9-0.1-1.2-0.3c-0.7-0.3-1.2-0.9-1.5-1.7c-0.3-0.7-0.2-1.6,0.1-2.3l11.7-25.1
		c0.5-1,1.5-1.7,2.7-1.7c0.4,0,0.9,0.1,1.2,0.3c0.7,0.3,1.2,0.9,1.5,1.7c0.3,0.7,0.2,1.6-0.1,2.3L45.6,88.3
		C45.1,89.3,44.1,90,42.9,90z M54.6,61c-0.4,0-0.7,0.2-0.9,0.6L42.1,86.6c-0.1,0.2-0.1,0.5,0,0.8c0.1,0.3,0.3,0.4,0.5,0.6
		c0.5,0.2,1.1,0,1.3-0.5l11.7-25.1c0.1-0.2,0.1-0.5,0-0.8c-0.1-0.2-0.3-0.4-0.5-0.6C54.9,61,54.7,61,54.6,61z"/>
	<path class="st3" d="M85.1,90L85.1,90c-1.1,0-2.2-0.7-2.7-1.7L70.7,63.2c-0.3-0.7-0.4-1.5-0.1-2.3c0.3-0.7,0.8-1.3,1.5-1.7
		c0.4-0.2,0.8-0.3,1.2-0.3c1.1,0,2.2,0.7,2.7,1.7l11.7,25.1c0.3,0.7,0.4,1.5,0.1,2.3c-0.3,0.7-0.8,1.3-1.5,1.7
		C85.9,89.9,85.5,90,85.1,90z M73.4,61c-0.1,0-0.3,0-0.4,0.1c-0.2,0.1-0.4,0.3-0.5,0.6c-0.1,0.2-0.1,0.5,0,0.8l11.7,25.1
		c0.2,0.5,0.8,0.7,1.3,0.5c0.2-0.1,0.4-0.3,0.5-0.6c0.1-0.2,0.1-0.5,0-0.8L74.3,61.5C74.1,61.2,73.8,61,73.4,61z"/>
	<path class="st3" d="M109,61.9H20c-0.6,0-1-0.4-1-1V57c0-0.6,0.4-1,1-1h89c0.6,0,1,0.4,1,1v3.9C110,61.5,109.6,61.9,109,61.9z
		 M21,60h87v-2H21V60z"/>
	<path class="st2" d="M21,54c0,1.6-0.9,3-2,3c-1.1,0-2-1.4-2-3v-7c0-1.6,0.9-3,2-3c1.1,0,2,1.4,2,3V54z"/>
	<path class="st3" d="M19,58c-1.7,0-3-1.8-3-4v-7c0-2.2,1.3-4,3-4c1.7,0,3,1.8,3,4v7C22,56.2,20.7,58,19,58z M19,45
		c-0.4,0-1,0.8-1,2v7c0,1.2,0.6,2,1,2c0.4,0,1-0.8,1-2v-7C20,45.8,19.4,45,19,45z"/>
	<path class="st2" d="M85,60.5c0,4.1-3.6,7.5-8,7.5H52c-4.4,0-8-3.4-8-7.5s3.6-7.5,8-7.5h25C81.4,53,85,56.4,85,60.5z"/>
	<path class="st2" d="M24,60c0,3.3-2.2,6-5,6s-5-2.7-5-6v-1c0-3.3,2.2-6,5-6s5,2.7,5,6V60z"/>
	<ellipse class="st2" cx="8.5" cy="45.5" rx="7.5" ry="2.5"/>
	<ellipse class="st2" cx="29.5" cy="45.5" rx="7.5" ry="2.5"/>
	<path class="st2" d="M111,54c0,1.6-0.9,3-2,3c-1.1,0-2-1.4-2-3v-7c0-1.6,0.9-3,2-3c1.1,0,2,1.4,2,3V54z"/>
	<path class="st3" d="M109,58c-1.7,0-3-1.8-3-4v-7c0-2.2,1.3-4,3-4c1.7,0,3,1.8,3,4v7C112,56.2,110.7,58,109,58z M109,45
		c-0.4,0-1,0.8-1,2v7c0,1.2,0.6,2,1,2c0.4,0,1-0.8,1-2v-7C110,45.8,109.4,45,109,45z"/>
	<path class="st2" d="M114,60c0,3.3-2.2,6-5,6s-5-2.7-5-6v-1c0-3.3,2.2-6,5-6s5,2.7,5,6V60z"/>
	<ellipse class="st2" cx="98.5" cy="45.5" rx="7.5" ry="2.5"/>
	<ellipse class="st2" cx="119.5" cy="45.5" rx="7.5" ry="2.5"/>
	<path class="st4" d="M19,62c-2.3,0-4.3-1.9-4.8-4.5C14.1,58,14,58.5,14,59v1c0,3.3,2.2,6,5,6s5-2.7,5-6v-1c0-0.5-0.1-1-0.2-1.5
		C23.3,60.1,21.3,62,19,62z"/>
	<path class="st4" d="M109,62c-2.3,0-4.3-1.9-4.8-4.5c-0.1,0.5-0.2,1-0.2,1.5v1c0,3.3,2.2,6,5,6s5-2.7,5-6v-1c0-0.5-0.1-1-0.2-1.5
		C113.3,60.1,111.3,62,109,62z"/>
	<path class="st4" d="M77,62H52c-3.3,0-6.1-1.9-7.3-4.5c-0.4,0.9-0.7,1.9-0.7,3c0,4.1,3.6,7.5,8,7.5h25c4.4,0,8-3.4,8-7.5
		c0-1.1-0.2-2.1-0.7-3C83.1,60.1,80.3,62,77,62z"/>
	<path class="st3" d="M77,69H52c-5,0-9-3.8-9-8.5c0-4.7,4-8.5,9-8.5h25c5,0,9,3.8,9,8.5C86,65.2,82,69,77,69z M52,54
		c-3.9,0-7,2.9-7,6.5s3.1,6.5,7,6.5h25c3.9,0,7-2.9,7-6.5S80.9,54,77,54H52z"/>
	<path class="st3" d="M19,67c-3.3,0-6-3.1-6-7v-1c0-3.9,2.7-7,6-7c3.3,0,6,3.1,6,7v1C25,63.9,22.3,67,19,67z M19,54
		c-2.2,0-4,2.2-4,5v1c0,2.8,1.8,5,4,5c2.2,0,4-2.2,4-5v-1C23,56.2,21.2,54,19,54z"/>
	<path class="st3" d="M109,67c-3.3,0-6-3.1-6-7v-1c0-3.9,2.7-7,6-7c3.3,0,6,3.1,6,7v1C115,63.9,112.3,67,109,67z M109,54
		c-2.2,0-4,2.2-4,5v1c0,2.8,1.8,5,4,5c2.2,0,4-2.2,4-5v-1C113,56.2,111.2,54,109,54z"/>
	<path class="st3" d="M8.5,49C4.4,49,0,47.9,0,45.5S4.4,42,8.5,42c4.1,0,8.5,1.1,8.5,3.5S12.6,49,8.5,49z M8.5,44
		c-4.2,0-6.3,1.1-6.5,1.5C2.2,45.9,4.3,47,8.5,47c4.2,0,6.3-1.1,6.5-1.5C14.8,45.1,12.7,44,8.5,44z"/>
	<path class="st3" d="M29.5,49c-4.1,0-8.5-1.1-8.5-3.5s4.4-3.5,8.5-3.5c4.1,0,8.5,1.1,8.5,3.5S33.6,49,29.5,49z M29.5,44
		c-4.2,0-6.3,1.1-6.5,1.5c0.2,0.4,2.3,1.5,6.5,1.5c4.2,0,6.3-1.1,6.5-1.5C35.8,45.1,33.7,44,29.5,44z"/>
	<path class="st3" d="M98.5,49c-4.1,0-8.5-1.1-8.5-3.5s4.4-3.5,8.5-3.5c4.1,0,8.5,1.1,8.5,3.5S102.6,49,98.5,49z M98.5,44
		c-4.2,0-6.3,1.1-6.5,1.5c0.2,0.4,2.4,1.5,6.5,1.5c4.2,0,6.3-1.1,6.5-1.5C104.8,45.1,102.7,44,98.5,44z"/>
	<path class="st3" d="M119.5,49c-4.1,0-8.5-1.1-8.5-3.5s4.4-3.5,8.5-3.5c4.1,0,8.5,1.1,8.5,3.5S123.6,49,119.5,49z M119.5,44
		c-4.2,0-6.3,1.1-6.5,1.5c0.2,0.4,2.4,1.5,6.5,1.5c4.2,0,6.3-1.1,6.5-1.5C125.8,45.1,123.7,44,119.5,44z"/>
	<path class="st1" d="M78,58h-5c-0.6,0-1-0.4-1-1s0.4-1,1-1h5c0.6,0,1,0.4,1,1S78.6,58,78,58z"/>
	<path class="st1" d="M68,58H52c-0.6,0-1-0.4-1-1s0.4-1,1-1h16c0.6,0,1,0.4,1,1S68.6,58,68,58z"/>
	<path class="st1" d="M72,51H57c-0.6,0-1-0.4-1-1s0.4-1,1-1h15c0.6,0,1,0.4,1,1S72.6,51,72,51z"/>
	<path class="st1" d="M111,60c-0.6,0-1-0.4-1-1c0-1.3-1.4-2.1-1.5-2.1c-0.5-0.3-0.7-0.9-0.4-1.3c0.2-0.5,0.8-0.7,1.3-0.4
		c0.1,0.1,2.6,1.3,2.6,3.9C112,59.6,111.6,60,111,60z"/>
	<path class="st1" d="M21,60c-0.6,0-1-0.4-1-1c0-1.3-1.4-2.1-1.5-2.1c-0.5-0.3-0.7-0.9-0.4-1.3c0.2-0.5,0.8-0.7,1.3-0.4
		c0.1,0.1,2.6,1.3,2.6,3.9C22,59.6,21.6,60,21,60z"/>
	<path class="st5" d="M46,21.7c0,4.8-3.9,9.3-8.7,9.3S28,26.5,28,21.7c0-4.8,4.5-8.7,9.3-8.7S46,16.9,46,21.7z"/>
	<path class="st6" d="M86,109.1c0-0.4-0.4-0.8-1-0.9l-1.9-0.3c-0.5-0.1-1.1-0.6-1.1-1.1l-0.3-1.9c-0.1-0.5-0.5-1-0.9-1
		c-0.4,0-0.8,0.4-0.9,1l-0.3,1.9c-0.1,0.5-0.6,1.1-1.1,1.1l-1.9,0.3c-0.5,0.1-1,0.5-1,0.9c0,0.4,0.4,0.8,1,0.9l1.9,0.3
		c0.5,0.1,1.1,0.6,1.1,1.1l0.3,1.9c0.1,0.5,0.5,1,0.9,1c0.4,0,0.8-0.4,0.9-1l0.3-2.1c0.1-0.5,0.6-1,1.1-1.1l1.8-0.1
		C85.6,109.9,86,109.5,86,109.1z"/>
	<path class="st6" d="M26.3,79.1c0-0.4-0.4-0.8-1-0.9L23.4,78c-0.5-0.1-1.1-0.6-1.1-1.1L22,75c-0.1-0.5-0.5-1-0.9-1s-0.8,0.4-0.9,1
		L20,76.8c-0.1,0.5-0.6,1.1-1.1,1.1L17,78.3c-0.5,0.1-1,0.5-1,0.9c0,0.4,0.4,0.8,1,0.9l1.9,0.3c0.5,0.1,1.1,0.6,1.1,1.1l0.3,1.9
		c0.1,0.5,0.5,1,0.9,1s0.8-0.4,0.9-1l0.3-2.1c0.1-0.5,0.6-1,1.1-1.1l1.8-0.1C25.8,79.9,26.3,79.5,26.3,79.1z"/>
	<path class="st6" d="M100,86c-2.2,0-4-1.8-4-4c0-2.2,1.8-4,4-4c2.2,0,4,1.8,4,4C104,84.2,102.2,86,100,86z M100,79.9
		c-1.2,0-2.1,1-2.1,2.1c0,1.2,1,2.1,2.1,2.1c1.2,0,2.1-1,2.1-2.1C102.1,80.8,101.2,79.9,100,79.9z"/>
</g>
</svg>
