<?xml version="1.0" encoding="utf-8"?>
<!-- Generator: Adobe Illustrator 21.0.2, SVG Export Plug-In . SVG Version: 6.00 Build 0)  -->
<svg version="1.1" id="safe" xmlns="http://www.w3.org/2000/svg" xmlns:xlink="http://www.w3.org/1999/xlink" x="0px" y="0px"
	 viewBox="0 0 128 128" style="enable-background:new 0 0 128 128;" xml:space="preserve">
<style type="text/css">
	.st0{fill:#FF4848;}
	.st1{fill:#074370;}
	.st2{fill:#3AD0F9;}
	.st3{fill:#00B3F9;}
	.st4{fill:#FFFFFF;}
	.st5{opacity:0.5;fill:#FFFFFF;}
</style>
<g>
	<circle class="st0" cx="64" cy="64" r="64"/>
	<path class="st1" d="M118.7,106H11.6c-0.6,0-1-0.4-1-1s0.4-1,1-1h107.1c0.6,0,1,0.4,1,1S119.2,106,118.7,106z"/>
	<path class="st2" d="M53.5,103c0,1.1-0.9,2-2,2H40.3c-1.1,0-2-0.9-2-2v-8.5c0-1.1,0.9-2,2-2h11.2c1.1,0,2,0.9,2,2V103z"/>
	<path class="st2" d="M91.5,103c0,1.1-0.9,2-2,2H78.3c-1.1,0-2-0.9-2-2v-8.5c0-1.1,0.9-2,2-2h11.2c1.1,0,2,0.9,2,2V103z"/>
	<rect x="38.7" y="99.5" class="st3" width="14.3" height="2.3"/>
	<rect x="76.7" y="99.5" class="st3" width="14.3" height="2.3"/>
	<path class="st1" d="M52,106H40c-1.7,0-3-1.3-3-3v-8.5c0-1.7,1.3-3,3-3h12c1.7,0,3,1.3,3,3v8.5C55,104.7,53.7,106,52,106z M40,93.5
		c-0.6,0-1,0.4-1,1v8.5c0,0.6,0.4,1,1,1h12c0.6,0,1-0.4,1-1v-8.5c0-0.6-0.4-1-1-1H40z"/>
	<path class="st1" d="M90,106H78c-1.7,0-3-1.3-3-3v-8.5c0-1.7,1.3-3,3-3h12c1.7,0,3,1.3,3,3v8.5C93,104.7,91.7,106,90,106z M78,93.5
		c-0.6,0-1,0.4-1,1v8.5c0,0.6,0.4,1,1,1h12c0.6,0,1-0.4,1-1v-8.5c0-0.6-0.4-1-1-1H78z"/>
	<path class="st2" d="M103.3,91c0,4.4-3.6,8-8,8h-60c-4.4,0-8-3.6-8-8V34.3c0-4.4,3.6-8,8-8h60c4.4,0,8,3.6,8,8V91z"/>
	<path class="st2" d="M95.3,85.3c0,3.3-2.7,6-6,6H44.6c-3.3,0-6-2.7-6-6V40c0-3.3,2.7-6,6-6h44.7c3.3,0,6,2.7,6,6V85.3z"/>
	<path class="st3" d="M89.3,87H44.6c-3.3,0-6-2.7-6-6v3.5c0,3.3,2.7,6,6,6h44.7c3.3,0,6-2.7,6-6V81C95.3,84.3,92.6,87,89.3,87z"/>
	<path class="st3" d="M95.3,94h-60c-4.4,0-8-3.6-8-8v4.5c0,4.4,3.6,8,8,8h60c4.4,0,8-3.6,8-8V86C103.3,90.4,99.7,94,95.3,94z"/>
	<path class="st1" d="M89,92H45c-3.9,0-7-3.1-7-7V40c0-3.9,3.1-7,7-7h44c3.9,0,7,3.1,7,7v45C96,88.9,92.9,92,89,92z M45,35
		c-2.8,0-5,2.2-5,5v45c0,2.8,2.2,5,5,5h44c2.8,0,5-2.2,5-5V40c0-2.8-2.2-5-5-5H45z"/>
	<path class="st3" d="M88.2,76C87,76,86,75.1,86,74v-8.7c0-1.1,1-2,2.2-2h0.6c1.2,0,2.2,0.9,2.2,2V74c0,1.1-1,2-2.2,2H88.2z"/>
	<ellipse class="st3" cx="66.5" cy="67.5" rx="14.5" ry="14.5"/>
	<path class="st2" d="M38.4,52.3c-1.1,0-2-0.9-2-2v-5.8c0-1.1,0.9-2,2-2h1c1.1,0,2,0.9,2,2v5.8c0,1.1-0.9,2-2,2H38.4z"/>
	<path class="st2" d="M88.4,73.1c-1.1,0-2-0.9-2-2v-8.5c0-1.1,0.9-2,2-2h0.5c1.1,0,2,0.9,2,2v8.5c0,1.1-0.9,2-2,2H88.4z"/>
	<path class="st2" d="M38.4,82.8c-1.1,0-2-0.9-2-2V75c0-1.1,0.9-2,2-2h1c1.1,0,2,0.9,2,2v5.8c0,1.1-0.9,2-2,2H38.4z"/>
	<circle class="st2" cx="66.8" cy="63.5" r="14.4"/>
	<circle class="st3" cx="67" cy="66" r="7"/>
	<circle class="st2" cx="66.8" cy="63.5" r="7.3"/>
	<path class="st1" d="M67,56.6c-0.6,0-1-0.5-1-1.1v-2.4c0-0.6,0.4-1.1,1-1.1c0.6,0,1,0.5,1,1.1v2.4C68,56.1,67.6,56.6,67,56.6z"/>
	<path class="st1" d="M67,73c-0.6,0-1-0.4-1-0.9v-2.1c0-0.5,0.4-0.9,1-0.9c0.6,0,1,0.4,1,0.9v2.1C68,72.6,67.6,73,67,73z"/>
	<path class="st1" d="M76.9,64h-2.4c-0.6,0-1.1-0.4-1.1-1s0.5-1,1.1-1h2.4c0.6,0,1.1,0.4,1.1,1S77.5,64,76.9,64z"/>
	<path class="st1" d="M59.2,64H57c-0.6,0-1-0.4-1-1s0.4-1,1-1h2.2c0.6,0,1,0.4,1,1S59.8,64,59.2,64z"/>
	<path class="st1" d="M74,71c-0.3,0-0.5-0.1-0.7-0.3l-1.6-1.5c-0.4-0.4-0.4-1,0-1.3c0.4-0.4,1.1-0.4,1.5,0l1.6,1.5
		c0.4,0.4,0.4,1,0,1.3C74.5,70.9,74.2,71,74,71z"/>
	<path class="st1" d="M61.5,58.9c-0.2,0-0.5-0.1-0.7-0.3l-1.5-1.7c-0.4-0.4-0.4-1.1,0-1.5c0.4-0.4,1-0.4,1.4,0l1.5,1.7
		c0.4,0.4,0.4,1.1,0,1.5C62,58.8,61.7,58.9,61.5,58.9z"/>
	<path class="st1" d="M60,71c-0.2,0-0.5-0.1-0.7-0.3c-0.4-0.4-0.4-1,0-1.3l1.5-1.5c0.4-0.4,1-0.4,1.4,0c0.4,0.4,0.4,1,0,1.3
		l-1.5,1.5C60.5,70.9,60.2,71,60,71z"/>
	<path class="st1" d="M72.3,58.9c-0.3,0-0.5-0.1-0.7-0.3c-0.4-0.4-0.4-1.1,0-1.5l1.7-1.7c0.4-0.4,1.1-0.4,1.5,0s0.4,1.1,0,1.5
		L73,58.6C72.8,58.8,72.6,58.9,72.3,58.9z"/>
	<path class="st1" d="M95,100H35c-5,0-9-4-9-9V34c0-5,4-9,9-9h60c5,0,9,4,9,9v57C104,96,100,100,95,100z M35,27c-3.9,0-7,3.1-7,7v57
		c0,3.9,3.1,7,7,7h60c3.9,0,7-3.1,7-7V34c0-3.9-3.1-7-7-7H35z"/>
	<path class="st1" d="M40,53h-2c-1.7,0-3-1.3-3-3v-6c0-1.7,1.3-3,3-3h2c1.7,0,3,1.3,3,3v6C43,51.7,41.7,53,40,53z M38,43
		c-0.6,0-1,0.4-1,1v6c0,0.6,0.4,1,1,1h2c0.6,0,1-0.4,1-1v-6c0-0.6-0.4-1-1-1H38z"/>
	<path class="st1" d="M40,84h-2c-1.7,0-3-1.3-3-3v-6c0-1.7,1.3-3,3-3h2c1.7,0,3,1.3,3,3v6C43,82.7,41.7,84,40,84z M38,74
		c-0.6,0-1,0.4-1,1v6c0,0.6,0.4,1,1,1h2c0.6,0,1-0.4,1-1v-6c0-0.6-0.4-1-1-1H38z"/>
	<path class="st1" d="M88,74c-1.6,0-3-1.3-3-3v-8c0-1.6,1.3-3,3-3h1c1.7,0,3,1.3,3,3v8c0,1.6-1.3,3-3,3L88,74C88,74,88,74,88,74z
		 M88,62c-0.6,0-1,0.4-1,1v8c0,0.5,0.4,1,1,1v1l0-1l1,0c0.6,0,1-0.5,1-1v-8c0-0.5-0.4-1-1-1H88z"/>
	<path class="st1" d="M66.8,79C58.2,79,51,71.9,51,63.5C51,55.1,58.2,48,66.8,48C75.2,48,82,54.9,82,63.5C82,72,75.2,79,66.8,79z
		 M66.8,50C59.3,50,53,56.2,53,63.5C53,70.8,59.3,77,66.8,77C74.1,77,80,70.9,80,63.5C80,56,74.1,50,66.8,50z"/>
	<path class="st1" d="M67,71c-4.4,0-8-3.6-8-8c0-4.4,3.6-8,8-8c4.4,0,8,3.6,8,8C75,67.4,71.4,71,67,71z M67,56.9
		c-3.3,0-6.1,2.7-6.1,6.1c0,3.3,2.7,6.1,6.1,6.1s6.1-2.7,6.1-6.1C73.1,59.7,70.3,56.9,67,56.9z"/>
	<path class="st4" d="M69,67c-0.2,0-0.5-0.1-0.7-0.3c-0.4-0.4-0.4-1,0-1.3c1-1,1-2.7,0-3.7c-1-1-2.7-1-3.7,0c-0.4,0.4-1,0.4-1.3,0
		c-0.4-0.4-0.4-1,0-1.3c1.8-1.8,4.6-1.8,6.4,0c1.8,1.8,1.8,4.6,0,6.4C69.5,66.9,69.3,67,69,67z"/>
	<path class="st4" d="M99,90.5c-0.6,0-1-0.4-1-1V73.2c0-0.6,0.4-1,1-1c0.6,0,1,0.4,1,1v16.3C100,90,99.6,90.5,99,90.5z"/>
	<path class="st4" d="M99,63.2c-0.6,0-1-0.4-1-1V36c0-2.8-2.2-5-5-5H52.4c-0.6,0-1-0.4-1-1s0.4-1,1-1H93c3.9,0,7,3.1,7,7v26.2
		C100,62.8,99.6,63.2,99,63.2z"/>
	<path class="st4" d="M47,31H36.9c-0.5,0-1-0.4-1-1s0.4-1,1-1H47c0.5,0,1,0.4,1,1S47.6,31,47,31z"/>
	<path class="st4" d="M39,49c-0.6,0-1-0.5-1-1.1v-2.8c0-0.6,0.4-1.1,1-1.1c0.6,0,1,0.5,1,1.1v2.8C40,48.5,39.5,49,39,49z"/>
	<path class="st4" d="M39,80c-0.6,0-1-0.5-1-1.1v-2.8c0-0.6,0.4-1.1,1-1.1c0.6,0,1,0.5,1,1.1v2.8C40,79.5,39.5,80,39,80z"/>
	<path class="st5" d="M18.4,52.7c0-0.4-0.4-0.8-1-0.9l-1.9-0.3c-0.5-0.1-1.1-0.6-1.1-1.1l-0.3-1.9c-0.1-0.5-0.5-1-0.9-1
		c-0.4,0-0.8,0.4-0.9,1l-0.3,1.9c-0.1,0.5-0.6,1.1-1.1,1.1l-1.9,0.3c-0.5,0.1-1,0.5-1,0.9c0,0.4,0.4,0.8,1,0.9l1.9,0.3
		c0.5,0.1,1.1,0.6,1.1,1.1l0.3,1.9c0.1,0.5,0.5,1,0.9,1c0.4,0,0.8-0.4,0.8-1l0.3-2.1c0.1-0.5,0.6-1,1.1-1.1l1.8-0.1
		C18,53.5,18.4,53.1,18.4,52.7z"/>
	<path class="st5" d="M87.8,16c0-0.4-0.4-0.8-1-0.9l-1.9-0.3c-0.5-0.1-1.1-0.6-1.1-1.1l-0.3-1.9c-0.1-0.5-0.5-1-0.9-1
		c-0.4,0-0.8,0.4-0.9,1l-0.3,1.9c-0.1,0.5-0.6,1.1-1.1,1.1l-1.9,0.3c-0.5,0.1-1,0.5-1,0.9s0.4,0.8,1,0.9l1.9,0.3
		c0.5,0.1,1.1,0.6,1.1,1.1l0.3,1.9c0.1,0.5,0.5,1,0.9,1c0.4,0,0.8-0.4,0.8-1l0.3-2.1c0.1-0.5,0.6-1,1.1-1.1l1.8-0.1
		C87.3,16.8,87.8,16.4,87.8,16z"/>
	<path class="st5" d="M118.1,73.7c0-0.4-0.4-0.8-1-0.9l-1.9-0.3c-0.5-0.1-1.1-0.6-1.1-1.1l-0.3-1.9c-0.1-0.5-0.5-1-0.9-1
		c-0.4,0-0.8,0.4-0.9,1l-0.3,1.9c-0.1,0.5-0.6,1.1-1.1,1.1l-1.9,0.3c-0.5,0.1-1,0.5-1,0.9s0.4,0.8,1,0.9l1.9,0.3
		c0.5,0.1,1.1,0.6,1.1,1.1l0.3,1.9c0.1,0.5,0.5,1,0.9,1c0.4,0,0.8-0.4,0.8-1l0.3-2.1c0.1-0.5,0.6-1,1.1-1.1l1.8-0.1
		C117.6,74.5,118.1,74.1,118.1,73.7z"/>
	<path class="st5" d="M53,18c-2.2,0-4-1.8-4-4c0-2.2,1.8-4,4-4c2.2,0,4,1.8,4,4C57,16.2,55.2,18,53,18z M53,12c-1.1,0-2,0.9-2,2
		c0,1.1,0.9,2,2,2c1.1,0,2-0.9,2-2C55,12.9,54.1,12,53,12z"/>
	<path class="st5" d="M17,82c-2.2,0-4-1.8-4-4c0-2.2,1.8-4,4-4c2.2,0,4,1.8,4,4C21,80.2,19.2,82,17,82z M17,75.9
		c-1.2,0-2.1,1-2.1,2.1c0,1.2,1,2.1,2.1,2.1c1.2,0,2.1-1,2.1-2.1C19.1,76.8,18.2,75.9,17,75.9z"/>
</g>
</svg>
