<?xml version="1.0" encoding="utf-8"?>
<!-- Generator: Adobe Illustrator 21.0.2, SVG Export Plug-In . SVG Version: 6.00 Build 0)  -->
<svg version="1.1" id="settings" xmlns="http://www.w3.org/2000/svg" xmlns:xlink="http://www.w3.org/1999/xlink" x="0px" y="0px"
	 viewBox="0 0 128 128" style="enable-background:new 0 0 128 128;" xml:space="preserve">
<style type="text/css">
	.st0{fill:#FC8BA4;}
	.st1{fill:#AD5114;}
	.st2{fill:#993F0D;}
	.st3{fill:#663210;}
	.st4{fill:#EAEAEA;}
	.st5{fill:#D3D1D1;}
	.st6{fill:#FF4848;}
	.st7{opacity:0.5;fill:#A81000;}
	.st8{opacity:0.5;fill:#FFFFFF;}
	.st9{fill:#A81000;}
	.st10{fill:#FFFFFF;}
</style>
<g>
	<circle class="st0" cx="64" cy="64" r="64"/>
	<path class="st1" d="M104,91.2c1.6,1.6,1.6,4.1,0,5.7l-1,1c-1.6,1.6-4.1,1.6-5.7,0l-61-61c-1.6-1.6-1.6-4.1,0-5.7l1-1
		c1.6-1.6,4.1-1.6,5.7,0L104,91.2z"/>
	<path class="st2" d="M100.5,95.1L39.1,33.7c-1.2-1.2-1.4-2.9-0.7-4.3c-0.3,0.2-0.7,0.4-1,0.7l-1.3,1.3c-1.5,1.5-1.5,3.8,0,5.3
		L97.5,98c1.5,1.5,3.8,1.5,5.3,0l1.3-1.3c0.3-0.3,0.5-0.6,0.7-1C103.4,96.5,101.7,96.2,100.5,95.1z"/>
	<path class="st3" d="M100,100c-1.3,0-2.6-0.5-3.5-1.5l-60.9-61c-1.9-1.9-1.9-5.1,0-7.1l1-1c0.9-0.9,2.2-1.5,3.5-1.5
		c1.3,0,2.6,0.5,3.5,1.5l60.9,61c0.9,0.9,1.5,2.2,1.5,3.5c0,1.3-0.5,2.6-1.5,3.5l-1,1C102.6,99.5,101.4,100,100,100z M40.1,30
		c-0.8,0-1.6,0.3-2.1,0.9l-1,1c-1.2,1.2-1.2,3.1,0,4.2l60.9,61c1.1,1.1,3.1,1.1,4.2,0l1-1c0.6-0.6,0.9-1.3,0.9-2.1
		c0-0.8-0.3-1.6-0.9-2.1l-60.9-61C41.7,30.3,40.9,30,40.1,30z"/>
	<path class="st4" d="M48.5,14.3l-2.9,2.9c0,0,0.1,0.1,0.1,0.1c1.1,1.1,1.1,2.8,0,3.9c-1.1,1.1-2.8,1.1-3.9,0c0,0-0.1-0.1-0.1-0.1
		L25.4,37.3c-1.8,1.8-1.8,4.8,0,6.6l6.6,6.6c1.8,1.8,4.8,1.8,6.6,0l16.2-16.2c-1-1.1-1-2.8,0.1-3.8c1.1-1.1,2.7-1.1,3.8-0.1l2.9-2.9
		c1.8-1.8,1.8-4.8,0-6.6l-6.6-6.6C53.3,12.4,50.3,12.4,48.5,14.3z"/>
	<path class="st4" d="M62.9,66.8c-1.6,1.6-4,1.6-5.5,0.2c-1.4-1.4-1.4-3.9,0.2-5.5l38-38c1.6-1.6,4-1.6,5.5-0.2
		c1.4,1.4,1.4,3.9-0.2,5.5L62.9,66.8z"/>
	<path class="st5" d="M101.1,23.4c-0.3-0.3-0.7-0.5-1.1-0.7c0.6,1.4,0.3,3.2-0.9,4.4l-38,38c-1.2,1.2-3,1.5-4.4,0.9
		c0.2,0.4,0.4,0.7,0.7,1.1c1.4,1.4,3.9,1.4,5.5-0.2l38-38C102.4,27.3,102.5,24.9,101.1,23.4z"/>
	<path class="st3" d="M60,69.1c-1.2,0-2.4-0.5-3.2-1.3c-0.9-0.9-1.4-2.1-1.3-3.5c0-1.3,0.6-2.5,1.5-3.5l37.9-38.3
		c1-1,2.3-1.5,3.6-1.5c1.2,0,2.4,0.5,3.2,1.3c1.8,1.9,1.7,5-0.2,6.9L63.6,67.5C62.6,68.5,61.3,69.1,60,69.1z M98.4,23
		c-0.8,0-1.6,0.3-2.2,0.9L58.4,62.2c-1.2,1.2-1.3,3-0.2,4.1c1,1,2.9,0.9,4-0.2l37.9-38.3c1.2-1.2,1.3-3,0.2-4.1
		C99.8,23.3,99.2,23,98.4,23z"/>
	<path class="st6" d="M37.7,99.5c-3.1,3.1-8.2,3.1-11.3,0L24.9,98c-3.1-3.1-3.1-8.2,0-11.3l23.1-23.1c3.1-3.1,8.2-3.1,11.3,0
		l1.5,1.5c3.1,3.1,3.1,8.2,0,11.3L37.7,99.5z"/>
	<path class="st7" d="M60.2,68.4c-0.4,1.1-1,2.1-1.8,3l-22,21.9c-2.9,2.9-7.7,2.9-10.6,0L23.6,91c-0.3-0.3-0.6-0.7-0.9-1.1
		c-0.8,2.6-0.2,5.6,1.8,7.6l2.3,2.3c2.9,2.9,7.7,2.9,10.6,0l23.8-23.8C64.7,70.6,63.3,70.1,60.2,68.4z"/>
	<path class="st3" d="M32.4,103c-2.4,0-4.6-0.9-6.3-2.7l-1.5-1.5c-1.7-1.7-2.6-4-2.6-6.4c0-2.4,0.9-4.7,2.6-6.4l22.8-23.3
		c1.7-1.7,3.9-2.7,6.3-2.7c2.4,0,4.6,0.9,6.3,2.7l1.5,1.5c3.5,3.5,3.5,9.3,0,12.9l-22.8,23.3C37,102.1,34.8,103,32.4,103z M53.6,62
		c-1.9,0-3.6,0.7-4.9,2.1L26,87.4c-1.3,1.3-2,3.1-2,5c0,1.9,0.7,3.7,2,5l1.5,1.5c1.3,1.3,3,2.1,4.9,2.1c1.9,0,3.6-0.7,4.9-2.1
		L60,75.6c2.7-2.8,2.7-7.2,0-10l-1.5-1.5C57.2,62.8,55.5,62,53.6,62z"/>
	<path class="st6" d="M67.9,70.3c-1.3,1.3-3.6,1.1-5.2-0.5L54.8,62c-1.6-1.6-1.8-3.9-0.5-5.2c1.3-1.3,3.6-1.1,5.2,0.5l7.9,7.9
		C69,66.7,69.2,69,67.9,70.3z"/>
	<path class="st3" d="M97.1,28c-0.3,0-0.5-0.1-0.8-0.3c-0.4-0.4-0.4-1.1,0-1.5l3.3-3.1c0.4-0.4,1.1-0.4,1.5,0c0.4,0.4,0.4,1.1,0,1.5
		l-3.3,3.1C97.6,27.9,97.3,28,97.1,28z"/>
	<path class="st3" d="M38.3,99.7c-0.3,0-0.5-0.1-0.7-0.3L25.7,87.5c-0.4-0.4-0.4-1,0-1.4c0.4-0.4,1-0.4,1.4,0L39,98
		c0.4,0.4,0.4,1,0,1.4C38.8,99.6,38.5,99.7,38.3,99.7z"/>
	<path class="st3" d="M33.8,85.5c-0.3,0-0.5-0.1-0.7-0.3c-0.4-0.4-0.4-1,0-1.4l14.2-14.2c0.4-0.4,1-0.4,1.4,0c0.4,0.4,0.4,1,0,1.4
		L34.5,85.2C34.3,85.4,34,85.5,33.8,85.5z"/>
	<path class="st8" d="M32.3,83.7c-0.3,0-0.5-0.1-0.7-0.3c-0.4-0.4-0.4-1,0-1.4c1.7-1.7,16.4-16.5,17.5-17.4c1.3-1.1,3.8-1.3,4.9-0.8
		c0.5,0.2,0.7,0.8,0.4,1.3c-0.2,0.5-0.8,0.7-1.3,0.4c-0.4-0.1-2,0-2.8,0.6C49.5,66.8,39.5,76.8,33,83.4
		C32.8,83.6,32.5,83.7,32.3,83.7z"/>
	<path class="st5" d="M59,24.5l-2.9,2.9c-1.1-1-2.8-1-3.8,0.1c-1.1,1.1-1.1,2.7-0.1,3.8L38.6,44.8c-1.8,1.8-4.8,1.8-6.6,0l-6.6-6.6
		c-0.1-0.1-0.2-0.3-0.3-0.4c-1.4,1.8-1.3,4.5,0.3,6.2l6.6,6.6c1.8,1.8,4.8,1.8,6.6,0l16.2-16.2c-1-1.1-1-2.8,0.1-3.8
		c1.1-1.1,2.7-1.1,3.8-0.1l2.9-2.9c1.7-1.7,1.8-4.4,0.3-6.2C61.9,21.5,59.2,24.4,59,24.5z"/>
	<path class="st3" d="M36.9,88.6c-0.3,0-0.5-0.1-0.7-0.3c-0.4-0.4-0.4-1,0-1.4l14.2-14.2c0.4-0.4,1-0.4,1.4,0c0.4,0.4,0.4,1,0,1.4
		L37.6,88.3C37.4,88.5,37.1,88.6,36.9,88.6z"/>
	<path class="st3" d="M39.8,91.6c-0.3,0-0.5-0.1-0.7-0.3c-0.4-0.4-0.4-1,0-1.4l14.2-14.2c0.4-0.4,1-0.4,1.4,0s0.4,1,0,1.4L40.5,91.3
		C40.3,91.5,40.1,91.6,39.8,91.6z"/>
	<path class="st9" d="M67.7,65.5c-0.1,0.5-0.4,1-0.8,1.4c-1.3,1.3-3.5,1.2-5-0.3l-8.2-8.2c-0.1-0.1-0.1-0.1-0.1-0.2
		c-0.3,1.2,0.1,2.6,1.1,3.6l8.2,8.2c1.5,1.5,3.7,1.6,5,0.3C69.1,69.1,69,66.9,67.7,65.5z"/>
	<path class="st3" d="M35.3,53c-1.5,0-2.9-0.6-4-1.7l-6.6-6.6c-1.1-1.1-1.7-2.5-1.7-4c0-1.5,0.6-2.9,1.7-4l16.2-16.2
		c0.2-0.2,0.4-0.3,0.7-0.3c0.3,0,0.5,0.1,0.7,0.3c0,0,0.1,0.1,0.1,0.2c0.6,0.6,1.8,0.6,2.5-0.1c0.3-0.3,0.5-0.8,0.5-1.3
		c0-0.5-0.2-0.9-0.5-1.3c0,0,0,0-0.1-0.1c-0.2-0.2-0.3-0.4-0.3-0.7c0-0.3,0.1-0.5,0.3-0.7l2.9-2.9c1.1-1.1,2.5-1.7,4-1.7
		c1.5,0,2.9,0.6,4,1.7l6.6,6.6c1.1,1.1,1.7,2.5,1.7,4c0,1.5-0.6,2.9-1.7,4l-2.9,2.9c-0.4,0.4-1,0.4-1.4,0c-0.7-0.6-1.8-0.6-2.4,0.1
		C55,32,54.9,33,55.6,33.8c0.4,0.4,0.3,1,0,1.4L39.3,51.3C38.2,52.4,36.8,53,35.3,53z M41.6,22.5L26.1,38.1
		c-0.7,0.7-1.1,1.6-1.1,2.6c0,1,0.4,1.9,1.1,2.6l6.6,6.6c1.4,1.4,3.8,1.4,5.2,0l15.6-15.6c-0.7-1.4-0.5-3.2,0.7-4.4
		c1.1-1.1,3-1.4,4.4-0.7l2.3-2.3c0.7-0.7,1.1-1.6,1.1-2.6c0-1-0.4-1.9-1.1-2.6l-6.6-6.6c-1.4-1.4-3.8-1.4-5.2,0l-2.3,2.3
		c0.4,0.6,0.6,1.3,0.6,2c0,1-0.4,2-1.1,2.7C45.1,23.2,43.1,23.4,41.6,22.5z"/>
	<path class="st3" d="M65.1,72c-1.3,0-2.7-0.6-3.7-1.6l-7.8-7.8c-1.9-1.9-2.1-4.8-0.5-6.5c0.7-0.7,1.7-1.1,2.8-1.1
		c1.3,0,2.7,0.6,3.7,1.6l7.8,7.8c0.9,0.9,1.5,2.1,1.6,3.3c0.1,1.3-0.3,2.4-1.1,3.2C67.2,71.6,66.2,72,65.1,72z M55.9,57
		c-0.4,0-1,0.1-1.4,0.5c-0.9,0.9-0.7,2.6,0.5,3.7l7.8,7.8c0.6,0.6,1.5,1,2.3,1c0.4,0,1-0.1,1.4-0.5c0.4-0.4,0.6-1,0.5-1.7
		c-0.1-0.7-0.4-1.5-1-2L58.2,58C57.6,57.3,56.7,57,55.9,57z"/>
	<path class="st10" d="M63.6,65.9c-0.3,0-0.5-0.1-0.7-0.3l-6.4-6.4c-0.4-0.4-0.4-1,0-1.4c0.4-0.4,1-0.4,1.4,0l6.4,6.4
		c0.4,0.4,0.4,1,0,1.4C64.1,65.8,63.9,65.9,63.6,65.9z"/>
	<path class="st8" d="M30,94.7c-0.2,0-0.5-0.1-0.7-0.3l-4.1-3.9c-0.4-0.4-0.4-1,0-1.4c0.4-0.4,1-0.4,1.4,0l4.1,3.9
		c0.4,0.4,0.4,1,0,1.4C30.5,94.6,30.3,94.7,30,94.7z"/>
	<path class="st8" d="M101.5,94.1c-0.3,0-0.5-0.1-0.7-0.3l-8.6-8.6c-0.4-0.4-0.4-1,0-1.4c0.4-0.4,1-0.4,1.4,0l8.6,8.6
		c0.4,0.4,0.4,1,0,1.4C102,94,101.8,94.1,101.5,94.1z"/>
	<path class="st8" d="M89.2,81.8c-0.3,0-0.5-0.1-0.7-0.3L71.3,64.4c-0.4-0.4-0.4-1,0-1.4c0.4-0.4,1-0.4,1.4,0l17.2,17.1
		c0.4,0.4,0.4,1,0,1.4C89.7,81.7,89.5,81.8,89.2,81.8z"/>
	<path class="st8" d="M60,52.7c-0.3,0-0.5-0.1-0.7-0.3l-8.4-8.3c-0.4-0.4-0.4-1,0-1.4c0.4-0.4,1-0.4,1.4,0l8.4,8.3
		c0.4,0.4,0.4,1,0,1.4C60.5,52.6,60.2,52.7,60,52.7z"/>
	<path class="st10" d="M57.7,22.3c-0.3,0-0.5-0.1-0.7-0.3c0,0-2.8-2.8-4.6-4.5c-0.5-0.4-0.8-0.4-0.9-0.4c-0.5,0.1-1.1,0.6-1.2,0.8
		c-0.3,0.4-0.9,0.5-1.4,0.2c-0.4-0.3-0.5-1-0.2-1.4c0.1-0.1,1.1-1.4,2.6-1.6c0.6-0.1,1.5,0.1,2.4,0.9c1.9,1.7,4.6,4.5,4.7,4.5
		c0.4,0.4,0.4,1,0,1.4C58.3,22.2,58,22.3,57.7,22.3z"/>
	<path class="st10" d="M65.6,58.7c-0.3,0-0.5-0.1-0.7-0.3c-0.4-0.4-0.4-1,0-1.4l28.6-28.8c0.4-0.4,1-0.4,1.4,0c0.4,0.4,0.4,1,0,1.4
		L66.3,58.4C66.1,58.6,65.9,58.7,65.6,58.7z"/>
	<path class="st10" d="M23,72c-2.2,0-4-1.8-4-4c0-2.2,1.8-4,4-4c2.2,0,4,1.8,4,4C27,70.2,25.2,72,23,72z M23,66c-1.1,0-2,0.9-2,2
		c0,1.1,0.9,2,2,2c1.1,0,2-0.9,2-2C25,66.9,24.1,66,23,66z"/>
	<path class="st10" d="M108,55c-2.2,0-4-1.8-4-4c0-2.2,1.8-4,4-4c2.2,0,4,1.8,4,4C112,53.2,110.2,55,108,55z M108,49
		c-1.1,0-2,0.9-2,2c0,1.1,0.9,2,2,2c1.1,0,2-0.9,2-2C110,49.9,109.1,49,108,49z"/>
	<path class="st10" d="M79,25c-2.2,0-4-1.8-4-4c0-2.2,1.8-4,4-4c2.2,0,4,1.8,4,4C83,23.2,81.2,25,79,25z M79,19c-1.1,0-2,0.9-2,2
		c0,1.1,0.9,2,2,2c1.1,0,2-0.9,2-2C81,19.9,80.1,19,79,19z"/>
	<path class="st10" d="M80,106c-2.2,0-4-1.8-4-4c0-2.2,1.8-4,4-4c2.2,0,4,1.8,4,4C84,104.2,82.2,106,80,106z M80,100
		c-1.1,0-2,0.9-2,2c0,1.1,0.9,2,2,2c1.1,0,2-0.9,2-2C82,100.9,81.1,100,80,100z"/>
	<path class="st10" d="M100.8,64c0-0.4-0.4-0.8-1-0.9l-1.9-0.3c-0.5-0.1-1.1-0.6-1.1-1.1l-0.3-1.9c-0.1-0.5-0.5-1-0.9-1
		c-0.4,0-0.8,0.4-0.9,1l-0.3,1.9c-0.1,0.5-0.6,1.1-1.1,1.1l-1.9,0.3c-0.5,0.1-1,0.5-1,0.9c0,0.4,0.4,0.8,1,0.9l1.9,0.3
		c0.5,0.1,1.1,0.6,1.1,1.1l0.3,1.9c0.1,0.5,0.5,1,0.9,1c0.4,0,0.8-0.4,0.8-1l0.3-2.1c0.1-0.5,0.6-1,1.1-1.1l1.8-0.1
		C100.3,64.7,100.8,64.4,100.8,64z"/>
	<path class="st10" d="M70.1,93.3c0-0.4-0.4-0.8-1-0.9l-1.9-0.3c-0.5-0.1-1.1-0.6-1.1-1.1l-0.3-1.9c-0.1-0.5-0.5-1-0.9-1
		c-0.4,0-0.8,0.4-0.9,1L63.8,91c-0.1,0.5-0.6,1.1-1.1,1.1l-1.9,0.3c-0.5,0.1-1,0.5-1,0.9c0,0.4,0.4,0.8,1,0.9l1.9,0.3
		c0.5,0.1,1.1,0.6,1.1,1.1l0.3,1.9c0.1,0.5,0.5,1,0.9,1c0.4,0,0.8-0.4,0.8-1l0.3-2.1c0.1-0.5,0.6-1,1.1-1.1l1.8-0.1
		C69.6,94,70.1,93.7,70.1,93.3z"/>
	<path class="st10" d="M43.1,31.2c0-0.4-0.4-0.8-1-0.9l-4.8-0.8c-0.5-0.1-1.1-0.6-1.2-1.2l-0.8-4.8c-0.1-0.5-0.5-1-0.9-1
		c-0.4,0-0.8,0.4-0.9,1l-0.8,4.8c-0.1,0.5-0.6,1.1-1.2,1.2l-4.8,0.8c-0.5,0.1-1,0.5-1,0.9c0,0.4,0.4,0.8,1,0.9l4.7,0.6
		c0.5,0.1,1.1,0.6,1.2,1.1l0.9,5c0.1,0.5,0.5,1,0.9,1c0.4,0,0.8-0.4,0.9-1l0.9-5.1c0.1-0.5,0.6-1,1.2-1.1l4.7-0.6
		C42.7,32,43.1,31.6,43.1,31.2z"/>
</g>
</svg>
