<?xml version="1.0" encoding="utf-8"?>
<!-- Generator: Adobe Illustrator 21.0.2, SVG Export Plug-In . SVG Version: 6.00 Build 0)  -->
<svg version="1.1" id="skull" xmlns="http://www.w3.org/2000/svg" xmlns:xlink="http://www.w3.org/1999/xlink" x="0px" y="0px"
	 viewBox="0 0 128 128" style="enable-background:new 0 0 128 128;" xml:space="preserve">
<style type="text/css">
	.st0{fill:#FF4848;}
	.st1{opacity:0.5;fill:#FFFFFF;}
	.st2{fill:#FFFFFF;}
	.st3{fill:#415E6D;}
	.st4{fill:#EAEAEA;}
	.st5{fill:#233E49;}
	.st6{opacity:0.5;fill:#0C508E;}
</style>
<g>
	<circle class="st0" cx="64" cy="64" r="64"/>
	<path class="st1" d="M27.4,91.9c0-0.4-0.4-0.8-1-0.9l-1.9-0.3c-0.5-0.1-1.1-0.6-1.1-1.1l-0.3-1.9c-0.1-0.5-0.5-1-0.9-1
		s-0.8,0.4-0.9,1l-0.3,1.9c-0.1,0.5-0.6,1.1-1.1,1.1l-1.9,0.3c-0.5,0.1-1,0.5-1,0.9s0.4,0.8,1,0.9l1.9,0.3c0.5,0.1,1.1,0.6,1.1,1.1
		l0.3,1.9c0.1,0.5,0.5,1,0.9,1s0.8-0.4,0.9-1l0.3-2.1c0.1-0.5,0.6-1,1.1-1.1l1.8-0.1C26.9,92.7,27.4,92.3,27.4,91.9z"/>
	<path class="st1" d="M96.5,106.4c0-0.4-0.4-0.8-1-0.9l-1.9-0.3c-0.5-0.1-1.1-0.6-1.1-1.1l-0.3-1.9c-0.1-0.5-0.5-1-0.9-1
		s-0.8,0.4-0.9,1l-0.3,1.9c-0.1,0.5-0.6,1.1-1.1,1.1l-1.9,0.3c-0.5,0.1-1,0.5-1,0.9c0,0.4,0.4,0.8,1,0.9l1.9,0.3
		c0.5,0.1,1.1,0.6,1.1,1.1l0.3,1.9c0.1,0.5,0.5,1,0.9,1s0.8-0.4,0.9-1l0.3-2.1c0.1-0.5,0.6-1,1.1-1.1l1.8-0.1
		C96.1,107.1,96.5,106.8,96.5,106.4z"/>
	<path class="st1" d="M89.3,14.7c0-0.4-0.4-0.8-1-0.9l-1.9-0.3c-0.5-0.1-1.1-0.6-1.1-1.1L85,10.6c-0.1-0.5-0.5-1-0.9-1
		s-0.8,0.4-0.9,1L83,12.4c-0.1,0.5-0.6,1.1-1.1,1.1L80,13.8c-0.5,0.1-1,0.5-1,0.9s0.4,0.8,1,0.9l1.9,0.3c0.5,0.1,1.1,0.6,1.1,1.1
		l0.3,1.9c0.1,0.5,0.5,1,0.9,1s0.8-0.4,0.9-1l0.3-2.1c0.1-0.5,0.6-1,1.1-1.1l1.8-0.1C88.8,15.4,89.3,15.1,89.3,14.7z"/>
	<path class="st1" d="M58,117c-2.2,0-4-1.8-4-4c0-2.2,1.8-4,4-4c2.2,0,4,1.8,4,4C62,115.2,60.2,117,58,117z M58,110.9
		c-1.2,0-2.1,1-2.1,2.1c0,1.2,1,2.1,2.1,2.1c1.2,0,2.1-1,2.1-2.1C60.1,111.8,59.2,110.9,58,110.9z"/>
	<path class="st1" d="M112,69c-2.2,0-4-1.8-4-4c0-2.2,1.8-4,4-4c2.2,0,4,1.8,4,4C116,67.2,114.2,69,112,69z M112,62.9
		c-1.2,0-2.1,1-2.1,2.1c0,1.2,1,2.1,2.1,2.1s2.1-1,2.1-2.1C114.1,63.8,113.2,62.9,112,62.9z"/>
	<path class="st1" d="M21,42c-2.2,0-4-1.8-4-4c0-2.2,1.8-4,4-4c2.2,0,4,1.8,4,4C25,40.2,23.2,42,21,42z M21,35.9
		c-1.2,0-2.1,1-2.1,2.1c0,1.2,1,2.1,2.1,2.1c1.2,0,2.1-1,2.1-2.1C23.1,36.8,22.2,35.9,21,35.9z"/>
	<path class="st2" d="M64.7,23.4c-18.8,0-34,15.2-34,34V71c0,10.8,5,15.1,12.8,16.8v6c0,2.2,1.8,4.1,4.1,4.1c2.2,0,4.1-1.8,4.1-4.1
		v-5c0.9,0,1.9,0.1,2.8,0.1v4.9c0,2.2,1.8,4.1,4.1,4.1c2.2,0,4.1-1.8,4.1-4.1V89c0.7,0,1.5,0,2.2,0c0.2,0,0.4,0,0.6,0v4.8
		c0,2.2,1.8,4.1,4.1,4.1c2.2,0,4.1-1.8,4.1-4.1V89c1,0,1.9,0,2.8-0.1v4.9c0,2.2,1.8,4.1,4.1,4.1c2.2,0,4.1-1.8,4.1-4.1v-5.7
		C93,86.6,98.7,82.5,98.7,71V57.4C98.7,38.6,83.5,23.4,64.7,23.4z"/>
	<circle class="st3" cx="47.1" cy="64.6" r="7.4"/>
	<path class="st4" d="M62.5,89c0.7,0,1.5,0,2.2,0c0.2,0,0.4,0,0.6,0v4.8c0,2.2,1.8,4.1,4.1,4.1c2.2,0,4.1-1.8,4.1-4.1V89
		c1,0,1.9,0,2.8-0.1v4.9c0,2.2,1.8,4.1,4.1,4.1c2.2,0,4.1-1.8,4.1-4.1v-5.7C93,86.6,98.7,82.5,98.7,71V57.4c0-1.6-0.1-3.2-0.3-4.8
		C97.1,48.7,96,45.1,95,42c-0.2-0.4-0.4-0.8-0.6-1.2c2,12.8,0.5,32.7-6.1,38.4c-7.9,6.9-35.9,7.6-47.6,1.2c-7.3-4-9-20.4-9.1-31.2
		c-0.6,2.6-1,5.2-1,8V71c0,10.8,5,15.1,12.8,16.8v6c0,2.2,1.8,4.1,4.1,4.1c2.2,0,4.1-1.8,4.1-4.1v-5c0.9,0,1.9,0.1,2.8,0.1v4.9
		c0,2.2,1.8,4.1,4.1,4.1c2.2,0,4.1-1.8,4.1-4.1V89z"/>
	<circle class="st3" cx="80.4" cy="64.6" r="7.4"/>
	<path class="st3" d="M62.3,80.5c1.5,0.2,2.2-1,2.3-1.2c0.1,0.2,0.7,1.4,2.3,1.2c1.7-0.2,2.3-1.5,2.3-2.5c0-1.1-0.4-2.1-1.5-3.2
		c-1.2-1.3-2.9-2.2-3.1-2.2c-0.2,0-1.8,0.9-3,2.2C60.4,75.9,60,76.9,60,78C60,79.1,60.6,80.3,62.3,80.5z"/>
	<path class="st5" d="M80.3,99c-2.9,0-5.3-2.3-5.3-5.1V90c-0.3,0-0.7,0-1,0v3.9c0,2.9-2,5.1-4.7,5.1c-2.9,0-5.3-2.3-5.3-5.1v-3.9h-1
		v3.9c0,2.9-1.9,5.1-4.6,5.1c-2.9,0-5.4-2.4-5.4-5.1V90l-1,0v4c0,3-1.9,5.1-4.5,5.1c-2.9,0-5.5-2.4-5.5-5.1v-5.2
		c-8.5-2.2-13-7.7-13-17.7V57.2C29,37.8,45.4,22,64.7,22C84,22,100,37.8,100,57.2v13.7C100,81.4,95.2,87,85.3,89v4.9
		C85.3,96.7,83.1,99,80.3,99z M76,88c0.3,0,0.5,0,0.7,0.2c0.2,0.2,0.3,0.5,0.3,0.7v5c0,1.6,1.5,3.1,3.3,3.1c1.7,0,3.1-1.4,3.1-3.1
		v-5.7c0-0.5,0.3-0.9,0.8-1C93.6,85.5,98,80.7,98,70.9V57.2C98,38.9,82.9,24,64.7,24C46.5,24,31,38.9,31,57.2v13.7
		c0,9.5,4,14.1,12.2,16c0.5,0.1,0.8,0.5,0.8,1v6c0,1.7,1.9,3.1,3.5,3.1c1.8,0,2.5-1.7,2.5-3.1v-5c0-0.3,1-0.8,1-0.8h3
		c0.5,0,1,0.4,1,1v4.9c0,1.6,1.6,3.1,3.4,3.1c1.8,0,2.6-1.5,2.6-3.1v-4.9c0-0.6,0.4-1,1-1l2.9,0l0.1,0c0.5,0,1,0.5,1,1v4.9
		c0,1.6,1.6,3.1,3.3,3.1c1.8,0,2.7-1.6,2.7-3.1V89c0-0.5,0.4-1,1-1C73.9,88,75,88.1,76,88C76,88,76,88,76,88z"/>
	<path class="st5" d="M47.5,73c-4.7,0-8.5-3.8-8.5-8.5c0-4.7,3.8-8.5,8.5-8.5c4.7,0,8.5,3.8,8.5,8.5C56,69.2,52.2,73,47.5,73z
		 M47.5,58c-3.6,0-6.5,2.9-6.5,6.5c0,3.6,2.9,6.5,6.5,6.5c3.6,0,6.5-2.9,6.5-6.5C54,60.9,51.1,58,47.5,58z"/>
	<path class="st5" d="M80.5,73c-4.7,0-8.5-3.8-8.5-8.5c0-4.7,3.8-8.5,8.5-8.5c4.7,0,8.5,3.8,8.5,8.5C89,69.2,85.2,73,80.5,73z
		 M80.5,58c-3.6,0-6.5,2.9-6.5,6.5c0,3.6,2.9,6.5,6.5,6.5c3.6,0,6.5-2.9,6.5-6.5C87,60.9,84.1,58,80.5,58z"/>
	<path class="st5" d="M62.5,82L62.5,82c-0.1,0-0.3,0-0.4,0C60,81.7,59,79.8,59,78.1c0-1.5,0.6-3,1.8-4.3c1-1.1,2.9-2.7,3.7-2.7
		c0.8,0,2.8,1.7,3.7,2.7c1.2,1.4,1.8,2.8,1.8,4.3c0,1.8-1,3.7-3.1,3.9c-0.1,0-0.3,0-0.4,0c-0.6,0-1.3-0.2-2-0.8
		C63.8,81.8,63.1,82,62.5,82z M64.5,73.3c-0.5,0.3-1.5,1.1-2.3,2c-1.1,1.3-1.2,2.2-1.2,2.8c0,0.4,0.1,1.5,1.4,1.7c0.1,0,0.1,0,0.2,0
		l0,0c0.6,0,0.9-0.5,1.1-0.8c0.2-0.3,0.5-0.5,0.8-0.5c0.3,0,0.6,0.1,0.8,0.4c0,0,0.1,0.1,0.1,0.1c0.2,0.4,0.6,0.8,1.3,0.7
		c1.3-0.1,1.4-1.3,1.4-1.7c0-0.6-0.1-1.5-1.2-2.8C66,74.4,65,73.6,64.5,73.3z"/>
	<path class="st6" d="M89,44c-0.4,0-0.8-0.3-0.9-0.7c-2.4-6.7-8.1-10.4-12.5-12.3c-0.5-0.2-0.7-0.8-0.5-1.3c0.2-0.5,0.8-0.7,1.3-0.5
		c4.7,2.1,10.9,6.1,13.5,13.5c0.2,0.5-0.1,1.1-0.6,1.2C89.2,44,89.1,44,89,44z"/>
	<path class="st6" d="M71,29.3c-0.1,0-0.2,0-0.3,0c-2.4-0.7-4.9-1.1-6.7-1.1c-0.6,0-1-0.5-1-1.1c0-0.6,0.5-1.1,1-1.1
		c2,0,4.6,0.4,7.3,1.2c0.5,0.2,0.9,0.8,0.7,1.3C71.8,29,71.4,29.3,71,29.3z"/>
</g>
</svg>
