<?xml version="1.0" encoding="utf-8"?>
<!-- Generator: Adobe Illustrator 21.0.2, SVG Export Plug-In . SVG Version: 6.00 Build 0)  -->
<svg version="1.1" id="stadium" xmlns="http://www.w3.org/2000/svg" xmlns:xlink="http://www.w3.org/1999/xlink" x="0px" y="0px"
	 viewBox="0 0 128 128" style="enable-background:new 0 0 128 128;" xml:space="preserve">
<style type="text/css">
	.st0{fill:#28A5C6;}
	.st1{fill:#FBD000;}
	.st2{fill:#F4B10B;}
	.st3{fill:#074370;}
	.st4{fill:#75B600;}
	.st5{fill:#5C8E0D;}
	.st6{fill:#FFFFFF;}
	.st7{opacity:0.5;fill:#FFFFFF;}
</style>
<g>
	<circle class="st0" cx="64" cy="64" r="64"/>
	<path class="st1" d="M119.4,96.1c0,4.4-3.6,8-8,8H16.7c-4.4,0-8-3.6-8-8V31.7c0-4.4,3.6-8,8-8h94.7c4.4,0,8,3.6,8,8V96.1z"/>
	<path class="st2" d="M111.4,23.6H16.7c-4.4,0-8,3.6-8,8V39c0-4.4,3.6-8,8-8h94.7c4.4,0,8,3.6,8,8v-7.4
		C119.4,27.2,115.8,23.6,111.4,23.6z"/>
	<path class="st3" d="M112,105C112,105,112,105,112,105H17c-5,0-9-4-9-9V31c0-5,4-9,9-9h95c5,0,9,4,9,9v65.1
		C121,101,117,105,112,105z M17,24c-3.9,0-7,3.1-7,7v65c0,3.9,3.1,7,7,7l95,0.1l0,1v-1c3.9,0,7-3.1,7-7V31c0-3.9-3.1-7-7-7H17z"/>
	<path class="st4" d="M105.3,84.6c0,3.3-2.7,6-6,6H28.8c-3.3,0-6-2.7-6-6V43.3c0-3.3,2.7-6,6-6h70.5c3.3,0,6,2.7,6,6V84.6z"/>
	<path class="st5" d="M99.3,37.3H28.8c-3.3,0-6,2.7-6,6v6.7c0-3.3,2.7-6,6-6h70.5c3.3,0,6,2.7,6,6v-6.7
		C105.3,40,102.6,37.3,99.3,37.3z"/>
	<path class="st3" d="M99,91H29c-3.9,0-7-3.1-7-7V43c0-3.9,3.1-7,7-7h70c3.9,0,7,3.1,7,7v41C106,87.9,102.9,91,99,91z M29,38
		c-2.8,0-5,2.2-5,5v41c0,2.8,2.2,5,5,5h70c2.8,0,5-2.2,5-5V43c0-2.8-2.2-5-5-5H29z"/>
	<path class="st6" d="M96,85h-7c-0.6,0-1-0.4-1-1s0.4-1,1-1h7c0.8,0,1.5-0.3,2.1-0.9c0.6-0.6,0.9-1.3,0.9-2.1l-0.1-33
		c0-1.7-1.4-3-3-3H33c-1.7,0-3,1.3-3,3v33c0,1.7,1.3,3,3,3h48c0.6,0,1,0.4,1,1s-0.4,1-1,1H33c-2.8,0-5-2.2-5-5V47c0-2.8,2.2-5,5-5
		h62.9c2.8,0,5,2.2,5,5l0.1,33c0,1.3-0.5,2.6-1.5,3.5C98.6,84.5,97.3,85,96,85z"/>
	<rect x="63" y="43.7" class="st6" width="2" height="40.5"/>
	<path class="st6" d="M64.1,72c-4.7,0-8.1-3.4-8.1-8.1c0-4.6,3.4-7.9,8.1-7.9c4.7,0,7.9,3.3,7.9,7.9C72,68.6,68.7,72,64.1,72z
		 M64.1,58c-3.6,0-6.1,2.4-6.1,5.9c0,3.5,2.6,6.1,6.1,6.1c3.5,0,5.9-2.5,5.9-6.1C70,60.4,67.6,58,64.1,58z"/>
	<path class="st6" d="M36,72h-7c-0.6,0-1-0.4-1-1s0.4-1,1-1h6V58h-6c-0.6,0-1-0.4-1-1s0.4-1,1-1h7c0.6,0,1,0.4,1,1v14
		C37,71.6,36.6,72,36,72z"/>
	<path class="st6" d="M99.8,72H93c-0.6,0-1-0.4-1-1V57c0-0.6,0.4-1,1-1h6.8c0.6,0,1,0.4,1,1s-0.4,1-1,1H94v12h5.8c0.6,0,1,0.4,1,1
		S100.4,72,99.8,72z"/>
	<path class="st3" d="M64,38c-0.6,0-1-0.4-1-1V24.1c0-0.5,0.4-1,1-1c0.6,0,1,0.4,1,1V37C65,37.6,64.6,38,64,38z"/>
	<path class="st3" d="M64,104.8c-0.6,0-1-0.4-1-1V90.7c0-0.6,0.4-1,1-1c0.6,0,1,0.4,1,1v13.1C65,104.4,64.6,104.8,64,104.8z"/>
	<path class="st3" d="M31.8,38c-0.5,0-0.9-0.4-1-0.8l-2-12.7c-0.1-0.5,0.3-1.1,0.8-1.1c0.5-0.1,1.1,0.3,1.1,0.8l2,12.7
		c0.1,0.5-0.3,1.1-0.8,1.1C31.9,38,31.9,38,31.8,38z"/>
	<path class="st3" d="M22.8,52c-0.1,0-0.2,0-0.3,0L9.1,48.1c-0.5-0.2-0.8-0.7-0.7-1.2c0.2-0.5,0.7-0.8,1.2-0.7L23.1,50
		c0.5,0.2,0.8,0.7,0.7,1.2C23.6,51.7,23.2,52,22.8,52z"/>
	<path class="st3" d="M96.9,38c-0.1,0-0.1,0-0.2,0c-0.5-0.1-0.9-0.6-0.8-1.1l2-12.7c0.1-0.5,0.6-0.9,1.1-0.8
		c0.5,0.1,0.9,0.6,0.8,1.1l-2,12.7C97.8,37.6,97.4,38,96.9,38z"/>
	<path class="st3" d="M110.7,50.6c-0.4,0-0.8-0.3-1-0.7c-0.2-0.5,0.2-1.1,0.7-1.2l8.7-2.5c0.5-0.1,1.1,0.2,1.2,0.7
		c0.2,0.5-0.2,1.1-0.7,1.2l-8.7,2.5C110.9,50.6,110.8,50.6,110.7,50.6z"/>
	<path class="st3" d="M29.8,104.9c-0.1,0-0.1,0-0.2,0c-0.5-0.1-0.9-0.6-0.8-1.1l2-12.7c0.1-0.5,0.6-0.9,1.1-0.8
		c0.5,0.1,0.9,0.6,0.8,1.1l-2,12.7C30.7,104.5,30.3,104.9,29.8,104.9z"/>
	<path class="st3" d="M9.3,82.1c-0.4,0-0.8-0.3-1-0.7c-0.2-0.5,0.2-1.1,0.7-1.2l13.5-3.8c0.5-0.2,1.1,0.2,1.2,0.7
		c0.2,0.5-0.2,1.1-0.7,1.2L9.6,82C9.5,82.1,9.4,82.1,9.3,82.1z"/>
	<path class="st3" d="M98.9,104.9c-0.5,0-0.9-0.4-1-0.8l-1.1-7c-0.1-0.5,0.3-1.1,0.8-1.1c0.5-0.1,1.1,0.3,1.1,0.8l1.1,7
		c0.1,0.5-0.3,1.1-0.8,1.1C99,104.9,98.9,104.9,98.9,104.9z"/>
	<path class="st3" d="M119.4,82.1c-0.1,0-0.2,0-0.3,0l-13.5-3.8c-0.5-0.2-0.8-0.7-0.7-1.2c0.2-0.5,0.7-0.8,1.2-0.7l13.5,3.8
		c0.5,0.2,0.8,0.7,0.7,1.2C120.2,81.8,119.8,82.1,119.4,82.1z"/>
	<path class="st6" d="M47,33c-1.7,0-3-1.3-3-3s1.3-3,3-3c1.7,0,3,1.3,3,3S48.7,33,47,33z M47,29c-0.6,0-1,0.4-1,1s0.4,1,1,1
		c0.6,0,1-0.4,1-1S47.6,29,47,29z"/>
	<path class="st6" d="M81,33c-1.7,0-3-1.3-3-3s1.3-3,3-3c1.7,0,3,1.3,3,3S82.7,33,81,33z M81,29c-0.6,0-1,0.4-1,1s0.4,1,1,1
		c0.6,0,1-0.4,1-1S81.6,29,81,29z"/>
	<path class="st6" d="M111,36c-1.7,0-3-1.3-3-3s1.3-3,3-3c1.7,0,3,1.3,3,3S112.7,36,111,36z M111,32c-0.6,0-1,0.4-1,1
		c0,0.6,0.4,1,1,1c0.6,0,1-0.4,1-1C112,32.4,111.6,32,111,32z"/>
	<path class="st6" d="M18,37c-1.7,0-3-1.3-3-3s1.3-3,3-3c1.7,0,3,1.3,3,3S19.7,37,18,37z M18,33c-0.6,0-1,0.4-1,1c0,0.6,0.4,1,1,1
		c0.6,0,1-0.4,1-1C19,33.4,18.6,33,18,33z"/>
	<path class="st6" d="M47,100c-1.7,0-3-1.3-3-3s1.3-3,3-3c1.7,0,3,1.3,3,3S48.7,100,47,100z M47,96c-0.6,0-1,0.4-1,1
		c0,0.6,0.4,1,1,1c0.6,0,1-0.4,1-1C48,96.4,47.6,96,47,96z"/>
	<path class="st6" d="M81,100c-1.7,0-3-1.3-3-3s1.3-3,3-3c1.7,0,3,1.3,3,3S82.7,100,81,100z M81,96c-0.6,0-1,0.4-1,1
		c0,0.6,0.4,1,1,1c0.6,0,1-0.4,1-1C82,96.4,81.6,96,81,96z"/>
	<path class="st6" d="M111,97c-1.7,0-3-1.3-3-3c0-1.7,1.3-3,3-3c1.7,0,3,1.3,3,3C114,95.7,112.7,97,111,97z M111,93
		c-0.6,0-1,0.4-1,1c0,0.6,0.4,1,1,1c0.6,0,1-0.4,1-1C112,93.5,111.6,93,111,93z"/>
	<path class="st6" d="M18,97c-1.7,0-3-1.3-3-3c0-1.6,1.3-3,3-3c1.7,0,3,1.3,3,3C21,95.7,19.7,97,18,97z M18,93c-0.6,0-1,0.4-1,1
		c0,0.5,0.4,1,1,1c0.6,0,1-0.4,1-1C19,93.5,18.6,93,18,93z"/>
	<path class="st6" d="M113,67c-1.7,0-3-1.3-3-3c0-1.7,1.3-3,3-3c1.7,0,3,1.3,3,3C116,65.7,114.7,67,113,67z M113,63
		c-0.6,0-1,0.4-1,1s0.4,1,1,1c0.6,0,1-0.4,1-1S113.6,63,113,63z"/>
	<path class="st6" d="M16,67c-1.7,0-3-1.3-3-3c0-1.7,1.3-3,3-3c1.7,0,3,1.3,3,3C19,65.7,17.7,67,16,67z M16,63c-0.6,0-1,0.4-1,1
		s0.4,1,1,1c0.6,0,1-0.4,1-1S16.6,63,16,63z"/>
	<path class="st7" d="M51,119c-2.2,0-4-1.8-4-4c0-2.2,1.8-4,4-4c2.2,0,4,1.8,4,4C55,117.2,53.2,119,51,119z M51,113
		c-1.1,0-2,0.9-2,2c0,1.1,0.9,2,2,2c1.1,0,2-0.9,2-2C53,113.9,52.1,113,51,113z"/>
	<path class="st7" d="M80,16c-2.2,0-4-1.8-4-4c0-2.2,1.8-4,4-4c2.2,0,4,1.8,4,4C84,14.2,82.2,16,80,16z M80,10c-1.1,0-2,0.9-2,2
		c0,1.1,0.9,2,2,2c1.1,0,2-0.9,2-2C82,10.9,81.1,10,80,10z"/>
	<path class="st7" d="M56.6,12.9c0-0.4-0.4-0.8-1-0.9l-1.9-0.3c-0.5-0.1-1.1-0.6-1.1-1.1l-0.3-1.9c-0.1-0.5-0.5-1-0.9-1
		s-0.8,0.4-0.9,1l-0.3,1.9c-0.1,0.5-0.6,1.1-1.1,1.1L47.4,12c-0.5,0.1-1,0.5-1,0.9c0,0.4,0.4,0.8,1,0.9l1.9,0.3
		c0.5,0.1,1.1,0.6,1.1,1.1l0.3,1.9c0.1,0.5,0.5,1,0.9,1s0.8-0.4,0.8-1l0.3-2.1c0.1-0.5,0.6-1,1.1-1.1l1.8-0.1
		C56.2,13.6,56.6,13.3,56.6,12.9z"/>
	<path class="st7" d="M78.9,113.7c0-0.4-0.4-0.8-1-0.9l-1.9-0.3c-0.5-0.1-1.1-0.6-1.1-1.1l-0.3-1.9c-0.1-0.5-0.5-1-0.9-1
		c-0.4,0-0.8,0.4-0.9,1l-0.3,1.9c-0.1,0.5-0.6,1.1-1.1,1.1l-1.9,0.3c-0.5,0.1-1,0.5-1,0.9c0,0.4,0.4,0.8,1,0.9l1.9,0.3
		c0.5,0.1,1.1,0.6,1.1,1.1l0.3,1.9c0.1,0.5,0.5,1,0.9,1c0.4,0,0.8-0.4,0.8-1l0.3-2.1c0.1-0.5,0.6-1,1.1-1.1l1.8-0.1
		C78.5,114.4,78.9,114.1,78.9,113.7z"/>
</g>
</svg>
