<?xml version="1.0" encoding="utf-8"?>
<!-- Generator: Adobe Illustrator 21.0.2, SVG Export Plug-In . SVG Version: 6.00 Build 0)  -->
<svg version="1.1" id="traker" xmlns="http://www.w3.org/2000/svg" xmlns:xlink="http://www.w3.org/1999/xlink" x="0px" y="0px"
	 viewBox="0 0 128 128" style="enable-background:new 0 0 128 128;" xml:space="preserve">
<style type="text/css">
	.st0{fill:#28A5C6;}
	.st1{fill:#FBD000;}
	.st2{fill:#F4B10B;}
	.st3{fill:#663210;}
	.st4{fill:#FF4848;}
	.st5{fill:#415E6D;}
	.st6{fill:#FFFFFF;}
	.st7{opacity:0.5;fill:#FFFFFF;}
</style>
<g>
	<circle class="st0" cx="64" cy="64" r="64"/>
	<path class="st1" d="M89,36.7c0,0-4.5-7.5-6.5-13.1c-1-2.8-2-5.3-2.3-7.3c-0.4-2.2-1.3-3.6-4.1-3.6c-1.6,0-22.1,0-23.7,0
		c-2.8,0-3.7,1.4-4.1,3.6c-0.4,2-1.4,4.5-2.3,7.3c-2,5.6-6.5,13.1-6.5,13.1"/>
	<path class="st2" d="M46.9,20.9c-0.3,0.9-0.6,1.8-1,2.7c-2,5.6-6.5,13.1-6.5,13.1H89c0,0-4.5-7.5-6.5-13.1c-0.3-0.9-0.7-1.8-1-2.7
		C76.2,18.7,70.4,18,64.2,18C58.1,18,52.3,18.7,46.9,20.9z"/>
	<path class="st3" d="M89,37.7c-0.3,0-0.7-0.2-0.9-0.5c-0.2-0.3-4.6-7.7-6.5-13.3c-0.2-0.6-0.4-1.1-0.6-1.7
		c-0.8-2.1-1.5-4.1-1.8-5.8c-0.3-1.7-0.8-2.5-3.1-2.5H52.4c-2.3,0-2.8,0.8-3.1,2.5c-0.3,1.7-1,3.7-1.8,5.8c-0.2,0.5-0.4,1.1-0.6,1.7
		c-2,5.6-6.4,13-6.5,13.3c-0.3,0.5-0.9,0.6-1.4,0.3c-0.5-0.3-0.6-0.9-0.3-1.4c0-0.1,4.5-7.5,6.4-12.9c0.2-0.6,0.4-1.1,0.6-1.7
		c0.8-2.1,1.4-3.9,1.7-5.4c0.5-2.9,2.1-4.1,5.1-4.1h23.7c3,0,4.5,1.2,5.1,4.1c0.3,1.5,0.9,3.3,1.7,5.4c0.2,0.5,0.4,1.1,0.6,1.7
		c1.9,5.4,6.3,12.8,6.4,12.9c0.3,0.5,0.1,1.1-0.3,1.4C89.4,37.7,89.2,37.7,89,37.7z"/>
	<path class="st4" d="M107.2,67.8c0,1.1-0.9,2-2,2h-5.3c-1.1,0-2-0.9-2-2v-9.3c0-1.1,0.9-2,2-2h5.3c1.1,0,2,0.9,2,2V67.8z"/>
	<path class="st1" d="M89,90.8c0,0-4.5,7.5-6.5,13.1c-1,2.8-2,5.3-2.3,7.3c-0.4,2.2-1.3,3.6-4.1,3.6c-1.6,0-22.1,0-23.7,0
		c-2.8,0-3.7-1.4-4.1-3.6c-0.4-2-1.4-4.5-2.3-7.3c-2-5.6-6.5-13.1-6.5-13.1"/>
	<path class="st2" d="M45.9,103.9c0.2,0.7,0.5,1.3,0.7,1.9c5.4,2.3,11.4,4.2,17.6,4.2s12.2-1.9,17.6-4.2c0.2-0.6,0.5-1.3,0.7-1.9
		c2-5.6,6.5-13.1,6.5-13.1H39.5C39.5,90.8,44,98.3,45.9,103.9z"/>
	<path class="st3" d="M76.1,116H52.4c-3.8,0-4.7-2.6-5.1-4.6c-0.3-1.5-0.9-3.3-1.7-5.4c-0.2-0.5-0.4-1.1-0.6-1.7
		c-1.9-5.4-6.3-12.8-6.4-12.9c-0.3-0.5-0.1-1.1,0.3-1.4c0.5-0.3,1.1-0.1,1.4,0.3c0.2,0.3,4.6,7.7,6.5,13.3c0.2,0.6,0.4,1.1,0.6,1.7
		c0.8,2.1,1.5,4.1,1.8,5.8c0.4,2.2,1.2,3,3.1,3h23.7c1.9,0,2.7-0.8,3.1-3c0.3-1.7,1-3.7,1.8-5.8c0.2-0.5,0.4-1.1,0.6-1.7
		c2-5.6,6.4-13,6.5-13.3c0.3-0.5,0.9-0.6,1.4-0.3c0.5,0.3,0.6,0.9,0.3,1.4c0,0.1-4.5,7.5-6.4,12.9c-0.2,0.6-0.4,1.1-0.6,1.7
		c-0.8,2.1-1.4,3.9-1.7,5.4C80.8,113.4,79.9,116,76.1,116z"/>
	<path class="st3" d="M105,71h-5c-1.7,0-3-1.3-3-3V58c0-1.7,1.3-3,3-3h5c1.7,0,3,1.3,3,3v10C108,69.7,106.7,71,105,71z M100,57
		c-0.6,0-1,0.4-1,1v10c0,0.6,0.4,1,1,1h5c0.6,0,1-0.4,1-1V58c0-0.6-0.4-1-1-1H100z"/>
	<circle class="st4" cx="64.2" cy="63.4" r="38.4"/>
	<circle class="st5" cx="64.2" cy="63.4" r="32.8"/>
	<path class="st4" d="M69.8,41c-3.4-0.4-5,2.5-5.3,2.9c-0.3-0.4-1.6-3.2-5.3-2.9c-3.8,0.4-5.2,3.5-5.2,6c0,2.6,1,5.1,3.5,7.7
		c2.8,3,6.6,5.2,7,5.2c0.4,0,4.1-2.2,6.9-5.2c2.5-2.7,3.5-5.1,3.5-7.7C75,44.5,73.6,41.5,69.8,41z"/>
	<path class="st6" d="M73,68H56c-0.6,0-1-0.5-1-1c0-0.6,0.5-1,1-1H73c0.6,0,1,0.4,1,1C74,67.5,73.5,68,73,68z"/>
	<path class="st6" d="M63.2,72H56c-0.6,0-1-0.4-1-1s0.5-1,1-1h7.1c0.6,0,1,0.4,1,1S63.7,72,63.2,72z"/>
	<path class="st6" d="M75,72h-7c-0.6,0-1-0.4-1-1s0.4-1,1-1h7c0.6,0,1,0.4,1,1S75.6,72,75,72z"/>
	<path class="st6" d="M64.4,90.4c-0.5,0-0.9-0.3-1-0.8l-1.6-6.9l-0.7,1.6C61,84.8,60.6,85,60.2,85H52c-0.6,0-1-0.4-1-1s0.4-1,1-1
		h7.6l1.6-3.7c0.2-0.4,0.6-0.6,1-0.6c0.4,0,0.8,0.3,0.9,0.8l1.3,5.4l1.7-8.3c0.1-0.5,0.5-0.8,1-0.8c0,0,0,0,0,0c0.5,0,0.9,0.3,1,0.8
		l1.5,6.5H76c0.6,0,1,0.4,1,1s-0.4,1-1,1h-7.4c-0.5,0-0.9-0.3-1-0.8L67,81.5l-1.7,8.2C65.3,90.1,64.9,90.4,64.4,90.4
		C64.4,90.4,64.4,90.4,64.4,90.4z"/>
	<path class="st3" d="M64.2,103C42.6,103,25,85.2,25,63.4C25,41.7,42.6,24,64.2,24C86,24,103,41.3,103,63.4
		C103,85.2,85.6,103,64.2,103z M64.2,26C43.7,26,27,42.8,27,63.4C27,84.1,43.7,101,64.2,101c20.3,0,36.8-16.9,36.8-37.6
		C101,42.4,84.9,26,64.2,26z"/>
	<path class="st3" d="M64.2,98C45.7,98,30,82.2,30,63.4C30,44.8,45.7,29,64.2,29C82.9,29,98,44.4,98,63.4C98,82.5,82.9,98,64.2,98z
		 M64.2,31C46.8,31,32,45.8,32,63.4C32,81.1,46.8,96,64.2,96C81.5,96,96,81.1,96,63.4C96,45.5,81.8,31,64.2,31z"/>
	<path class="st7" d="M104,34c-2.2,0-4-1.8-4-4c0-2.2,1.8-4,4-4c2.2,0,4,1.8,4,4C108,32.2,106.2,34,104,34z M104,28
		c-1.1,0-2,0.9-2,2c0,1.1,0.9,2,2,2c1.1,0,2-0.9,2-2C106,28.9,105.1,28,104,28z"/>
	<path class="st7" d="M13,72c-2.2,0-4-1.8-4-4c0-2.2,1.8-4,4-4c2.2,0,4,1.8,4,4C17,70.2,15.2,72,13,72z M13,66c-1.1,0-2,0.9-2,2
		c0,1.1,0.9,2,2,2c1.1,0,2-0.9,2-2C15,66.9,14.1,66,13,66z"/>
	<path class="st7" d="M29,104c-2.2,0-4-1.8-4-4c0-2.2,1.8-4,4-4c2.2,0,4,1.8,4,4C33,102.2,31.2,104,29,104z M29,98c-1.1,0-2,0.9-2,2
		c0,1.1,0.9,2,2,2c1.1,0,2-0.9,2-2C31,98.9,30.1,98,29,98z"/>
	<path class="st7" d="M109,89c0-0.4-0.4-0.8-1-0.8l-1.8-0.3c-0.5-0.1-1-0.6-1.1-1.1l-0.3-1.8c-0.1-0.5-0.5-1-0.8-1
		c-0.4,0-0.8,0.4-0.8,1l-0.3,1.8c-0.1,0.5-0.6,1-1.1,1.1l-1.8,0.3c-0.5,0.1-1,0.5-1,0.8c0,0.4,0.4,0.8,1,0.8l1.8,0.3
		c0.5,0.1,1,0.6,1.1,1.1l0.3,1.8c0.1,0.5,0.5,1,0.8,1c0.4,0,0.8-0.4,0.8-1l0.3-2.1c0.1-0.5,0.6-1,1.1-1l1.8-0.1
		C108.6,89.7,109,89.4,109,89z"/>
	<path class="st7" d="M32.8,28.3c0-0.4-0.4-0.8-1-0.9L30,27.2c-0.5-0.1-1.1-0.6-1.1-1.1l-0.3-1.9c-0.1-0.5-0.5-1-0.9-1
		c-0.4,0-0.8,0.4-0.9,1L26.6,26c-0.1,0.5-0.6,1.1-1.1,1.1l-1.9,0.3c-0.5,0.1-1,0.5-1,0.9c0,0.4,0.4,0.8,1,0.9l1.9,0.3
		c0.5,0.1,1.1,0.6,1.1,1.1l0.3,1.9c0.1,0.5,0.5,1,0.9,1c0.4,0,0.8-0.4,0.8-1l0.3-2.1c0.1-0.5,0.6-1,1.1-1.1l1.8-0.1
		C32.4,29,32.8,28.7,32.8,28.3z"/>
	<path class="st3" d="M64.5,61c-1,0-5-2.7-7.7-5.5C54.2,52.8,53,50,53,47.1c0-3.2,1.9-6.6,6.1-7.1c0.3,0,0.5,0,0.8,0
		c1.9,0,3.4,0.7,4.6,2.2c1.6-1.8,3.3-2.2,4.6-2.2c0.2,0,0.5,0,0.8,0c4.2,0.5,6.1,3.9,6.1,7.1c0,2.9-1.2,5.7-3.8,8.4
		C69.5,58.3,65.5,61,64.5,61z M59.9,42.1c-0.2,0-0.4,0-0.6,0c-4.1,0.4-4.4,4.3-4.4,5c0,2.4,1,4.6,3.3,7c2.4,2.5,5.4,4.4,6.3,4.8
		c0.9-0.4,3.9-2.3,6.2-4.8c2.2-2.4,3.3-4.6,3.3-7c0-2.2-1.1-4.6-4.4-5c-1.8-0.2-3.2,0.6-4.3,2.3l-0.1,0.1c-0.2,0.3-0.5,0.4-0.8,0.4
		h0c-0.3,0-0.6-0.2-0.8-0.4c0,0-0.1-0.1-0.1-0.2C63.2,43.7,62.2,42.1,59.9,42.1z"/>
	<path class="st7" d="M82,87c-0.3,0-0.6-0.1-0.8-0.4c-0.3-0.4-0.3-1,0.2-1.4c4.7-3.7,8.1-8.8,9.7-14.5c0.1-0.5,0.7-0.8,1.2-0.7
		c0.5,0.1,0.8,0.7,0.7,1.2c-1.6,6.1-5.3,11.6-10.4,15.6C82.4,86.9,82.2,87,82,87z"/>
	<path class="st7" d="M93,64c-0.5,0-1-0.4-1-1c0-15.4-12.5-28-27.8-28c-4.4,0-8.6,1-12.6,3c-0.5,0.2-1.1,0.1-1.3-0.4
		c-0.2-0.5-0.1-1.1,0.4-1.3c4.2-2.1,8.7-3.2,13.5-3.2C80.6,33,94,46.5,94,63C94,63.6,93.6,64,93,64z"/>
</g>
</svg>
