<?xml version="1.0" encoding="utf-8"?>
<!-- Generator: Adobe Illustrator 21.0.2, SVG Export Plug-In . SVG Version: 6.00 Build 0)  -->
<svg version="1.1" id="zoom" xmlns="http://www.w3.org/2000/svg" xmlns:xlink="http://www.w3.org/1999/xlink" x="0px" y="0px"
	 viewBox="0 0 128 128" style="enable-background:new 0 0 128 128;" xml:space="preserve">
<style type="text/css">
	.st0{fill:#FBD000;}
	.st1{fill:#F4B10B;}
	.st2{fill:#00B3F9;}
	.st3{fill:#0C508E;}
	.st4{fill:#9BEBF9;}
	.st5{fill:#C68D55;}
	.st6{fill:#A55F26;}
	.st7{fill:#7C4119;}
	.st8{fill:#FFFFFF;}
	.st9{opacity:0.3;fill:#00B3F9;}
	.st10{opacity:0.5;fill:#FFFFFF;}
</style>
<g>
	<circle class="st0" cx="64" cy="64" r="64"/>
	<path class="st1" d="M113,105.5l-6.2-6.2c-2.1-2.1-5-3.4-8-3.4c-1,0-1.9,0.1-2.8,0.4l-8-8.1c4.6-6.2,7.2-13.8,7.2-21.7
		c0-9.7-3.8-18.8-10.6-25.6C77.8,34,68.7,30.3,59.1,30.3c-9.6,0-18.7,3.8-25.5,10.6C19.5,55,19.5,78,33.6,92.2
		C40.4,99,49.4,103,59,103c8,0,15.8-2.8,22-7.7l8.2,8.3c-0.8,3.5,0.3,7.4,3.1,10.2l4.8,4.8C103.1,115.1,108.5,110.7,113,105.5z"/>
	<rect x="85.8" y="75.9" transform="matrix(0.707 -0.7072 0.7072 0.707 -35.1802 88.939)" class="st2" width="8" height="22"/>
	<path class="st2" d="M84.8,76.3L79.1,82l6,6c1-0.8,1.9-1.6,2.8-2.5c1-1,1.9-2.1,2.8-3.2L84.8,76.3z"/>
	<path class="st3" d="M94.7,98.5c-0.3,0-0.5-0.1-0.7-0.3L78.4,82.7c-0.2-0.2-0.3-0.4-0.3-0.7c0-0.3,0.1-0.5,0.3-0.7l5.7-5.7
		c0.4-0.4,1-0.4,1.4,0l15.6,15.6c0.4,0.4,0.4,1,0,1.4l-5.7,5.7C95.2,98.4,95,98.5,94.7,98.5z M80.6,82l14.1,14.1l4.2-4.2L84.8,77.7
		L80.6,82z"/>
	<ellipse transform="matrix(0.7071 -0.7071 0.7071 0.7071 -22.6823 58.2885)" class="st2" cx="59" cy="56.5" rx="35.3" ry="35.3"/>
	<path class="st3" d="M59,92c-9.6,0-18.7-3.7-25.5-10.5c-14-14-14-36.9,0-50.9C40.3,23.7,49.4,20,59,20s18.7,3.7,25.5,10.5
		C91.3,37.3,95,46.4,95,56s-3.7,18.7-10.5,25.5C77.7,88.3,68.6,92,59,92z M59,22c-9.1,0-17.6,3.5-24.1,10
		c-13.3,13.3-13.3,34.8,0,48.1c6.4,6.4,15,10,24.1,10c9.1,0,17.6-3.5,24.1-10c6.4-6.4,10-15,10-24.1s-3.5-17.6-10-24.1
		C76.6,25.5,68.1,22,59,22z"/>
	<ellipse transform="matrix(0.7071 -0.7071 0.7071 0.7071 -22.6826 58.2903)" class="st4" cx="59" cy="56.5" rx="24.2" ry="24.2"/>
	<path class="st5" d="M121.2,105c3.9,3.9,4.1,10,0.5,13.6c-3.6,3.6-9.7,3.4-13.6-0.5l-15-15c-3.9-3.9-4.1-10-0.5-13.6
		c3.6-3.6,9.7-3.4,13.6,0.5L121.2,105z"/>
	<path class="st6" d="M122.8,113.6c-3.6,3.6-9.7,3.4-13.6-0.5l-15-15c-1.8-1.8-2.9-4.2-3-6.5c-1.9,3.6-1.2,8.3,2,11.5l15,15
		c3.9,3.9,10,4.1,13.6,0.5c1.9-1.9,2.7-4.5,2.5-7.1C123.9,112.3,123.4,113,122.8,113.6z"/>
	<path class="st7" d="M115.2,122c-2.9,0-5.8-1.2-8-3.4l-14.9-14.9c-4.3-4.3-4.5-11-0.5-14.9c1.8-1.8,4.3-2.8,7-2.8
		c2.9,0,5.8,1.2,8,3.4l14.9,14.9c4.3,4.3,4.5,11,0.5,14.9C120.3,121,117.9,122,115.2,122z M98.8,88c-2.1,0-4.1,0.8-5.6,2.2
		c-3.2,3.2-3,8.6,0.5,12.1l14.9,14.9c1.8,1.8,4.1,2.8,6.5,2.8c2.1,0,4.1-0.8,5.6-2.2c3.2-3.2,3-8.6-0.5-12.1l-14.9-14.9
		C103.6,89,101.2,88,98.8,88z"/>
	<path class="st8" d="M40,53c-0.1,0-0.2,0-0.2,0c-0.5-0.1-0.9-0.7-0.7-1.2c2.7-11.1,14-17.9,25.1-15.1c3.2,0.8,6.1,2.3,8.5,4.4
		c0.4,0.4,0.5,1,0.1,1.4c-0.4,0.4-1,0.5-1.4,0.1c-2.2-1.9-4.8-3.3-7.7-4c-10-2.5-20.2,3.7-22.6,13.7C40.9,52.7,40.5,53,40,53z"/>
	<path class="st8" d="M78.6,61.9c-0.1,0-0.1,0-0.2,0c-0.5-0.1-0.8-0.7-0.7-1.2c0.8-3.8,0.6-7.7-0.6-11.3c-0.2-0.5,0.1-1.1,0.5-1.3
		c0.5-0.2,1,0.1,1.2,0.6c1.4,4,1.6,8.3,0.7,12.5C79.3,61.6,79,61.9,78.6,61.9z"/>
	<path class="st9" d="M76.1,65.6c-9.4,9.4-24.7,9.4-34.2,0c-3.7-3.7-5.9-8.3-6.7-13.1c-1.2,7.4,1,15.3,6.7,21.1
		c9.4,9.4,24.7,9.4,34.2,0c5.7-5.7,8-13.6,6.7-21.1C82,57.3,79.8,61.9,76.1,65.6z"/>
	<path class="st3" d="M59,82c-6.7,0-13-2.7-17.7-7.5c-9.7-9.9-9.7-26.1,0-36.1C46,33.7,52.3,31,59,31c6.7,0,13,2.7,17.7,7.5
		c4.7,4.8,7.3,11.2,7.3,18c0,6.8-2.6,13.2-7.3,18C72,79.3,65.7,82,59,82z M59,33c-6.1,0-11.9,2.4-16.3,6.9c-9,9.2-9,24,0,33.2
		C47.1,77.5,52.8,80,59,80s11.9-2.4,16.3-6.9c4.3-4.4,6.7-10.3,6.7-16.6c0-6.3-2.4-12.2-6.7-16.6C70.9,35.5,65.1,33,59,33z"/>
	<path class="st10" d="M116,108c-0.2,0-0.5-0.1-0.7-0.3l-7.1-7.1c-0.4-0.4-0.4-1,0-1.4c0.4-0.4,1-0.4,1.4,0l7.1,7.1
		c0.4,0.4,0.4,1,0,1.4C116.5,107.9,116.3,108,116,108z"/>
	<path class="st10" d="M103,95c-0.2,0-0.5-0.1-0.7-0.3c-1.8-1.9-4.5-2.3-5.7-1c-0.4,0.4-1,0.4-1.4,0c-0.4-0.4-0.4-1,0-1.4
		c2-2.1,5.8-1.6,8.4,1c0.4,0.4,0.4,1,0,1.4C103.5,94.9,103.3,95,103,95z"/>
	<path class="st10" d="M59.2,86C59.2,86,59.2,86,59.2,86c-7.8,0-15.1-3-20.6-8.5c-9.1-9.1-11.2-22.9-5.1-34.2
		c1.4-2.5,3.1-4.9,5.1-6.9c0.4-0.4,1-0.4,1.4,0c0.4,0.4,0.4,1,0,1.4c-1.9,1.9-3.5,4.1-4.8,6.5c-5.6,10.6-3.7,23.4,4.8,31.9
		c5.1,5.1,12,7.9,19.2,7.9c7.3,0,14.1-2.8,19.2-7.9c0.4-0.4,1-0.4,1.4,0c0.4,0.4,0.4,1,0,1.4C74.3,83,67,86,59.2,86z"/>
	<path class="st10" d="M83.4,72c-0.2,0-0.3,0-0.5-0.1c-0.4-0.3-0.6-0.9-0.3-1.4c2.3-4.3,3.6-9.3,3.6-14.4c0-0.6,0.4-1,0.9-1h0
		c0.5,0,0.9,0.5,0.9,1c0,5.4-1.3,10.8-3.8,15.4C84,71.8,83.7,72,83.4,72z"/>
	<path class="st8" d="M105,42c-2.2,0-4-1.8-4-4c0-2.2,1.8-4,4-4c2.2,0,4,1.8,4,4C109,40.2,107.2,42,105,42z M105,36
		c-1.1,0-2,0.9-2,2c0,1.1,0.9,2,2,2c1.1,0,2-0.9,2-2C107,36.9,106.1,36,105,36z"/>
	<path class="st8" d="M14,71c-2.2,0-4-1.8-4-4c0-2.2,1.8-4,4-4c2.2,0,4,1.8,4,4C18,69.2,16.2,71,14,71z M14,65c-1.1,0-2,0.9-2,2
		c0,1.1,0.9,2,2,2c1.1,0,2-0.9,2-2C16,65.9,15.1,65,14,65z"/>
	<path class="st8" d="M24.6,100.6c0-0.4,0.4-0.8,1-0.9l1.9-0.3c0.5-0.1,1.1-0.6,1.1-1.1l0.3-1.9c0.1-0.5,0.5-1,0.9-1s0.8,0.4,0.9,1
		l0.3,1.9c0.1,0.5,0.6,1.1,1.1,1.1l1.9,0.3c0.5,0.1,1,0.5,1,0.9c0,0.4-0.4,0.8-1,0.9l-1.9,0.3c-0.5,0.1-1.1,0.6-1.1,1.1l-0.3,1.9
		c-0.1,0.5-0.5,1-0.9,1s-0.8-0.4-0.9-1l-0.3-2.1c-0.1-0.5-0.6-1-1.1-1.1l-1.8-0.1C25.1,101.3,24.6,100.9,24.6,100.6z"/>
	<path class="st8" d="M107.2,76.3c0-0.4,0.4-0.8,1-0.9l1.9-0.3c0.5-0.1,1.1-0.6,1.1-1.1l0.3-1.9c0.1-0.5,0.5-1,0.9-1
		c0.4,0,0.8,0.4,0.9,1l0.3,1.9c0.1,0.5,0.6,1.1,1.1,1.1l1.9,0.3c0.5,0.1,1,0.5,1,0.9c0,0.4-0.4,0.8-1,0.9l-1.9,0.3
		c-0.5,0.1-1.1,0.6-1.1,1.1l-0.3,1.9c-0.1,0.5-0.5,1-0.9,1c-0.4,0-0.8-0.4-0.9-1l-0.3-2.1c-0.1-0.5-0.6-1-1.1-1.1l-1.8-0.1
		C107.6,77.1,107.2,76.7,107.2,76.3z"/>
	<path class="st8" d="M66.2,10.7c0-0.4,0.4-0.8,1-0.9L69,9.5c0.5-0.1,1.1-0.6,1.1-1.1l0.3-1.9c0.1-0.5,0.5-1,0.9-1s0.8,0.4,0.9,1
		l0.3,1.9c0.1,0.5,0.6,1.1,1.1,1.1l1.9,0.3c0.5,0.1,1,0.5,1,0.9s-0.4,0.8-1,0.9l-1.9,0.3c-0.5,0.1-1.1,0.6-1.1,1.1l-0.3,1.9
		c-0.1,0.5-0.5,1-0.9,1s-0.8-0.4-0.9-1l-0.3-2.1c-0.1-0.5-0.6-1-1.1-1.1l-1.8-0.1C66.6,11.4,66.2,11,66.2,10.7z"/>
	<path class="st8" d="M80.7,37.8c0-0.4-0.4-0.8-1-0.9L75,36c-0.5-0.1-1.1-0.6-1.2-1.2l-0.8-4.8c-0.1-0.5-0.5-1-0.9-1s-0.8,0.4-0.9,1
		l-0.8,4.8c-0.1,0.5-0.6,1.1-1.2,1.2l-4.8,0.8c-0.5,0.1-1,0.5-1,0.9c0,0.4,0.4,0.8,1,0.9l4.7,0.6c0.5,0.1,1.1,0.6,1.2,1.1l0.9,5
		c0.1,0.5,0.5,1,0.9,1s0.8-0.4,0.9-1l0.9-5.1c0.1-0.5,0.6-1,1.2-1.1l4.7-0.6C80.2,38.6,80.7,38.2,80.7,37.8z"/>
</g>
</svg>
